{
  "bundleName": "ArcGIS serveri trükkimine",
  "bundleDescription": "See kimp annab ArcGIS Server trükkimine vahend.",
  "ui": {
    "button": {
      "title": "Trüki praegune kaart"
    },
    "window": {
      "title": "Printimine väljund"
    },
    "error": {
      "unknown": "ArcGIS Server Printing: tundmatu viga!",
      "code403": "AGS Printing: konfigureeritud trükiteenuse URL peab olema oma proxys lubatud nimekirjas!",
      "code404": "AGS Printing: trükkimine teenust ei saa lahendatud konfigureeritud URL!"
    },
    "dialog": {
      "title": "Pealkiri",
      "format": "Formaat",
      "layout": "Asetus",
      "dpi": "DPI",
      "scale": "Hooldaja skaalal",
      "submitBtnLabel": "Trükk"
    },
    "imgPrintResultWidget": {
      "printBtnText": "Trükk"
    }
  }
}