{
  "bundleName": "ArcGIS for Server Search",
  "bundleDescription": "Kimp annab võimaluse kasutada ArcGIS serveri teenuste kiht nagu Web andmeallika",
  "defaults": {
    "name": "Mängufilm",
    "description": "Sirvi plugin objektide ArcGIS Server Layer",
    "placeHolder": "Omadus  nimi ..."
  }
}