{
  "bundleName": "Järjehoidjad seadistamisnõustajaga kimp",
  "bundleDescription": "Seadistamisnõustajaga kimp järjehoidjad widget",
  "menu": {
    "title": "Ruumiline Bookmarks"
  },
  "widget": {
    "description": "Configuration järjehoidjad",
    "editable": "Laske custom järjehoidjad",
    "localStorageKey": "Nimi kohaliku ladustamine",
    "predefinedBookmarks": "Etteantud järjehoidjad",
    "predefinedBookmarksHint": "On võimalik prefine järjehoidjad. Need järjehoidjad on saadaval kõigile kasutajatele vaikimisi. Liiguta kaart soovitud ulatuses ja salvestage see."
  }
}