{
  "bundleName": "Kimp juhtimine",
  "bundleDescription": "Annab liidesed kimp juhtimine",
  "commonDelete": {
    "saveQuery": "Kas tõesti kustutada '{number}' item (s)?",
    "error": "Kustutamine objektide {items} \"ebaõnnestus!",
    "partialSuccess": "Mõned objektid ei saa kustutada!",
    "errorFinish": "No objektid on kustutatud!",
    "success": "Kustuta operatsiooni edukalt!"
  },
  "bundleListTool": {
    "title": "Kimbud",
    "desc": "Loetelu Kimbud"
  },
  "removeSelectedBundlesTool": {
    "title": "Kustutama",
    "desc": "Kustuta kimp"
  },
  "createBundleTool": {
    "title": "Laadi",
    "desc": "Laadi Kimbud"
  },
  "dataViewCommon": {
    "filter": {
      "menuDefaultLabel": "Kõik",
      "textBoxPlaceHolder": ""
    },
    "pager": {
      "backButtonTooltip": "Eelmine",
      "forwardButtonTooltip": "Järgmine lehekülg",
      "firstButtonTooltip": "Esimene lehekülg",
      "lastButtonTooltip": "Viimane lehekülg",
      "pageLabeltext": "Lehekülg:",
      "pageSizeLabelText": "Tulemused ${pageStartItemNumber}-${pageEndItemNumber}/${itemCount}",
      "pageLabelText": "Lehekülg:"
    }
  },
  "bundlesView": {
    "noDataMessage": "Puuduvad kimbud saadaval ...",
    "name": "Nimi",
    "version": "Versioon",
    "title": "Pealkiri",
    "desc": "Kirjeldus",
    "modifiedBy": "Muutja",
    "modifiedAt": "Modifitseerida"
  },
  "bundleDetailsView": {
    "windowTitle": "Bundle \"{id} '",
    "createWindowTitle": "Laadi Kimbud",
    "name": "Nimi",
    "version": "Versioon",
    "dependencies": "Sõltuvused:",
    "main": "Põhiline faili:",
    "layer": "Kiht faili:",
    "location": "Asukoht:",
    "title": "Pealkiri:",
    "description": "Kirjeldus:",
    "createdAt": "Loodud:",
    "createdBy": "Loodud:",
    "modifiedAt": "Modifitseerida",
    "modifiedBy": "Muutja",
    "id": "ID:",
    "upload": "Laadi",
    "uploaded": "100% - kimbud on kaevandatud ja imporditud",
    "updateError": "Kimp \"{id} 'ei saa salvestada! {error}",
    "updateSuccess": "Kimp \"{id} 'edukas salvestatud!",
    "uploadStart": "Laadi Alustas!",
    "uploadError": "Viga üleslaadimisel:",
    "uploadFinished": "Laadi lõppenud!",
    "createBundleInfo": "<strong>Laadi üles oma kimbud</strong> <br/><ul><li> Lubatud on zip või jar faile </li><li> Fail võib sisaldada mitut kimbud. </li></ul>",
    "panelDefaultTitle": "<strong>Üldparameetrid</strong>",
    "panelExtendedTitle": "<strong>Laiendatud Information</strong>",
    "panelJsonInfoTitle": "<strong>package.json</strong>"
  }
}