{
  "bundleName": "Koordinaatide ekraan konfiguratsiooni",
  "bundleDescription": "Configuration koordinaatide ekraan",
  "menu": {
    "title": "Koordinaatide ekraan"
  },
  "widget": {
    "description": "Konfiguratsiooniparameetrid koordinaatide ekraanil.",
    "showScale": "Näita mõõtkava",
    "showCoordinates": "Näita koordinaadid",
    "degreeFormat": "Näita koordinaadid kraadides",
    "degreeFormatTooltip": "Kraadi formaadis kasutatakse ainult siis, kui ruumiline taustsüsteemi koordinaatide pikkus- ja laiuskraadide põhineb",
    "decimalPlaces": "Kümnendkohani koordinaatide",
    "transformSrs": "Transform koordinaadid",
    "targetSrs": "Sihtmärk süsteemi ümberkujundamise",
    "targetSrsTooltip": "See konfigureerimisparameeter kasutatakse ainult siis, kui \"Transform koordinaadid\" on lubatud."
  }
}