{
  "bundleName": "Legend konfiguratsiooni",
  "bundleDescription": "See kimp annab konfiguratsiooni komponendid legend kimbu.",
  "menu": {
    "title": "Legend"
  },
  "widget": {
    "description": "Configuration legendi funktsiooni.",
    "alignmentLeft": {
      "title": "Viia legend sisu vasakule",
      "tooltip": "Kui puudega, legend sisu on joondatud paremale."
    },
    "respectCurrentMapScale": {
      "title": "Kuvada seletavat teavet nähtavaid kihid ainult",
      "tooltip": "Kui see on lubatud, legend uuendab iga kaardi mõõtkava muuta ja kuvada ainult informatsiooni kihid, mis on nähtav praeguse kaardi mõõtkava."
    },
    "showBaseLayer": {
      "title": "Näita legend baasi kaardid",
      "tooltip": "Kui see on lubatud, legend kanded ka näidata baasi kaardid."
    }
  }
}