{
  "bundleName": "Navigatsioon tööriistakomplekt",
  "bundleDescription": "Liikumisriba pakub klassikalist navigatsiooni vahendeid (näiteks suumi täies ulatuses).",
  "ui": {
    "zoomInTool": {
      "title": "Laiendama",
      "tooltip": "Laiendama"
    },
    "zoomOutTool": {
      "title": "Vähendama",
      "tooltip": "Vähendama"
    },
    "panTool": {
      "title": "Käik",
      "tooltip": "Käik"
    },
    "zoomToNextExtent": {
      "title": "Järgmine ulatus",
      "tooltip": "Liigub järgmisele ruumi lõik"
    },
    "zoomToPrevExtent": {
      "title": "Eelmine ruumi lõik",
      "tooltip": "Eelmisele ruumi lõik"
    },
    "zoomToFullExtent": {
      "title": "Täies mahus",
      "tooltip": "Switch to täis pikendamine"
    },
    "zoomToInitialExtent": {
      "title": "Esialgne jagu ruumi",
      "tooltip": "Switch to esialgse laienemise"
    },
    "zoomInClickTool": {
      "title": "Laiendama",
      "tooltip": "Laiendama"
    },
    "zoomOutClickTool": {
      "title": "Vähendama",
      "tooltip": "Vähendama"
    }
  }
}