{
  "bundleName": "Otsi Omni-konfiguratsiooni",
  "bundleDescription": "Konfiguratsioon kimbu jaoks omnisearch kimbu.",
  "menu": {
    "title": "Otsi Omni"
  },
  "widget": {
    "description": "See menüü kasutatakse konfiguratsiooni ainult pinna Omni otsingut. Aktiveeritud otsing teemasid Sul vaja seadistada individuaalselt.",
    "hint": "Otsing on nähtav ainult siis, kui vähemalt üks otsingut teema on lubatud.",
    "displayLoadingIcon": "Näita laadimise ikooni",
    "ignoreCase": "Ignoreeri puhul",
    "autoComplete": "Luba auto-täielik",
    "autoSelect": "Valige esiletõstetud rippmenüüst",
    "selectFirstResultOnEnter": "Valige esimene tulemus, kui vajutada <ENTER>"
  }
}