{
  "bundleName": "Printimine konfiguratsiooni",
  "bundleDescription": "See kimp seadistab trükkimine funktsionaalsust.",
  "menu": {
    "title": "Trükk"
  },
  "widget": {
    "description": "Configuration trükkimise abil.",
    "printservletURL": {
      "title": "Prindi Servlet URL",
      "tooltip": "URL print Servlet"
    },
    "downloadResponseWithoutShowing": {
      "title": "Ostene download näitamata",
      "tooltip": "Genereeritud trükkimise tulemusena saab näidata akna või saab otseselt laadida"
    },
    "format": {
      "title": "Formaat",
      "tooltip": "Vormi loodud print tulemus"
    },
    "title": {
      "title": "Pealkiri",
      "tooltip": "Pealkiri väljaprint"
    }
  }
}