{
  "bundleName": "Viik",
  "bundleDescription": "Joonistamine kimbu annab kasutajale joonistamise ja redigeerimise tööriistad.",
  "commonDelete": {
    "saveQuery": "Kas tõesti kustutada {number} item (s)?",
    "error": "Kustutamine objektide {items} \"ebaõnnestus!",
    "partialSuccess": "Mõned objektid ei saa kustutada!",
    "errorFinish": "No objektid on kustutatud!",
    "success": "Kustuta operatsiooni edukalt!"
  },
  "ui": {
    "tools": {
      "moveScaleRotateVertices": {
        "title": "Muuta graafika",
        "tooltip": "Muuda graafika (kliki graafiline lülitab režiim)"
      },
      "moveScaleRotate": {
        "title": "Liiguta, ulatuse, pöörata",
        "tooltip": "Liiguta, ulatuse, või pöörata graafika"
      },
      "editVertices": {
        "title": "Muuta sõlme",
        "tooltip": "Muuda tippude graafika"
      },
      "deleteGraphic": {
        "title": "Kustuta Graafika",
        "tooltip": "Kustuta Graafika"
      }
    },
    "styleProperties": {
      "tool": {
        "title": "Märkide omadused",
        "tooltip": "Märkide omadused"
      },
      "presets": {
        "title": "Eelseaded",
        "deletePresetTool": "Kustutamine eelseaded",
        "editPresetTool": "Muuda malli",
        "addPresetWidget": {
          "textboxPlaceHolder": "Säästa Mall ...",
          "buttonTooltip": "Säästa Mall ..."
        },
        "overwriteExistingItemMessageTitle": "Mall on juba olemas",
        "overwriteExistingItemMessage": "Malli nimega \"{itemName} 'on juba olemas. Kui soovite malli selle üle kirjutada?",
        "overwritePreConfiguredItemTitle": "Viga",
        "overwritePreConfiguredItemMessage": "Sa ei saa üle kirjutada eelnevalt seadistatud etteantud!",
        "dataview": {
          "pager": {
            "backButtonTooltip": "Tagasi",
            "forwardButtonTooltip": "Edasi",
            "firstButtonTooltip": "Esimene",
            "lastButtonTooltip": "Viimane",
            "pageLabelText": "Lehekülg ${currentPage}/${endPage}",
            "zeroResultsText": "",
            "pageSizeLabelText": "${pageStartItemNumber} - ${pageEndItemNumber}/${itemCount}"
          },
          "filter": {
            "menuDefaultLabel": "Kõik",
            "textBoxPlaceHolder": "Otsima ..."
          },
          "DGRID": {
            "noDataMessage": "No salvestatud malle saadaval.",
            "loadingMessage": "Laen andmeid ...",
            "error": "Viga:"
          }
        },
        "presetStoreColumns": {
          "id": "Nimi",
          "style": "Tüüp",
          "preconfigured": "Konfigureeritud"
        },
        "notifier": {
          "saveSuccess": "Mall '{itemName} \"on edukalt salvestatud.",
          "saveError": "Mall '{itemName} \"pole võimalik salvestada. {error}",
          "applySuccess": "Mall '{itemName} \"on edukalt rakendatud.",
          "applyError": "Mall '{itemName} \"ei saa kohaldada. {error}"
        },
        "groups": {
          "font": "Tekst",
          "stroke": "Rida",
          "fill": "Täitma",
          "symbol": "Sümbol",
          "marker": "Marker"
        }
      },
      "text": {
        "title": "Tekst",
        "fontFamily": "Font",
        "fontSize": "Fondi suurus",
        "fontColor": "Värv",
        "fontStyle": {
          "title": "Stiil",
          "bold": "Julge",
          "italic": "Kald-",
          "underlined": "Rõhutama"
        },
        "fontTransparency": "Läbipaistvus"
      },
      "symbol": {
        "title": "Rida / Täitke",
        "stroke": {
          "title": "Rida",
          "color": "Värv",
          "style": "Stiil",
          "width": "Laius",
          "transparency": "Läbipaistvus",
          "strokeval": {
            "none": "Mitte ükski"
          }
        },
        "fill": {
          "title": "Täitma",
          "color": "Värv",
          "pattern": "Muster",
          "transparency": "Läbipaistvus",
          "patternval": {
            "none": "Mitte ükski",
            "solid": "Tahke",
            "vertical": "Must vertikaalne",
            "horizontal": "Must Horisontaalsed",
            "backwarddiagonal": "Must paremale diagonaali",
            "forwarddiagonal": "Must vasakul diagonaal",
            "cross": "Must Registreeritud",
            "diagonalcross": "Must ületanud"
          }
        }
      },
      "marker": {
        "title": "Marker",
        "style": "Stiil",
        "size": "Suurus",
        "styleval": {
          "circle": "Ring",
          "square": "Ruut",
          "cross": "Pluss",
          "diamond": "Teemant",
          "x": "Cross"
        }
      },
      "symbols": {
        "title": "Sümbolid"
      }
    },
    "edit": {
      "activation": {
        "warn": "Valitud graafilise ei saa muuta praeguse vahend.",
        "info": "Graafiline valitud."
      }
    },
    "drawpointtool": "Punkti: juhib punkti",
    "drawmultipointtool": "Punktide arv: juhib mitmeid punkte",
    "drawlinetool": "Rida: Joonista sirgjoone",
    "drawpolylinetool": "Kompleksjoone: juhib mitmes reas",
    "drawfreehandpolylinetool": "Vabakäsi kompleksjoone: juhib kasutaja määratletud jälgi",
    "drawpolygontool": "Polygon: juhib polügooni",
    "drawfreehandpolygontool": "Vabakäsi Polygon: juhib polügooni vabalt määratletavad",
    "drawextenttool": "Vabakäsi ristkülik: juhib ristkülik vabalt määratletavad",
    "drawcircletool": "Ringi: juhib ringi",
    "drawellipsetool": "Ellips: juhib ellips",
    "drawrectangletool": "Ristkülik: Ristküliku",
    "drawarrowtool": "Nool: Joonista nool igas suunas",
    "drawleftarrowtool": "Nool vasakule: Joonista nool vasakule klahvile",
    "drawrightarrowtool": "Nool paremale: Joonista nool paremale",
    "drawuparrowtool": "Nool: Joonista ülespoole nool kohtusse",
    "drawdownarrowtool": "Nool: Joonista allapoole suunatud nool",
    "drawtriangletool": "Kolmnurk: juhib kolmnurk",
    "drawerasealltool": "Kustuta kõik joonised",
    "exportTool": "Ekspordi graafika",
    "defaultInfoTemplate": {
      "title": "Joonistamine tööriistakomplekt",
      "template": "<div> <span>ID: ${id}</span> <br/> <span>Geomeetria tüüp: ${geometryType}</span> </div>"
    },
    "texteditor": {
      "tool": {
        "title": "Tekstiredaktor",
        "tooltip": "Kirjutage iga teksti kaart."
      }
    },
    "drawsymbol": {
      "tool": {
        "title": "Icon galerii",
        "tooltip": "Joonista sümbol sümbol galeriis."
      },
      "store": {
        "fields": {
          "title": "Pealkiri",
          "description": "Kirjeldus"
        }
      },
      "dataview": {
        "pager": {
          "backButtonTooltip": "Tagasi",
          "forwardButtonTooltip": "Edasi",
          "firstButtonTooltip": "Esimene",
          "lastButtonTooltip": "Viimane",
          "pageLabelText": "Lehekülg ${currentPage}/${endPage}",
          "zeroResultsText": "",
          "pageSizeLabelText": "${pageStartItemNumber} - ${pageEndItemNumber}/${itemCount}"
        },
        "filter": {
          "menuDefaultLabel": "Kõik",
          "textBoxPlaceHolder": "Otsima ..."
        },
        "ICON": {
          "noDataMessage": "No sümboleid!",
          "loadingMessage": "Laadimine sümbolid ..."
        }
      }
    }
  }
}