{
  "bundleName": "Vaade",
  "bundleDescription": "--CORE FUNKTSIONAALSUSE-- Views kasutavad Mall paigutus.",
  "templates": {
    "desktop": {
      "title": "Lauaarvuti",
      "desc": "Desktop orienteeritud paigutuse."
    },
    "modern": {
      "title": "Kaasaegne",
      "desc": "Kaasaegne stiilne kujundus."
    },
    "minimal": {
      "title": "Minimal",
      "desc": "Minimalistlik kujundus"
    }
  },
  "ui": {
    "selectorLabelTitle": "Vaade"
  }
}