{
  "bundleName": "Vedení App",
  "bundleDescription": "Zapouzdřuje prvky uživatelského rozhraní pro správu app",
  "commonDelete": {
    "saveQuery": "Opravdu chcete smazat '{number}' položku (y)?",
    "error": "Vymazání položky '{items}' se nezdařilo!",
    "partialSuccess": "Některé položky nelze odstranit!",
    "errorFinish": "Žádný prvek byl smazán!",
    "success": "Položky úspěšně smazán!"
  },
  "templatesTool": {
    "title": "App šablony",
    "desc": "Seznam app šablon"
  },
  "removeSelectedTemplatesTool": {
    "title": "Vymazat",
    "desc": "Odstranění aplikace šablona (y)"
  },
  "createTemplateTool": {
    "title": "Vytvořit",
    "desc": "Vytvořit aplikaci šablony"
  },
  "dataViewCommon": {
    "filter": {
      "menuDefaultLabel": "Vše",
      "textBoxPlaceHolder": ""
    },
    "pager": {
      "backButtonTooltip": "Předchozí stránka",
      "forwardButtonTooltip": "Další stránka",
      "firstButtonTooltip": "První strana",
      "lastButtonTooltip": "Poslední strana",
      "pageLabeltext": "Strana:",
      "pageSizeLabelText": "Výsledky ${pageStartItemNumber}-${pageEndItemNumber} z ${itemCount}",
      "pageLabelText": "Strana:"
    }
  },
  "templatesView": {
    "noDataMessage": "No App šablony k dispozici ...",
    "title": "Název",
    "desc": "Popis",
    "filename": "Soubor",
    "modifiedBy": "Změnil",
    "modifiedAt": "Změněna"
  },
  "templatesDetailsView": {
    "windowTitle": "App šablona \"{title}\"",
    "createWindowTitle": "Nová aplikace šablona",
    "title": "Název:",
    "description": "Popis:",
    "createdAt": "Vytvořeno:",
    "createdBy": "Vytvořil:",
    "modifiedAt": "Změněno na:",
    "modifiedBy": "Změněno:",
    "id": "ID:",
    "fileName": "Soubor:",
    "upload": "Nahrát",
    "uploaded": "100% - šablona je optimalizován",
    "updateError": "Šablona \"{id} 'nemohl být uložen! {error}",
    "updateSuccess": "Šablona {id} 'úspěšně uložen!",
    "uploadStart": "Nahrát Začínáme!",
    "uploadError": "Nahrát chyba:",
    "uploadFinished": "Nahrávání dokončeno!",
    "createTemplateInfo": "Zadejte název nové šablony App. Poté, co nová šablona byl úspěšně vytvořen, můžete nahrát data.",
    "panelDefaultTitle": "<b>Všeobecné informace</b>",
    "panelFileTitle": "<b>Soubor šablony</b>",
    "syncInfo": "<strong>Poznámka:</strong> Veškeré žádosti založené na této šabloně a na 'automatickou synchronizací \"technologie budou synchronizovány během procesu nahrávání!"
  },
  "appsTool": {
    "title": "Apps",
    "desc": "Seznam Apps"
  },
  "removeSelectedAppsTool": {
    "title": "Vymazat",
    "desc": "Odstranit App(y)"
  },
  "createAppTool": {
    "title": "Vytvoření nové App",
    "desc": "Vytvořit App"
  },
  "appsView": {
    "noDataMessage": "Žádné aplikace k dispozici ...",
    "id": "App ID",
    "title": "Název",
    "desc": "Popis",
    "filename": "Soubor",
    "modifiedBy": "Změnil",
    "modifiedAt": "Změněna",
    "editorState": "Stav",
    "appTemplateFilterSelect": {
      "placeHolder": "Filtr by app šablonou",
      "tooltip": "Zobrazit pouze aplikace založené na konkrétní app šablony."
    }
  },
  "appColumnExtender": {
    "launchApp": "Spuštění",
    "launchAppTooltip": "Začátek App"
  },
  "appDetailsView": {
    "windowTitle": "App \"{title}\"",
    "createWindowTitle": "Vytvoření nové App",
    "title": "Název:",
    "description": "Popis:",
    "createdAt": "Vytvořeno:",
    "createdBy": "Vytvořil:",
    "modifiedAt": "Změněno na:",
    "modifiedBy": "Změněno:",
    "id": "App ID:",
    "templateId": "App šablony:",
    "templateModifiedAt": "App šablony úpravy:",
    "fileName": "Soubor:",
    "editorState": "Stav",
    "syncAuto": {
      "title": "Automatická synchronizace:",
      "tooltip": "Umožňuje automatickou synchronizaci této aplikace. Na každé aktualizaci základní app šabloně, bude tato aplikace bude synchronizován s nakonfigurované režimu synchronizace automaticky."
    },
    "syncMode": {
      "title": "Režim synchronizace:",
      "tooltip": "<ul><li> <b>Nahradit:</b> V tomto režimu aplikace bude zcela nahrazuje app šablony. Všechna nastavení této aplikace, stejně jako upravovat nebo přidaných souborů budou ztraceny. </li><li> <b>Sloučit:</b> V tomto režimu jsou všechny změny této aplikace budou sloučeny s nastavením app šablony. Ve výchozím nastavení jsou všechny změny souborů v aplikaci jsou ztraceny, s výjimkou přidaných souborů a souboru app.json. Šablona změny app.json soubory jsou uplatňována na úrovni pozemku na složka. Prosíme, přečtěte si <i>dokumentaci pro vývojáře</i> pro podrobnosti a možnosti. <br/> <b>Po úspěšné synchronizaci, měli byste zkontrolovat změny v aplikaci.</b> </li></ul>"
    },
    "syncedAt": "Synchronizované na:",
    "editorStateValues": {
      "DRAFT": "Návrh",
      "EDITED": "Upraveno",
      "VERIFIED": "Ověřený",
      "PUBLISHED": "Vydáno",
      "DEPRECATED": "Zastaralé"
    },
    "syncModeValues": {
      "REPLACE": "Vyměnit",
      "MERGE": "Sloučit"
    },
    "enabled": "Online:",
    "updateError": "App \"{id} 'nemohl být uložen! {error}",
    "updateSuccess": "App \"{id} 'úspěšně uložen!",
    "updateStarted": "Úspora App \"{id} 'začal ...",
    "invalidJSONError": "JSON je neplatná: {error}",
    "editJsonInfo": "Můžete upravit všechny soubory aplikace ručně v tomto dialogu. <br/> <strong>UPOZORNĚNÍ:</strong> Můžete provést změny, které mohou bránit úspěšnou spouštění aplikace.",
    "choseFileLabel": "Vyberte soubor:",
    "createAppInfo": {
      "id": "Pro vaše nové aplikace, zadejte prosím ID (bez mezer). <br/> Toto číslo musí být jedinečné. Používá se v URL, která odkazuje na vaší aplikaci.",
      "template": "Prosím, vyberte šablonu App. Všechna výchozí nastavení konfigurace jsou vybírány z této šablony. Můžete si také vybrat nahrát aplikaci přímo.",
      "title": "Prosím, zadejte název a popis pro vaši aplikaci.",
      "templateId": "App šablony:",
      "emptyTemplate": "Nahrát aplikaci přímo:",
      "uploadInfo": "Nahrajte prosím aplikaci.",
      "upload": "Nahrát App",
      "uploaded": "100% - aplikace je optimalizována",
      "uploadStart": "Nahrát Začínáme!",
      "uploadError": "Nahrát chyba:",
      "uploadFinished": "Nahrávání dokončeno!"
    },
    "panelDefaultTitle": "<strong>Všeobecné informace</strong>",
    "panelEditorTitle": "<strong>Upravit informace</strong>",
    "panelTemplateTitle": "<strong>App šablony informace</strong>",
    "panelConfigureTitle": "<strong>Konfigurace akce</strong>",
    "panelShareTitle": "<strong>Podělte se s:</strong>",
    "panelThumbnailTitle": "<strong>Miniatura Apps Přehled</strong>",
    "thumbnailUploadTitle": "Nahrát obrázek",
    "thumbnailUploadedTitle": "100%",
    "configurePreviewBtn": "Živé nastavení",
    "configureFilesBtn": "Ruční nastavení",
    "configureOptimizeBtn": "Optimalizace aplikace",
    "configureExportBtn": "Export App",
    "configureSynchronizeBtn": "Synchronizovat nyní",
    "shareWithAnyone": "<strong>Každý</strong>",
    "command": {
      "Add": "Vytvořte soubor",
      "Replace": "Nahradit obsah souboru",
      "Save": "Uložit soubor",
      "Delete": "Smazat soubor",
      "Preview": "Náhled aplikace"
    },
    "deleteWarning": "Opravdu chcete smazat tento soubor?",
    "addFileTitle": "Zadejte název souboru",
    "fileExistsError": "Soubor {soubor} již existuje!",
    "invalidError": "Soubor je neplatný!",
    "templateInfo": {
      "requested": "Šablona informace jsou v současné době požadováno ...",
      "deleted": "Šablona již neexistuje!",
      "directuploaded": "Šablona byla přímo nahrán v průběhu procesu tvorby app!",
      "isNewerAsApp": "<strong>Aplikace šablona byla změněna od poslední synchronizace.</strong>"
    },
    "fileUpload": {
      "windowTitle": "Nahradit obsah souboru",
      "warning": "Vezměte prosím na vědomí, že obsah existujícího souboru budou nahrazeny bez ověření!",
      "upload": "Nahrát soubor",
      "uploaded": "100%"
    }
  },
  "optimizeError": "Optimalizace se nezdařilo! Chyba: {chyba}",
  "optimizeSuccess": "Optimalizace úspěšně dokončena!",
  "optimizeInfo": "Optimalizace může trvat delší dobu. Jste si jisti, že chcete spustit proces teď?",
  "optimizeRunningInfo": "Optimalizace chodu ...",
  "synchronizeError": "Synchronizace se nezdařila! Chyba: {chyba}",
  "synchronizeSuccess": "Synchronizace úspěšně dokončen!",
  "synchronizeInfo": "Proces synchronizace může trvat delší dobu. <br/> <strong>Jakékoliv neuložené změny budou ztraceny!</strong> <br/> Jste si jisti, že chcete ho začít teď?",
  "synchronizeRunningInfo": "Synchronizace běží ..."
}