{
  "bundleName": "Pozadí karty přepínač",
  "bundleDescription": "Pozadí Mapa přepínač umožňuje ovládání připravené pro přepínání předdefinovaných map pozadí.",
  "ui": {
    "labelTitle": "Mapa"
  }
}