{
  "bundleName": "Follow Me",
  "bundleDescription": "Funkce Follow Me představuje výkonný nástroj pro práci s map.apps. Uživatelé mohou sdílet své mapy s ostatními nebo se připojuje k existující prezentaci relaci.",
  "tool": {
    "title": "Follow Me",
    "tooltip": "Follow Me"
  },
  "ui": {
    "createSessionTitle": "Vytvořit relaci",
    "joinSessionTitle": "Připojte se k relaci",
    "createSessionHint": "Prosím, zadejte své jméno a klikněte na \"Zahájit relaci\".",
    "inviteSessionHint": "Pozvání k účasti hosta relaci tím, že poskytuje session-ID:",
    "joinSessionHint": "K účasti na zasedání, zadejte své jméno a session-ID a klikněte na tlačítko \"Připojit relaci\".",
    "name": "Vaše jméno",
    "sessionId": "zasedání ID",
    "startSession": "Začátek zasedání",
    "stopSession": "Zastavit zasedání",
    "joinSession": "Připojte se k relaci",
    "leaveSession": "Nechte zasedání",
    "inviteSession": "Poslat pozvánku",
    "organizer": "Organizátor",
    "presenter": "Konferenciér",
    "owner": "Mě",
    "user": "Uživatel",
    "session": "Zasedání",
    "markLocation": "Podělte se o místo",
    "markLocationTooltip": "Podělte se o místo v Follow Me",
    "pleaseWaitForConnection": "Počkejte prosím, spojovací ...",
    "userList": {
      "attendees": "Účastníci",
      "numberOfAttendeesSingular": "1. Účastník je online:",
      "numberOfAttendeesPlural": "${numberOfAttendees} účastníci jsou online:"
    },
    "sessionInfo": {
      "sessionActive": "${id}",
      "sessionCreatedAt": "Vytvořeno ${timestamp}"
    },
    "invitation": {
      "subject": "Byli jste pozváni na zasedání Follow Me",
      "body": "Chcete-li připojit k relaci použijte URL ${url} a session-ID ${id}"
    },
    "notifications": {
      "newUser": {
        "shrt": "${type} ${user} připojil",
        "lng": "${type} ${user} vstoupil do Follow Me relace."
      },
      "userLeft": {
        "shrt": "${user} opustil zasedání",
        "lng": "${user} opustil zasedání Follow Me."
      },
      "sessionClosed": {
        "shrt": "Session byl uzavřen",
        "lng": "Follow Me zasedání byl uzavřen pořadatelem."
      },
      "parserError": {
        "shrt": "Chyba při analýze odpověď serveru"
      },
      "serverError": {
        "shrt": "Chyba na serveru došlo"
      },
      "topicNotExistent": {
        "shrt": "ID relace neexistuje"
      },
      "newMarker": {
        "shrt": "${user} sdílí nové místo"
      },
      "unkownError": {
        "shrt": "Došlo k neznámé chybě"
      }
    }
  }
}