{
  "bundleName": "JoinAddress",
  "bundleDescription": "Tento balíček poskytuje implementaci pro server JoinAddress.",
  "store": {
    "name": "JoinAddress vyhledávání",
    "description": "Uchovávejte pro službu vyhledávání JoinAddress",
    "placeHolder": "Název Město nebo PSČ",
    "fields": {
      "ID": "Id",
      "LNGCODE": "Kód jazyka",
      "ZIP": "PSČ",
      "CITY": "Město",
      "ZIPNAME": "Poštovní jméno",
      "ADMCODE": "Správní klíč",
      "XCOOR": "X",
      "YCOOR": "Y",
      "COQ": "Souřadnic kvalitu",
      "SMLCITY": "Podobnost název města",
      "SMLZIPNAME": "Podobnost poštovní jméno"
    }
  }
}