{
  "bundleName": "Oznámení",
  "bundleDescription": "Všechny stavové, pokroku nebo chybové hlášení se zobrazí uživateli ve zprávě pop-up tak, aby bylo jasné, co se děje v aplikaci.",
  "ui": {
    "title": "Notifier",
    "tooltips": {
      "close": "Zavřít tuto zprávu",
      "glue": "Připojit zprávu"
    }
  }
}