{
  "bundleName": "Omni-Search",
  "bundleDescription": "Tento balíček poskytuje vyhledávací rozhraní pro jednoho nebo více témat.",
  "ui": {
    "tooltips": {
      "reset": "Odstranit výsledek",
      "magnifier": "Přiblížit za následek",
      "submit": "Odeslat dotaz",
      "settings": "Vyberte téma hledání"
    },
    "settings": "Nastavení",
    "settingsWidget": {
      "title": "Dostupné témata vyhledávání"
    },
    "error": "Chyba při provádění vyhledávání!"
  },
  "tool": {
    "title": "Vyhledávání",
    "tooltip": "Otevřete okno vyhledávání"
  }
}