{
  "bundleName": "Tisk",
  "bundleDescription": "Tento balíček obsahuje tiskový nástroj k tisku mapy.",
  "tool": {
    "title": "Tisk",
    "tooltip": "Tisk",
    "back": "Zpět"
  },
  "resultWin": {
    "title": "Tisk"
  }
}