{
  "bundleName": "Kreslit",
  "bundleDescription": "Kreslení balík poskytuje uživateli kreslení a editačních nástrojů.",
  "commonDelete": {
    "saveQuery": "Opravdu chcete smazat {number} položku (y)?",
    "error": "Vymazání položky '{items}' se nezdařilo!",
    "partialSuccess": "Některé položky nelze odstranit!",
    "errorFinish": "Žádný prvek byl smazán!",
    "success": "Operace mazání úspěšně dokončena!"
  },
  "ui": {
    "tools": {
      "moveScaleRotateVertices": {
        "title": "editovat grafický",
        "tooltip": "Úprava grafiku (klikněte na grafiku pro přepnutí do režimu)"
      },
      "moveScaleRotate": {
        "title": "Přesunout, měřítko, otočení,",
        "tooltip": "Přesunout, měřítko, nebo otočit grafiku"
      },
      "editVertices": {
        "title": "Upravit uzel",
        "tooltip": "Upravit vrcholy grafiky"
      },
      "deleteGraphic": {
        "title": "Smazat grafiku",
        "tooltip": "Smazat grafiku"
      }
    },
    "styleProperties": {
      "tool": {
        "title": "Vlastnosti znaků",
        "tooltip": "Vlastnosti znaků"
      },
      "presets": {
        "title": "Šablony",
        "deletePresetTool": "Odstranění šablony",
        "editPresetTool": "Upravit šablonu",
        "addPresetWidget": {
          "textboxPlaceHolder": "Uložit šablonu ...",
          "buttonTooltip": "Uložit šablonu ..."
        },
        "overwriteExistingItemMessageTitle": "Šablona již existuje",
        "overwriteExistingItemMessage": "Šablona s názvem '{itemName}' již existuje. Chcete-li šablonu, kterou chcete přepsat?",
        "overwritePreConfiguredItemTitle": "Chyba",
        "overwritePreConfiguredItemMessage": "Nemůžete přepsat předem nakonfigurované předvolby!",
        "dataview": {
          "pager": {
            "backButtonTooltip": "Zpět",
            "forwardButtonTooltip": "Vpřed",
            "firstButtonTooltip": "První",
            "lastButtonTooltip": "Poslední",
            "pageLabelText": "Strana ${currentPage} z ${endPage}",
            "zeroResultsText": "",
            "pageSizeLabelText": "${pageStartItemNumber} - ${pageEndItemNumber} z ${itemCount}"
          },
          "filter": {
            "menuDefaultLabel": "Vše",
            "textBoxPlaceHolder": "Podívejte se na ..."
          },
          "DGRID": {
            "noDataMessage": "No uloženy šablony k dispozici.",
            "loadingMessage": "Načítání dat ...",
            "error": "Error:"
          }
        },
        "presetStoreColumns": {
          "id": "Název",
          "style": "Typ",
          "preconfigured": "Nakonfigurováno"
        },
        "notifier": {
          "saveSuccess": "Šablona {itemName} 'byl úspěšně uložen.",
          "saveError": "Šablona {itemName} \"nelze uložit. {error}",
          "applySuccess": "Šablona {itemName} 'byl úspěšně aplikován.",
          "applyError": "Nemohla být použita Šablona \"{itemName} '. {error}"
        },
        "groups": {
          "font": "Text",
          "stroke": "Linka",
          "fill": "Vyplnit",
          "symbol": "Ikona",
          "marker": "Fix"
        }
      },
      "text": {
        "title": "Text",
        "fontFamily": "Font",
        "fontSize": "Velikost písma",
        "fontColor": "Barva",
        "fontStyle": {
          "title": "Styl",
          "bold": "Tučný",
          "italic": "Italic",
          "underlined": "Zdůraznit"
        },
        "fontTransparency": "Průhlednost"
      },
      "symbol": {
        "title": "Linka / Vyplnit",
        "stroke": {
          "title": "Linka",
          "color": "Barva",
          "style": "Styl",
          "width": "Šířka",
          "transparency": "Průhlednost",
          "strokeval": {
            "none": "Nikdo"
          }
        },
        "fill": {
          "title": "Vyplnit",
          "color": "Barva",
          "pattern": "Vzor",
          "transparency": "Průhlednost",
          "patternval": {
            "none": "Nikdo",
            "solid": "Pevný",
            "vertical": "černá svislá",
            "horizontal": "černá Horizontální",
            "backwarddiagonal": "černá pravý diagonální",
            "forwarddiagonal": "černá levá diagonála",
            "cross": "černá Kontroloval",
            "diagonalcross": "černá přešel"
          }
        }
      },
      "marker": {
        "title": "Fix",
        "style": "Styl",
        "size": "Velikost",
        "styleval": {
          "circle": "Kruh",
          "square": "Náměstí",
          "cross": "Plus",
          "diamond": "Diamant",
          "x": "Cross"
        }
      },
      "symbols": {
        "title": "Symboly"
      }
    },
    "edit": {
      "activation": {
        "warn": "Vybraný obrázek se nelze upravovat pomocí aktuálního nástroje.",
        "info": "Grafické vybrané."
      }
    },
    "drawpointtool": "Bod: Kreslí bod",
    "drawmultipointtool": "Počet bodů: Kreslí několik bodů",
    "drawlinetool": "Řádek: Nakreslete přímku",
    "drawpolylinetool": "Křivka: Kreslí více řádků",
    "drawfreehandpolylinetool": "Ruky křivka: Kreslí uživatelem definované trasu",
    "drawpolygontool": "Polygon: Kreslí polygon",
    "drawfreehandpolygontool": "Voľné Polygon: Kreslí polygon volně definovatelné",
    "drawextenttool": "Ruky obdélník: Kreslí obdélník volně definovatelné",
    "drawcircletool": "Kruh: Nakreslí kruh",
    "drawellipsetool": "Elipsu: Kreslí elipsu",
    "drawrectangletool": "Obdélník: Nakreslete obdélník",
    "drawarrowtool": "Šipka: Nakreslete šipku v libovolném směru",
    "drawleftarrowtool": "Šipka vlevo: nakreslit šipku vlevo klíč",
    "drawrightarrowtool": "Šipka vpravo: Nakreslete šipka směřující doprava",
    "drawuparrowtool": "Šipka nahoru: Remíza šípem soudy vzhůru",
    "drawdownarrowtool": "Šipka dolů: Nakreslete šipku směřující dolů",
    "drawtriangletool": "Trojúhelník: Kreslí trojúhelník",
    "drawerasealltool": "Vymazat všechny výkresy",
    "exportTool": "Export grafika",
    "defaultInfoTemplate": {
      "title": "Kreslení sada nástrojů",
      "template": "<div> <span>ID: ${id}</span> <br/> <span>Typ Geometrie: ${geometryType}</span> </div>"
    },
    "texteditor": {
      "tool": {
        "title": "Textový editor",
        "tooltip": "Napište libovolný text na kartě."
      }
    },
    "drawsymbol": {
      "tool": {
        "title": "Ikona galerie",
        "tooltip": "Nakreslete symbol z galerie značek."
      },
      "store": {
        "fields": {
          "title": "Název",
          "description": "Popis"
        }
      },
      "dataview": {
        "pager": {
          "backButtonTooltip": "Zpět",
          "forwardButtonTooltip": "Vpřed",
          "firstButtonTooltip": "První",
          "lastButtonTooltip": "Poslední",
          "pageLabelText": "Strana ${currentPage} z ${endPage}",
          "zeroResultsText": "",
          "pageSizeLabelText": "${pageStartItemNumber} - ${pageEndItemNumber} z ${itemCount}"
        },
        "filter": {
          "menuDefaultLabel": "Vše",
          "textBoxPlaceHolder": "Podívejte se na ..."
        },
        "ICON": {
          "noDataMessage": "Žádné symboly!",
          "loadingMessage": "Načítání symboly ..."
        }
      }
    }
  }
}