{
  "bundleName": "Kreslit",
  "bundleDescription": "Kreslení Bundle poskytuje uživateli kreslení a editačních nástrojů.",
  "menu": {
    "title": "Kreslit"
  },
  "widget": {
    "description": "Prosím, vyberte ty, kreslicích nástrojů, které by měly být k dispozici bazén:"
  },
  "tools": {
    "DrawEraseAllTool": {
      "title": "Smazat vše",
      "tooltip": "Odstranit spínač nástroje (všechny kresby smazat)"
    },
    "DrawPointTool": {
      "title": "Bod",
      "tooltip": "Přepínač bod nástroj (nakreslí bod)"
    },
    "DrawMultipointTool": {
      "title": "Body",
      "tooltip": "Nástroj body spínač (nakreslí několik bodů)"
    },
    "DrawLineTool": {
      "title": "Linka",
      "tooltip": "Přepínač nástroj linky (nakreslí přímku)"
    },
    "DrawPolylineTool": {
      "title": "Křivka",
      "tooltip": "Přepínač Polyline nástroj (nakreslí křivku)"
    },
    "DrawFreehandPolylineTool": {
      "title": "Volné Křivka",
      "tooltip": "Volné křivky vypínač nářadí (Kreslí uživatelem definované trasu)"
    },
    "DrawPolygonTool": {
      "title": "Polygonu",
      "tooltip": "Polygonu switch nástroj (Kreslí Polygonu)"
    },
    "DrawFreehandPolygonTool": {
      "title": "Volné Polygonu",
      "tooltip": "Freehand polygon vypínač nářadí (Kreslí volně definovatelný Polygonu)"
    },
    "DrawExtentTool": {
      "title": "Zdarma obdélník",
      "tooltip": "Freehand Rectangle vypínač nářadí (Kreslí volně definovatelnou obdélník)"
    },
    "DrawCircleTool": {
      "title": "Kruh",
      "tooltip": "Kruh vypínač nástroj (nakreslí kruh)"
    },
    "DrawEllipseTool": {
      "title": "Elipsa",
      "tooltip": "Elipsa vypínač nástroj (Kreslí elipsu)"
    },
    "DrawRectangleTool": {
      "title": "Obdélník",
      "tooltip": "Obdélník vypínač nástroj (Nakreslí obdélník)"
    },
    "DrawArrowTool": {
      "title": "Zdarma Šipka",
      "tooltip": "Šipka vypínač nástroj (Kreslí šíp v libovolném směru)"
    },
    "DrawLeftArrowTool": {
      "title": "Šipka doleva",
      "tooltip": "šipka přepínač na levé straně nástroje (nakreslit šipka vlevo klíč)"
    },
    "DrawRightArrowTool": {
      "title": "Šipka doprava",
      "tooltip": "šipkou přepnout do vhodného nástroje (nakreslit šipkou směřující vpravo)"
    },
    "DrawUpArrowTool": {
      "title": "Šipka nahoru",
      "tooltip": "Šipka spínač up nářadí (nakreslí nádobí šipku nahoru)"
    },
    "DrawDownArrowTool": {
      "title": "Šipka dolů",
      "tooltip": "Šipka spínač dolů nářadí (Kreslí šipka směřující dolů)"
    },
    "DrawTriangleTool": {
      "title": "Trojúhelník",
      "tooltip": "trojúhelník spínač nástroj (nakreslí trojúhelník)"
    },
    "DrawTextTool": {
      "title": "Textový",
      "tooltip": "Přepínač textový nástroj (libovolný textový na kartě write)"
    },
    "DrawSymbolTool": {
      "title": "Ikona",
      "tooltip": "Přepínač symbol nářadí (symbol z symbol galerie obrázku)"
    },
    "StylePropertiesTool": {
      "title": "Vlastnosti / Šablony",
      "tooltip": "Reality spínač nástroj (Charakteristické vlastnosti a šablony editovat)"
    },
    "MoveScaleRotateVerticesTool": {
      "title": "editovat grafický",
      "tooltip": "Editovat nástroj vypínač (obr přesunout, změnit velikost nebo otočit, nebo alternativně upravit uzel)"
    },
    "MoveScaleRotateTool": {
      "title": "Stěhovat",
      "tooltip": "Stěhovat nástroj vypínač (obr pohyb, změna velikosti nebo otočení)"
    },
    "EditVerticesTool": {
      "title": "Upravit uzel",
      "tooltip": "Přepínač Editovat nástroj (uzly grafu editovat)"
    },
    "DeleteGraphicTool": {
      "title": "Vymazat",
      "tooltip": "Smazat spínač nástroje (Smazat grafika)"
    },
    "ExportGraphicsTool": {
      "title": "Vývozní grafika",
      "tooltip": "Přepínač Vývozní nástroj (Vývozní grafika)"
    }
  }
}