{
  "bundleName": "Pohled",
  "bundleDescription": "--CORE Funkčnost--  Pohledy jsou používány rozložení šablony.",
  "templates": {
    "desktop": {
      "title": "Desktop",
      "desc": "Layout desktop orientované."
    },
    "modern": {
      "title": "Moderní",
      "desc": "Moderní elegantní layout."
    },
    "minimal": {
      "title": "Minimální",
      "desc": "Minimalistický layout"
    }
  },
  "ui": {
    "selectorLabelTitle": "Pohled"
  }
}