{
  "bundleName": "TileJson",
  "bundleDescription": "Registruje na ServiceType \"TILEJSON\", umožňující využití dlaždice hostitelské servery formát např mapbox (http://mapbox.com) tilejson (http://mapbox.com/developers/tilejson/)."
}