{
  "bundleName": "AddThis",
  "bundleDescription": "This bundle provides a widget for the social bookmarking service 'AddThis'",
  "ui": {
    "errorOnAPILoad": "AddThis unavailable!",
    "addThisAPILoader": {
      "exceptionAnn": "Failed to load JavaScript-API for AddThis.",
      "exceptionMsg": "Failed to load JavaScript-API for AddThis."
    }
  }
}