{
  "bundleName": "AgolmapFinder-Config",
  "bundleDescription": "This bundle provides the configuration components for the  AgolmapFinder bundle.",
  "menu": {
    "title": "ArcGIS Online Webmaps Finder"
  },
  "widget": {
    "description": "Configuration of ArcGIS Online Webmap Finder content.",
    "maxNumberOfResults": {
      "title": "Max Number of Results",
      "tooltip": "Defines the maximum the number of results. "
    },
    "webmapsID": {
      "title": "Webmaps",
      "tooltip": "Write the webmap ID."
    },
    "bingMapsKey": {
      "title": "Enabled bingwebmaps",
      "tooltip": "To load bingmaps, you will need to define a bingmaps key for your applicaiton."
    },
    "sortField": {
      "style": {
        "label": "Sort field Options",
        "tooltip": "Choose the option for sortField"
      },
      "type": {
        "title": "Title",
        "created": "Created",
        "type": "Type",
        "owner": "Owner",
        "avgRating": "Average of Rating",
        "numRatings": "Number of Rating",
        "numComments": "Number of Comments",
        "numViews": "Number of Views",
        "tooltip": "Shows based on sortField"
      }
    },
    "sortOrder": {
      "style": {
        "label": "Sort Order Options",
        "tooltip": "Choose an option for sortOrder"
      },
      "type": {
        "asc": "ASC",
        "desc": "DESC"
      }
    }
  }
}