{
  "bundleName": "ArcGIS for Server Search",
  "bundleDescription": "This bundle provides a way to register an ArcGIS for Server Service-Layer as source for a search.",
  "defaults": {
    "name": "Feature",
    "description": "Plugin for features of an ArcGIS Server layer",
    "placeHolder": "Feature name..."
  }
}