{
  "bundleName": "Authentification",
  "bundleDescription": "The Authentification bundle provides authentification functionality.",
  "ui": {
    "usernameLabel": "${name}",
    "logout": "Logout",
    "login": "Login",
    "cancel": "Cancel",
    "username": "User",
    "password": "Password",
    "logonProcessing": "Perform Login",
    "logonSuccess": "Login sucessful",
    "logonError": "Login failed",
    "blockWindowTitle": "Authenticate",
    "blockWindowMsg": "Please wait..."
  }
}