{
  "bundleName": "Bookmarks Config Wizard Bundle",
  "bundleDescription": "Config Wizard Bundle of Bookmarks widget",
  "menu": {
    "title": "Spatial Bookmarks"
  },
  "widget": {
    "description": "Configuration of the bookmarks widget",
    "editable": "Allow defining of own bookmarks",
    "localStorageKey": "Local storage key name",
    "predefinedBookmarks": "Predefined bookmarks",
    "predefinedBookmarksHint": "It is possible to prefine a list of bookmarks. These bookmarks will be available to all users by default. Move the map to the desired extent and save it."
  }
}