{
  "bundleName": "Console",
  "bundleDescription": "The Console helps to manage and verify the runtime state of bundles. Furthermore it displays services, components and log messages.",
  "ui": {
    "windowTitle": "Console",
    "bundleTab": "Bundles",
    "bundlesStoreFields": {
      "id": "ID",
      "name": "Name",
      "description": "Description",
      "state": "State",
      "autostartPolicy": "Autostart Policy",
      "symbolicName": "Symbolic Name",
      "version": "Version",
      "startLevel": "Start Level",
      "vendor": "Vendor",
      "location": "Location"
    },
    "servicesTab": "Services",
    "servicesStoreFields": {
      "id": "ID",
      "provides": "Providing Interfaces",
      "bundle": "Bundle",
      "component": "Component",
      "properties": "Properties"
    },
    "componentsTab": "Components",
    "componentsStoreFields": {
      "id": "ID",
      "name": "Name",
      "state": "State",
      "properties": "Properties",
      "instances": "Instances",
      "log": "Log",
      "bundleName": "Bundle"
    },
    "messagesTab": "Messages",
    "messagesStoreFields": {
      "level": "Level",
      "time": "Time",
      "message": "Message",
      "announcement": "Announcement"
    },
    "tools": {
      "bundles": {
        "start": {
          "title": "Start Bundles",
          "tooltip": "Start Selected Bundles"
        },
        "stop": {
          "title": "Stop Bundles",
          "tooltip": "Stop Selected Bundles"
        }
      },
      "components": {
        "configure": {
          "title": "Configure Component",
          "tooltip": "Configure Selected Component"
        }
      }
    },
    "dataView": {
      "pager": {
        "backButtonTooltip": "Back",
        "forwardButtonTooltip": "Forward",
        "firstButtonTooltip": "First",
        "lastButtonTooltip": "Last page",
        "pageLabelText": "Page ${currentPage} of ${endPage}",
        "zeroResultsText": "",
        "pageSizeLabelText": "${pageStartItemNumber}-${pageEndItemNumber} of ${itemCount}"
      },
      "filter": {
        "menuDefaultLabel": "All",
        "textBoxPlaceHolder": "Search..."
      },
      "DGRID": {
        "noDataMessage": "No Data.",
        "loadingMessage": "Loading Data..."
      }
    },
    "dataFormNotInstalled": "The dataform bundle is not installed. To enable the component configuration feature add the dataform bundle to your app.json file."
  }
}