{
  "bundleName": "Follow Me",
  "bundleDescription": "The Follow Me functionality provides a rich set of possibilities for collaborative work with map.apps. Users can share their maps with others or join a presentation-session of another user.",
  "tool": {
    "title": "Follow Me",
    "tooltip": "Follow Me"
  },
  "ui": {
    "createSessionTitle": "Create session",
    "joinSessionTitle": "Join session",
    "createSessionHint": "Please enter your name and click 'Start session'.",
    "inviteSessionHint": "Invite a guest to attend your session by providing the session-ID:",
    "joinSessionHint": "To attend a session enter your name and the session-ID and click 'Join session'.",
    "name": "Your name",
    "sessionId": "Session-ID",
    "startSession": "Start session",
    "stopSession": "Stop session",
    "joinSession": "Join session",
    "leaveSession": "Leave session",
    "inviteSession": "Send invitation",
    "organizer": "Organizer",
    "presenter": "Presenter",
    "owner": "Me",
    "user": "User",
    "session": "Session",
    "markLocation": "Share a location",
    "markLocationTooltip": "Share a location in Follow Me",
    "pleaseWaitForConnection": "Please wait, connecting...",
    "userList": {
      "attendees": "Attendees",
      "numberOfAttendeesSingular": "1 attendee is online:",
      "numberOfAttendeesPlural": "${numberOfAttendees} attendees are online:"
    },
    "sessionInfo": {
      "sessionActive": "${id}",
      "sessionCreatedAt": "Created at ${timestamp}"
    },
    "invitation": {
      "subject": "You have been invited to a Follow Me session",
      "body": "To join the session please use the URL ${url} and the session-ID ${id}"
    },
    "notifications": {
      "newUser": {
        "shrt": "${type} ${user} joined",
        "lng": "${type} ${user} joined the Follow Me session: ${user}."
      },
      "userLeft": {
        "shrt": "${user} left",
        "lng": "${user} left the Follow Me session."
      },
      "sessionClosed": {
        "shrt": "Session was closed",
        "lng": "The Follow Me session was closed by the organizer."
      },
      "parserError": {
        "shrt": "Error while parsing a server response"
      },
      "serverError": {
        "shrt": "An error on the server occured"
      },
      "topicNotExistent": {
        "shrt": "The session ID does not exist"
      },
      "newMarker": {
        "shrt": "${user} shared a new location"
      },
      "unkownError": {
        "shrt": "An unknown error occured"
      }
    }
  }
}