{
  "bundleName": "Style",
  "bundleDescription": "--CORE FUNCTIONALITY-- The Themes bundle manages all CSS information like colors, font styles, background images etc. Users can switch between different looks of the user interface elements by selecting different styles.",
  "themes": {
    "pure": {
      "desc": "The map.apps 'pure' style."
    },
    "night": {
      "desc": "The map.apps 'night' style."
    }
  },
  "ui": {
    "selectorLabelTitle": "Style"
  }
}