{
  "bundleName": "themes-Config",
  "bundleDescription": "Configuration bundle for the themes bundle.",
  "menu": {
    "title": "Design Theme"
  },
  "widget": {
    "description": "Select a design theme for the app. The theme defines visual appearance of the app; the colors, icons, fonts, etc.",
    "selectedTheme": {
      "title": "Selected design theme:",
      "tooltip": "Select a design theme which should be used by the app"
    }
  }
}