{
  "bundleName": "Web Map",
  "bundleDescription": "This bundle loads a Web Map if its id is added as a url parameter.",
  "errorMessage": "Error loading Web Map with id '${webmapid}'. Msg: ${errorMsg}"
}