{
  "bundleName": "Redagavimas",
  "bundleDescription": "Redaguoti paketas suteikia funkcija redagavimo įrankių rinkinį vartotojui.",
  "ui": {
    "messages": {
      "updateInfo": "Išsaugoti prasidėjo.",
      "updateSuccess": "Pakeitimai sėkmingai taikomas.",
      "updateFailure": "Įvyko klaida. Pakeitimai negali būti išsaugotas.",
      "deleteInfo": "Ištrinti funkcija prasidėjo.",
      "deleteSuccess": "Ištrynus sėkmę.",
      "deleteFailure": "Ištrynus nepavyko!",
      "createInfo": "Išsaugoti prasidėjo.",
      "createSuccess": "Geoduomenis objektus išsaugotas.",
      "createFailure": "Nepavyko išsaugoti geoduomenis objektus.",
      "changesInfo": "Išsaugoti pakeitimus?"
    },
    "saveChangesInfoDialog": {
      "okButton": "Taip",
      "cancelButton": "Ne"
    },
    "tools": {
      "editingCreateFeature": "Sukurti naują geoduomenis objektus",
      "editingFeature": "Redaguoti geoduomenis objektus",
      "deleteFeature": "Išvalyti geoduomenis objektus",
      "editingUI": "Redagavimo parinktys"
    },
    "snapping": {
      "windowTitle": "Fotografuoja",
      "alwaysSnap": "Skraidymas pradžia yra visada aktyvus",
      "alwaysSnapTooltip": "Patikrinkite, naudoti fotografuoja nuolat. Nuimkite, naudoti fotografuoja tik su klaviatūra.",
      "snappingKey": {
        "label": "Pradžia mygtuką:"
      },
      "tolerance": {
        "label": "Tolerancija [px]",
        "tooltip": "Atstumas iki taško žymeklis yra perimta (pikseliais) į jį."
      }
    },
    "attributeEditor": {
      "windowTitle": "Atributai",
      "applyButton": "Išsaugoti",
      "cancelButton": "Atšaukti",
      "deleteButton": "Panaikinti",
      "notvalid": "Įrašyti duomenys negalioja!"
    },
    "attachmentEditor": {
      "windowTitle": "Įrangos"
    },
    "dataformControlResolver": {
      "emptyValuesLabelPlaceHolder": "(Nėra vertė)",
      "nullValuesLabelPlaceHolder": "(Nėra vertė)"
    },
    "drawfeature": {
      "dataview": {
        "title": "Objektų tipai",
        "pager": {
          "backButtonTooltip": "Atgal",
          "forwardButtonTooltip": "Pirmyn",
          "firstButtonTooltip": "Pirmas",
          "lastButtonTooltip": "Paskutinis",
          "pageLabelText": "Puslapis ${currentPage} iš ${endPage}",
          "zeroResultsText": "",
          "pageSizeLabelText": "${pageStartItemNumber} - ${pageEndItemNumber} iš ${itemCount}"
        },
        "filter": {
          "menuDefaultLabel": "Visi",
          "textBoxPlaceHolder": "Ieškoti ..."
        },
        "ICON": {
          "noDataMessage": "Nėra duomenų.",
          "loadingMessage": "Įkeliama ..."
        },
        "DGRID": {
          "noDataMessage": "Nėra duomenų.",
          "loadingMessage": "Įkeliama ...",
          "error": "Klaida:"
        }
      }
    },
    "editgeometry": {
      "activation": {
        "warn": "Pasirinktas geoduomenis objektus negali būti redaguojami su einamąja įrankiu.",
        "info": "Geoduomenis objektus pasirinktas."
      }
    },
    "applyEditsProcessor": {
      "undoAdd": "Sukurti objektą",
      "undoDelete": "Ištrinti objektą",
      "undoUpdate": "Pakeisti objektas"
    }
  }
}