{
  "bundleName": "Esri Katalogas konfigūracija paslaugų",
  "bundleDescription": "Konfigūracijos paketas už ESRI Locator Service.",
  "menu": {
    "title": "Esri Katalogas tarnyba"
  },
  "widget": {
    "description": "Konfigūracija ESRI Katalogas Paslaugų paieškos tema.",
    "enabled": "Paieška temą aktyvus",
    "enabledTooltip": "Aktyvuoja paieškos temą jį naudoti Omni paiešką.",
    "defaultLabel": "Rezervuota vieta",
    "defaultLabelTooltip": "Nustato numatytąjį tekstą paieška įvesties lauke (vertė nebūtina).",
    "labelAttribute": "Pavadinimas atributas",
    "labelAttributelTooltip": "Nurodo atributas, kuris yra naudojamas dėl paieškos hitu etiketėje.",
    "pageSize": "Didžiausios rezultatai",
    "pageSizeTooltip": "Maksimalus skaičius hitai rezultatų (diapazonas: 0-100; 0 neribojamas).",
    "typingdelay": "Delsimas [ms]",
    "typingdelayTooltip": "Pauzė tarp pagrindinių presų prieš pateikta užklausa (diapazonas 0-1000 milisekundžių)",
    "url": "URL paslaugos",
    "urlTooltip": "URL paieškos paslaugų REST pasekmės."
  },
  "stores": {
    "locator": {
      "placeHolder": "Vieta vardą ..."
    }
  }
}