{
  "bundleName": "Didinamieji stiklai konfigūracija",
  "bundleDescription": "Konfigūracijos paketas už didintuvo ryšulio",
  "menu": {
    "title": "Padidinimo stiklai"
  },
  "widget": {
    "description": "Konfigūracija priartinimo funkcija.",
    "magnificationFactor": {
      "title": "Didinimas veiksnys",
      "tooltip": "Nurodo didinimo veiksnys. Atkreipkite dėmesį, kad tik faktorius 1, 2, 4 arba 8 paprastai gali būti naudojamas, kai, naudojant iš podėlio paslaugomis."
    },
    "disableMagnifierNavigation": {
      "title": "Išjungti didintuvai navigacijos",
      "tooltip": "Apibrėžia avinas galima naršyti viduje didintuvo langą."
    },
    "fixable": {
      "title": "Fiksuotas",
      "tooltip": "Apibrėžia avinas priartinimo rėmo gali būti sutvirtinti pagal pelės paspaudimu."
    }
  },
  "ui": {
    "tools": {
      "magnifier": {
        "title": "Padidinimo stiklai",
        "tooltip": "Rodyti Padidinimo stiklai"
      }
    }
  }
}