{
  "bundleName": "Apžvalga Žemėlapis",
  "bundleDescription": "Apžvalga Žemėlapis suteikia geresnę orientaciją į vartotojui rodo dabartinį mastą į mažesnio mastelio žemėlapyje žemėlapyje per atskirtas langą.",
  "tool": {
    "title": "Apžvalga Žemėlapis",
    "tooltip": "Rodyti vaizdą žemėlapį"
  }
}