{
  "bundleName": "Spausdinimas konfigūracija",
  "bundleDescription": "Tai pluoštas konfigūruoja spausdinimo funkcionalumą.",
  "menu": {
    "title": "Spausdinti"
  },
  "widget": {
    "description": "Konfigūracija spausdinimo įrankio.",
    "printservletURL": {
      "title": "Spausdinti Servlet URL",
      "tooltip": "URL spausdinimo Servlet"
    },
    "downloadResponseWithoutShowing": {
      "title": "Tiesioginis atsisiuntimas neparodant",
      "tooltip": "Sukurta spausdinimo rezultatas gali būti rodomas lango, arba gali būti tiesiogiai atsisiųsti"
    },
    "format": {
      "title": "Formatas",
      "tooltip": "Iš gaunamų spausdinimo rezultatas formatas"
    },
    "title": {
      "title": "Pavadinimas",
      "tooltip": "Už spausdinimo rezultatas pavadinimas"
    }
  }
}