{
  "bundleName": "Atkreipti",
  "bundleDescription": "Piešimo Rinkinys suteikia vartotojui piešimo ir redagavimo įrankiai.",
  "menu": {
    "title": "Atkreipti"
  },
  "widget": {
    "description": "Prašome pasirinkti tuos, piešimo priemones, turėtų būti prieinama Plaukimo:"
  },
  "tools": {
    "DrawEraseAllTool": {
      "title": "Ištrinti visus",
      "tooltip": "Ištrinti įrankis jungiklį (Visi brėžiniai ištrinti)"
    },
    "DrawPointTool": {
      "title": "Vieta",
      "tooltip": "Punktas priemonė jungiklis (atkreipia tašką)"
    },
    "DrawMultipointTool": {
      "title": "Taškai",
      "tooltip": "Taškai priemonė jungiklis (atkreipia keletą taškų)"
    },
    "DrawLineTool": {
      "title": "Linija",
      "tooltip": "Eilutės įrankis jungiklis (atkreipia tiesią liniją)"
    },
    "DrawPolylineTool": {
      "title": "Polyline",
      "tooltip": "Polyline priemonė jungiklis (atkreipia į poliliniją)"
    },
    "DrawFreehandPolylineTool": {
      "title": "Ranka polilinijų",
      "tooltip": "Ranka polilinijų priemonė jungiklis (atkreipia vartotojo nustatytą pėdsakų)"
    },
    "DrawPolygonTool": {
      "title": "Daugiakampis",
      "tooltip": "Daugiakampis įrankis jungiklis (atkreipia daugiakampį)"
    },
    "DrawFreehandPolygonTool": {
      "title": "Ranka daugiakampį",
      "tooltip": "Freehand daugiakampis įrankis jungiklis (atkreipia laisvai apibūdinamą daugiakampis)"
    },
    "DrawExtentTool": {
      "title": "Nemokama stačiakampis",
      "tooltip": "Freehand stačiakampis priemonė jungiklis (atkreipia laisvai apibūdinamą stačiakampį)"
    },
    "DrawCircleTool": {
      "title": "Ratas",
      "tooltip": "Draugų priemonė jungiklis (atkreipia apskritimą)"
    },
    "DrawEllipseTool": {
      "title": "Elipsė",
      "tooltip": "Elipsė įrankis jungiklis (atkreipia elipsę)"
    },
    "DrawRectangleTool": {
      "title": "Stačiakampis",
      "tooltip": "Stačiakampis priemonė jungiklis (atkreipia stačiakampį)"
    },
    "DrawArrowTool": {
      "title": "Nemokama rodyklė",
      "tooltip": "Rodyklė priemonė jungiklis (atkreipia rodyklę bet kuria kryptimi)"
    },
    "DrawLeftArrowTool": {
      "title": "Rodyklė į kairę",
      "tooltip": "Rodyklė jungiklis kairėje įrankio (Lygiosios rodyklės į kairę mygtuką)"
    },
    "DrawRightArrowTool": {
      "title": "Rodyklė į dešinę",
      "tooltip": "Rodyklė jungiklį į tinkamą įrankį (Nupieškite rodyklė, nukreipta į dešinę)"
    },
    "DrawUpArrowTool": {
      "title": "Iki rodyklės",
      "tooltip": "rodyklę perjungti įrankis (atkreipia patiekalai rodyklę)"
    },
    "DrawDownArrowTool": {
      "title": "Rodyklė žemyn",
      "tooltip": "rodykle pereiti žemyn įrankis (Lygiosios rodykle žemyn)"
    },
    "DrawTriangleTool": {
      "title": "Trikampis",
      "tooltip": "Trikampis priemonė jungiklis (atkreipia trikampis)"
    },
    "DrawTextTool": {
      "title": "Tekstas",
      "tooltip": "Tekstas įrankis jungiklis (bet kokį tekstą ant kortelės rašo)"
    },
    "DrawSymbolTool": {
      "title": "Simbolis",
      "tooltip": "Piktograma įrankiai jungiklis (simbolis iš simbolis galerija brėžinys)"
    },
    "StylePropertiesTool": {
      "title": "Savybės / Šablonai",
      "tooltip": "Savybės priemonė jungiklis (charakterio savybės ir šablonai Redaguoti)"
    },
    "MoveScaleRotateVerticesTool": {
      "title": "Redaguoti grafinis",
      "tooltip": "Redaguoti įrankis jungiklis (pav judėti, keisti ar pasukti arba alternatyviai redaguoti mazgas)"
    },
    "MoveScaleRotateTool": {
      "title": "Žingsnis",
      "tooltip": "Perkelti priemonė jungiklis (pav judėti, keisti ar pasukti)"
    },
    "EditVerticesTool": {
      "title": "Redaguoti mazgas",
      "tooltip": "Redaguoti įrankis jungiklis (mazgai diagramoje redaguoti)"
    },
    "DeleteGraphicTool": {
      "title": "Panaikinti",
      "tooltip": "Ištrinti įrankis jungiklį (Ištrinti grafinis)"
    },
    "ExportGraphicsTool": {
      "title": "Eksporto grafika",
      "tooltip": "Eksporto priemonė jungiklis (grafika eksportas)"
    }
  }
}