{
  "bundleName": "Ataskaitų įrankis",
  "bundleDescription": "Įrankis, kuris leidžia jums sukurti ataskaitas.",
  "ui": {
    "tool": {
      "title": "Sukurti ataskaitą už pasirinkto elemento (-ai)"
    },
    "reportingToolController": {
      "reportRequestedError": "Pranešti negalėjo būti sukurtas!",
      "reportRequestedWarning": "Ji turi būti pasirinktas bent vieną įrašą.",
      "reportDatasourceUnavailable": "Nepavyko nustatyti duomenų šaltinį už ataskaitoje."
    },
    "reportingService": {
      "reportRequestedError": "Pranešti negalėjo būti sukurtas!",
      "reportRequestedErrorReeportId": "Negalėjo būti nustatytas ataskaitoje turi būti sukurtas. Ar žemėlapių apibrėžta?",
      "reportRequestedOpen": "Ataskaita yra sukurtas ...",
      "reportRequestedDownload": "Pranešti atsisiųsti ...",
      "window": {
        "title": "Ataskaita"
      }
    }
  }
}