{
  "bundleName": "Ataskaitų įrankis",
  "bundleDescription": "Įrankis, kuris leidžia jums sukurti ataskaitas.",
  "title": "Ataskaitos",
  "description": "Vieta nustatymo generuoti ataskaitas.",
  "widgets": {
    "reportTool": {
      "menuTitle": "Ataskaitų įrankis",
      "description": "Sureguliuokite ataskaita įrankis esančio rezultatų centre elgesį.",
      "hint": "Nustatymas failo vardas yra naudinga, kai tiesiogiai parsisiųsti parinktį.",
      "dataform": {
        "directDownload": {
          "title": "Tiesioginis atsisiuntimas",
          "tooltip": "Pažymėkite tai, kai susidaro ataskaitą galima atsisiųsti tiesiogiai. Priešingu atveju jis bus rodomas app."
        },
        "fileName": {
          "title": "Failo vardas",
          "tooltip": "Failo, kuris bus sukurtas ir atsisiųsti vardas."
        }
      }
    },
    "reportTask": {
      "menuTitle": "Pranešk rodymo",
      "description": "Pakoreguokite žymėjimus, kurie apibrėžia, kurie ataskaita bus naudojama tai, kokios atrankos tema.",
      "hint": "Jei ne kartografavimas yra apibrėžta, bus naudojamas numatytasis ataskaita.",
      "addReportMapping": {
        "title": "Pridėti naują užduotį",
        "tooltip": "Pridėti naują užduotį",
        "error": "Neteisingas ataskaita konfigūracija buvo aptiktas ir bus išmesti. Pranešimas:"
      },
      "removeReportMapping": {
        "title": "Ištrinti Pasirinkta žemėlapių (-ius)",
        "tooltip": "Ištrinti Pasirinkta žemėlapių (-ius)"
      },
      "grid": {
        "store": {
          "reportid": "Ataskaita",
          "storeId": "Parduotuvė",
          "title": "Pavadinimas"
        },
        "dataView": {
          "noDataFound": "Nėra ataskaita pateikiama užduotis.",
          "DGRID": {
            "noDataMessage": "Nr ataskaitą užduotis (-ai) nustatė, ..."
          },
          "pager": {
            "pageSizeLabelText": "Pranešk rodymo ${pageStartItemNumber} - ${pageEndItemNumber} iš ${itemCount}"
          }
        }
      },
      "widget": {
        "window": {
          "title": "Sukurti ataskaitą užduotį"
        },
        "addButtonTitle": "Papildyti",
        "labelReportId": "Ataskaita",
        "labelMapmodelId": "Atrankos temą"
      }
    }
  }
}