{
  "bundleName": "Mastelis ekranas konfigūracija vedlys Rinkinys",
  "bundleDescription": "Mastelis ekranas konfigūracija vedlys Rinkinys",
  "menu": {
    "title": "Mastelis ekranas"
  },
  "widget": {
    "description": "Konfigūracijos skalės ekrane.",
    "unit": "Vienetas",
    "showScaleTooltip": "Pasirinkite įrenginį už rodmenų skalė (metrais / Mil / abu). Kombinuoti ekranas veikia, kai išdėstymas \"linija\" yra nustatytas.",
    "metric": "Matuoklis",
    "english": "Miles",
    "dual": "Matuokliai ir Miles",
    "style": "Maketavimas",
    "styleTooltip": "Pasirinkite už ekrano masto informacijos išdėstymą (valdovas / linija)",
    "ruler": "Valdovas",
    "line": "Linija"
  }
}