{
  "bundleName": "Įrankių rinkinys konfigūracija",
  "bundleDescription": "Konfigūracija paketas už toolsets.",
  "menu": {
    "title": "Įrankių rinkinys konfigūracija"
  },
  "widget": {
    "rootLabel": "Įrankių rinkinys",
    "addToolsetLabel": "Pridėti naują įrankių rinkinys",
    "saveToolsetLabel": "Išsaugoti įrankių rinkinys",
    "deleteToolsetLabel": "Ištrinti įrankių rinkinys",
    "defaultToolsetTitle": "Bevardis įrankių rinkinys",
    "unassignedToolsetTitle": "Nenaudojamų įrankiai",
    "selectToolsetHint": "Pasirinkite iš sąrašo įrankių rinkinys kairėje konfigūruoti",
    "saveDeleteQuery": "Ar tikrai norite ištrinti įrankių rinkinys \"{title}\"?",
    "deleteEntryLabel": "Ištrinti įrašą",
    "saveDeleteEntryQuery": "Ar tikrai norite ištrinti įrašą \"{title}\"?",
    "defaultEntryTitle": "Bevardis įrašas",
    "toolset": {
      "title": "Pavadinimas",
      "tooltip": "Patarimas",
      "windowType": "Langų tipas",
      "fixed": "fiksuotas",
      "floating": "kilnojamas",
      "css_positioned": "CSS pozicionavimo",
      "leftCollapsed": "kairėje žlugo",
      "rightCollapsed": "Teisė žlugo",
      "topCollapsed": "viršus žlugo",
      "bottomCollapsed": "apačioje žlugo",
      "dropdown": "išskleidžiamasis",
      "menu": "meniu",
      "menubar": "meniu juosta",
      "menuitem": "Meniu punktas",
      "menubaritem": "Meniu juosta įrašas",
      "position": "Pozicija",
      "top": "viršus",
      "bottom": "dugnas",
      "left": "į kairę",
      "right": "teisė",
      "styleClass": "Stilius klasė",
      "closable": "Uždaromas",
      "maxHorizontal": "Maksimalus skaičius įrankius iš eilės",
      "notitle": "Slėpti pavadinimas",
      "description": "<br /> Pirmiau parinktys leidžia jums apibrėžti position ir į įrankių rinkinio išvaizda. <br /><br /> <b>Langų tipas:</b> <br /> Toolsets gali būti kad po: fiksuoto, plūdrusis arba žlugo dėl vieno ekrano kraštų. <br /><br /> <b>Padėtis:</b> <br /> Position gali būti apibrėžta santykinis į kairę arba į dešinę, o taip pat, kad viršuje arba apačioje ekrano puslapyje. Atstumai yra apibrėžiamas kaip pikselio. Toolsets su tipo \"fiksuotas\" arba \"plaukiojančiu\" gali būti pastatytas bet kur žemėlapyje. Sutrauktas Toolset gali būti pastatytas tik išilgai ekrano krašto. <br /><br /> <b>Stilius klasė:</b> <br /> Jei iš Toolset su tipo \"fiksuoto\" antraštės juostos turi būti paslėptas, pasirinkite \"Slėpti titulą\"."
    }
  }
}