{
  "bundleName": "AgolmapFinder",
  "bundleDescription": "Ten pakiet wyszukuje dostępnych map internetowych w ArcGIS Online",
  "errorMessage": "Podczas ładowania z sieci Web Map ID \"${webmapid}\" Wystąpił błąd. Wiadomość: ${errorMsg}",
  "nodata": "Wyszukiwanie nie przyniosło wyników.",
  "store": {
    "title": "ArcGIS Online Web Map",
    "description": "Szukaj ArcGIS Online Web Maps"
  },
  "tool": {
    "title": "ArcGIS Online wyszukiwania",
    "tooltip": "ArcGIS Online wyszukiwania"
  },
  "ui": {
    "id": "ID",
    "searchButtonLabel": "Rozpocznij wyszukiwanie",
    "title": "Tytuł",
    "owner": "Właściciel",
    "tags": "Tagi",
    "description": "Opis grupy",
    "image": "Obraz",
    "snippet": "Opis (streszczenie)",
    "created": "Utworzono dnia",
    "from": "Z",
    "to": "Do",
    "omnisearch": "Szukaj AGOL Webmaps",
    "dataView": {
      "gridViewBtn": "Tabela",
      "iconViewBtn": "Ikona",
      "filter": {
        "menuDefaultLabel": "Wszystko",
        "textBoxPlaceHolder": ""
      },
      "pager": {
        "backButtonText": "<",
        "backButtonTooltip": "Poprzednia strona",
        "forwardButtonText": ">",
        "forwardButtonTooltip": "Następna strona",
        "firstButtonText": "<<",
        "firstButtonTooltip": "Pierwsza strona",
        "lastButtonText": ">>",
        "lastButtonTooltip": "Ostatnia strona",
        "pageLabelText": "Strona ${currentPage} z ${endPage}",
        "pageSizeLabelText": "Wyniki ${pageStartItemNumber}-${pageEndItemNumber} dolarów ${itemCount}:",
        "zeroResultsText": "Brak wyników."
      }
    }
  }
}