{
  "bundleName": "Przegląd aplikacji",
  "bundleDescription": "Wyświetla okno dialogowe, które zawiera wszystkie dostępne aplikacje.",
  "dataViewCommon": {
    "noDataMessage": "Brak dostępnych aplikacji.",
    "filter": {
      "menuDefaultLabel": "Wszystko",
      "textBoxPlaceHolder": ""
    },
    "pager": {
      "backButtonTooltip": "Poprzednia strona",
      "forwardButtonTooltip": "Następna strona",
      "firstButtonTooltip": "Pierwsza strona",
      "lastButtonTooltip": "Ostatnia strona",
      "pageLabeltext": "Strona:",
      "pageSizeLabelText": "Wyniki ${pageStartItemNumber}-${pageEndItemNumber} dolarów ${itemcount} ",
      "pageLabelText": "Strona:"
    }
  },
  "appsTool": {
    "title": "Aplikacje",
    "desc": "Lista Apps"
  },
  "appsView": {
    "id": "Nazwa",
    "title": "Tytuł",
    "desc": "Opis",
    "filename": "Plik",
    "modifiedBy": "Zmodyfikowane przez",
    "modifiedAt": "Zmodyfikowana W"
  }
}