{
  "bundleName": "Uwierzytelnianie",
  "bundleDescription": "Zapewnia funkcje uwierzytelniania",
  "ui": {
    "usernameLabel": "${name}",
    "logout": "Wyloguj",
    "login": "Logowanie",
    "cancel": "Anulować",
    "username": "Użytkownik",
    "password": "Hasło",
    "logonProcessing": "Rejestracja odbywa się",
    "logonSuccess": "Zaloguj Udane",
    "logonError": "Logowanie nie powiodło się",
    "blockWindowTitle": "Uwierzytelniać",
    "blockWindowMsg": "Proszę czekać ..."
  }
}