{
  "bundleName": "Zakładki przestrzenne",
  "bundleDescription": "Pakiet zakładki pozwala na przechowywanie zakres mapie jak kilka zakładek.",
  "ui": {
    "toolTitle": "Zakładki przestrzenne",
    "clearButton": "Usuń wszystkie zakładki",
    "deleteMessage": "Czy na pewno chcesz usunąć wszystkie zakładki?",
    "deleteTitle": "Czy na pewno?",
    "deleteWarning": "Nie można cofnąć!"
  }
}