{
  "bundleName": "Konfigurację wyświetlania współrzędnych",
  "bundleDescription": "Konfiguracja wyświetlania współrzędnych",
  "menu": {
    "title": "Wyświetlanie współrzędnych"
  },
  "widget": {
    "description": "Parametry konfiguracji wyświetlacza współrzędnych.",
    "showScale": "Pokaż skalę",
    "showCoordinates": "Pokaż współrzędne",
    "degreeFormat": "Pokaż współrzędne w stopniach",
    "degreeFormatTooltip": "Format stopniu jest wykorzystywany tylko wtedy, gdy system odniesienia przestrzenne współrzędne do długości i szerokości geograficznej na podstawie",
    "decimalPlaces": "Miejsca po przecinku współrzędnych",
    "transformSrs": "Przekształcenie współrzędnych",
    "targetSrs": "Transformacja systemu docelowego",
    "targetSrsTooltip": "Ten parametr konfiguracyjny jest tylko wtedy, gdy jest włączone \"transformacji współrzędnych\"."
  }
}