{
  "bundleName": "Wyświetlanie współrzędnych",
  "bundleDescription": "Wyświetlacz współrzędne wskazują współrzędne i przestrzenny układ odniesienia w bieżącym położeniu myszy. Dodatkowo wyświetlana jest aktualna skala mapy.",
  "ui": {
    "coordinates": "<table><tr><td>${x}</td><td>:</td><td>${y}</td></tr><tr><td colspan='3'>${srs}</td></tr></table>",
    "scale": "Skala: 1: ${scale}",
    "noSrs": "-"
  },
  "hemispheres": {
    "north": "N",
    "south": "S",
    "east": "E",
    "west": "W"
  }
}