{
  "bundleName": "Redagowanie",
  "bundleDescription": "Pakiet edycja zawiera zestaw narzędzi do edycji funkcji dla użytkownika.",
  "ui": {
    "messages": {
      "updateInfo": "Zapisz się zaczęło.",
      "updateSuccess": "Zmiany powodzeniem stosowane.",
      "updateFailure": "Wystąpił błąd. Zmiany nie zostały zapisane.",
      "deleteInfo": "Usuń funkcja uruchomiona.",
      "deleteSuccess": "Usuwanie sukces.",
      "deleteFailure": "Usuwanie nie powiodło się!",
      "createInfo": "Zapisz się zaczęło.",
      "createSuccess": "Obiekty geograficzne zapisane.",
      "createFailure": "Nie udało się zapisać obiekty geograficzne.",
      "changesInfo": "Zapisz zmiany?"
    },
    "saveChangesInfoDialog": {
      "okButton": "Tak",
      "cancelButton": "Nie"
    },
    "tools": {
      "editingCreateFeature": "Utwórz nowe obiekty geograficzne",
      "editingFeature": "Edycja obiekty geograficzne",
      "deleteFeature": "Jasne obiekty geograficzne",
      "editingUI": "Opcje edycji"
    },
    "snapping": {
      "windowTitle": "Przyciąganie",
      "alwaysSnap": "Lotny start jest zawsze aktywny",
      "alwaysSnapTooltip": "Sprawdź, w użyciu pęknięcia na stałe. Usuń zaznaczenie pola wyboru, aby korzystać tylko z klawiatury przyciąganie.",
      "snappingKey": {
        "label": "Przycisk Begin:"
      },
      "tolerance": {
        "label": "Tolerancja [px]",
        "tooltip": "Odległość od kursora do punktu jest zrobione (w pikselach) do niego."
      }
    },
    "attributeEditor": {
      "windowTitle": "Atrybuty",
      "applyButton": "Zapisz",
      "cancelButton": "Anulować",
      "deleteButton": "Usunąć",
      "notvalid": "Wprowadzone dane nie jest ważna!"
    },
    "attachmentEditor": {
      "windowTitle": "Załączniki"
    },
    "dataformControlResolver": {
      "emptyValuesLabelPlaceHolder": "(Brak wartości)",
      "nullValuesLabelPlaceHolder": "(Brak wartości)"
    },
    "drawfeature": {
      "dataview": {
        "title": "Typy obiektów",
        "pager": {
          "backButtonTooltip": "Z powrotem",
          "forwardButtonTooltip": "Naprzód",
          "firstButtonTooltip": "Pierwszy",
          "lastButtonTooltip": "Ostatni",
          "pageLabelText": "Strona ${currentPage} z ${endPage}",
          "zeroResultsText": "",
          "pageSizeLabelText": "${pageStartItemNumber} - ${pageEndItemNumber} z ${itemCount}"
        },
        "filter": {
          "menuDefaultLabel": "Wszystko",
          "textBoxPlaceHolder": "Szukać ..."
        },
        "ICON": {
          "noDataMessage": "Brak danych.",
          "loadingMessage": "Ładowanie ..."
        },
        "DGRID": {
          "noDataMessage": "Brak danych.",
          "loadingMessage": "Ładowanie ...",
          "error": "Błąd:"
        }
      }
    },
    "editgeometry": {
      "activation": {
        "warn": "Wybrana obiekty geograficzne nie może być edytowany z aktualnego narzędzia.",
        "info": "Obiekty geograficzne wybrane."
      }
    },
    "applyEditsProcessor": {
      "undoAdd": "Tworzenie obiektu",
      "undoDelete": "Usuń obiekt",
      "undoUpdate": "Zmiana obiektu"
    }
  }
}