{
  "bundleName": "Narzędzie raportowania",
  "bundleDescription": "Narzędzie, które pozwala na tworzenie raportów.",
  "ui": {
    "tool": {
      "title": "Tworzenie raportu dla wybranego elementu (s)"
    },
    "reportingToolController": {
      "reportRequestedError": "Raport nie może być wygenerowany!",
      "reportRequestedWarning": "Należy go wybrać co najmniej jedną pozycję.",
      "reportDatasourceUnavailable": "Nie można określić źródło danych do raportu."
    },
    "reportingService": {
      "reportRequestedError": "Raport nie może być wygenerowany!",
      "reportRequestedErrorReeportId": "Wygenerowanie raportu nie udało się ustalić. Definiuje mapowanie?",
      "reportRequestedOpen": "Raport jest generowany ...",
      "reportRequestedDownload": "Raport zostanie pobrany ...",
      "window": {
        "title": "Raport"
      }
    }
  }
}