{
  "bundleName": "UndoRedo",
  "bundleDescription": "Moduł oferuje system cofania / powtarzania.",
  "undoTool": {
    "title": "Rozpiąć",
    "tooltip": "Rozpiąć"
  },
  "redoTool": {
    "title": "Przerobić",
    "tooltip": "Przerobić"
  },
  "messages": {
    "undo": {
      "start": "Cofnij {operation} rozpoczął ",
      "success": "Cofanie {operation} wykończone",
      "failure": "Cofnij {operation} nie powiodło się. Błąd: {error}"
    },
    "redo": {
      "start": "Przerobić {operation} rozpoczął ",
      "success": "Przerobić {operation} wykończone",
      "failure": "Przerobić {operation} zawiodły. Błąd: {error}"
    }
  }
}