{
  "bundleName": "Menu konfiguracji żywo",
  "bundleDescription": "Menu na żywo konfiguracji app.",
  "ui": {
    "title": "Konfiguracja żywo",
    "entry": "Wejście",
    "entries": "Wpisy",
    "noEntries": "Obecnie nie ma żadnych przedmiotów w tej kategorii",
    "chooseCategory": "Proszę wybrać opcję",
    "buttons": {
      "back": "Z powrotem",
      "apply": "Aktualizacja Podgląd",
      "save": "App zachować"
    },
    "dataFormBuilderWidget": {
      "defaultValidationErrorMessage": "Proszę sprawdzić wejście (y)!"
    },
    "saveStart": "Zapisywanie rozpoczęty!",
    "saveError": "Zapisz nie powiodło się! {message}",
    "saveSuccess": "Sukces!",
    "unknownError": "Nieznany błąd!",
    "notAppliedConfigChanges": "Nie wykryto zastosowane zmiany konfiguracji! Należy je stosować?",
    "loadConfigBundles": "<p> Inicjowanie zestawy konfiguracyjne ({pos} / {count}). <br/> Prosimy o cierpliwość. </p>",
    "configureBtn": "Konfiguracja żywo",
    "bundleStart": "Na",
    "bundleStartMessage": "Utworzyć Pakiet \"{name} ({symname})\"",
    "bundleStartMessageSuccess": "Uruchom pakiet \"{name} ({symname})\" z powodzeniem!",
    "bundleStartMessageFailure": "Uruchom pakiet \"{name} ({symname}) 'nie powiodło się! {error}",
    "bundleStop": "Od",
    "bundleStopMessage": "Zatrzymaj Bundle \"{name} ({symname})\"",
    "bundleStopMessageSuccess": "Zatrzymaj wiązkę \"{name} ({symname})\" z powodzeniem!",
    "bundleStopMessageFailure": "Zatrzymaj wiązkę \"{name} ({symname}) 'nie powiodło się! {error}",
    "bundleInfo": {
      "components": "Składniki",
      "bundleIdentifier": "Identyfikator",
      "bundleName": "Nazwa",
      "bundleDescription": "Opis",
      "bundleVersion": "Wersja",
      "bundleLocation": "Url",
      "bundleCopyRight": "Prawo autorskie",
      "bundleState": "Status",
      "bundleVendor": "Producent",
      "bundleCategory": "Kategorie",
      "bundleContactAddress": "Kontakt Adres",
      "bundleDocUrl": "Dokumentacja",
      "bundleLicense": "Licencja",
      "bundleLicenseUrl": "Url licencji"
    },
    "componentInfo": {
      "component": "Komponent",
      "componentIdentifier": "Identyfikator",
      "componentName": "Nazwa",
      "componentState": "Status",
      "componentInstances": "Przypadki",
      "componentLog": "Zaloguj",
      "jsonError": "Nieprawidłowy format JSON: {error}",
      "commonDescription": "Możesz zmienić konfigurację komponentu poprzez edycję JSON konfiguracji tutaj. <b>Proszę uważać!</b>",
      "factoryCreateHint": "Ten składnik jest \"Komponent Fabryka\"! Definiowanie nowej konfiguracji utworzyć nowy element!",
      "factoryDeleteHint": "Ten komponent jest pozycja danego \"część fabryki\"! Usuwanie pole tekstowe będzie usunąć składnik!",
      "notConfigurableHint": "Element ten nie może być skonfigurowany."
    }
  },
  "menu": {
    "main": {
      "title": "Konfiguracja żywo"
    },
    "content": {
      "title": "Zawartość",
      "description": "Definiowanie treści: Usługi, Mapa Model, mapa państwa, ..."
    },
    "widgets": {
      "title": "Widgety",
      "description": "Wybierz widżet"
    },
    "search": {
      "title": "Wyszukiwanie i selekcja",
      "description": "Wybierz opcję wyszukiwania i selekcji"
    },
    "tools": {
      "title": "Narzędzia",
      "description": "Definiuje narzędzi, które mogą być używane w tej aplikacji"
    },
    "design": {
      "title": "Układ & Design",
      "description": "Definiuje układ wizualnej i projektowania aplikacji"
    },
    "bundles": {
      "title": "Zaawansowana konfiguracja (zestawy)"
    }
  }
}