{
  "bundleName": "Geonames - Konfiguration",
  "bundleDescription": "Konfigurationen bunt av geonames knippet.",
  "menu": {
    "geonames": {
      "title": "Geonames",
      "description": "Välj en Geonames butik"
    },
    "wikipedia": {
      "title": "Wikipedia"
    },
    "poi": {
      "title": "Sevärdheter"
    },
    "postalcodes": {
      "title": "Postnummer"
    }
  },
  "common": {
    "enabled": "Sök ämne aktiv",
    "enabledTooltip": "Aktiverar sökningen ämne att använda den i Omni sökning.",
    "defaultLabel": "Platshållare",
    "defaultLabelTooltip": "Definierar standardtexten sökfältet (värde är valfritt).",
    "pageSize": "Maximala resultat",
    "pageSizeTooltip": "Maximalt antal träffar i resultat (intervall: 0-100; 0 är obegränsad).",
    "typingdelay": "Fördröjning [ms]",
    "typingdelayTooltip": "Paus mellan knapptryckningar innan frågan överlämnas (intervall 0-1000 millisekunder)",
    "languageAware": "Språkmedvetna resultat",
    "languageAwareTooltip": "Det språk som används i map.apps kommer att användas för att hämta lokaliserade resultat.",
    "url": "URL för tjänsten",
    "urlTooltip": "URL för söktjänsten REST slutpunkt.",
    "username": "Geonames användarnamn",
    "usernameTooltip": "Namn på personlig geonames konto."
  },
  "wikipediaWidget": {
    "description": "Konfigurera Wikipedia sökningen ämnet."
  },
  "poiWidget": {
    "description": "Konfiguration för sevärdheter ökning butik."
  },
  "postalcodesWidget": {
    "description": "Konfiguration av postnummer ökning ämne.",
    "countries": "Land filter",
    "countriesTooltip": "Landskod för att filtrera resultaten, till exempel. \"DE\" (värde är valfritt)."
  },
  "stores": {
    "postalcodes": {
      "placeHolder": "Ange postnummer eller ortsnamn ..."
    },
    "wikipedia": {
      "placeHolder": "Ange ett sökord ..."
    },
    "poi": {
      "placeHolder": "Besöksmål ..."
    }
  }
}