{
  "bundleName": "JoinAddress",
  "bundleDescription": "Detta paket ger en implementering för JoinAddress servern.",
  "store": {
    "name": "JoinAddress sökning",
    "description": "Förvara till JoinAddress söktjänst",
    "placeHolder": "Stadsnamn eller postnummer",
    "fields": {
      "ID": "Id",
      "LNGCODE": "Språkkod",
      "ZIP": "Postnummer",
      "CITY": "Stad",
      "ZIPNAME": "Post namn",
      "ADMCODE": "Administrativa nyckel",
      "XCOOR": "X",
      "YCOOR": "Y",
      "COQ": "Koordinat kvalitet",
      "SMLCITY": "Likhet stadsnamn",
      "SMLZIPNAME": "Likhet postnamn"
    }
  }
}