{
  "bundleName": "ESRI Locator tjänstekonfiguration",
  "bundleDescription": "Konfigurations bunt för Esri Locator tjänsten.",
  "menu": {
    "title": "Esri Locator Tjänst"
  },
  "widget": {
    "description": "Konfiguration för Esri Locator serviceökning ämne.",
    "enabled": "Sök ämne aktiv",
    "enabledTooltip": "Aktiverar sökningen ämne att använda den i Omni sökning.",
    "defaultLabel": "Platshållare",
    "defaultLabelTooltip": "Definierar standardtexten sökfältet (värde är valfritt).",
    "labelAttribute": "Titel attribut",
    "labelAttributelTooltip": "Definierar det attribut som används för märkningen av en sökning träff.",
    "pageSize": "Maximala resultat",
    "pageSizeTooltip": "Maximalt antal träffar i resultat (intervall: 0-100; 0 är obegränsad).",
    "typingdelay": "Fördröjning [ms]",
    "typingdelayTooltip": "Paus mellan knapptryckningar innan frågan överlämnas (intervall 0-1000 millisekunder)",
    "url": "URL för tjänsten",
    "urlTooltip": "URL för söktjänsten REST slutpunkt."
  },
  "stores": {
    "locator": {
      "placeHolder": "Placera namn ..."
    }
  }
}