{
  "bundleName": "Routing",
  "bundleDescription": "Detta paket ger Vägbeskrivning Widget från ArcGIS API för JavaScript.",
  "tool": {
    "title": "Routing",
    "tooltip": "Visa dirigerings widget"
  },
  "printTemplate": {
    "printbutton": "Trycket",
    "closebutton": "Stäng",
    "titleText": "Min rutt:",
    "notesPlaceholder": "Ange anteckningar här",
    "routingSummaryETE": "Beräknad tid enroute:",
    "routingSummaryDistance": "Avstånd:",
    "footerText": "Vägbeskrivning finns för planeringsändamål och är föremål för <a href='http://www.esri.com/legal/software-license' target='_blank'>Esri användarvillkor</a> . Dynamiska vägförhållanden kan existera som orsakar noggrannhet skiljer sig från dina anvisningar och måste beaktas tillsammans med skyltar och legala restriktioner. Du tar all risk för användning."
  },
  "units": {
    "hour": "timme",
    "hours": "timmar",
    "minute": "minut",
    "minutes": "minuter",
    "esriMillimeters": "mm",
    "esriCentimeters": "cm",
    "esriDecimeters": "dm",
    "esriMeters": "m",
    "esriKilometers": "km",
    "esriFeet": "ft",
    "esriInches": "i",
    "esriMiles": "mi",
    "esriNauticalMiles": "nm",
    "esriUnknownUnits": "okänt"
  }
}