{
  "bundleName": "Urval",
  "bundleDescription": "Innehåller verktyg för att välja objekt i datakällor",
  "ui": {
    "tools": {
      "mainActivationTool": "Välj",
      "activationToolExtent": "Välj via rektangel"
    },
    "noDataMessage": "Vi har inte hittat några föremål."
  }
}