{
  "bundleName": "Stil",
  "bundleDescription": "--Kärnfunktioner-- Den Teman bunt hanterar all CSS information såsom färger, teckensnitt, bakgrundsbilder etc. Användare kan växla mellan olika utseende hos användargränssnittselement genom att välja olika stilar.",
  "themes": {
    "pure": {
      "desc": "De map.apps \"rena\" stil."
    },
    "night": {
      "desc": "De map.apps \"kväll\" stil."
    }
  },
  "ui": {
    "selectorLabelTitle": "Stil"
  }
}