{
  "bundleName": "UndoRedo",
  "bundleDescription": "Modulen erbjuder en ångra / gör om systemet.",
  "undoTool": {
    "title": "Ångra",
    "tooltip": "Ångra"
  },
  "redoTool": {
    "title": "Gör",
    "tooltip": "Gör"
  },
  "messages": {
    "undo": {
      "start": "Ångra {operation} startade",
      "success": "Ångra {operation} färdiga",
      "failure": "Ångra {operation} misslyckades. Fel: {error}"
    },
    "redo": {
      "start": "Gör om {operation} startade",
      "success": "Gör om {operation} färdiga",
      "failure": "Gör om {operation} misslyckades. Fel: {error}"
    }
  }
}