{
  "bundleName": "ArcGIS for Server Search",
  "bundleDescription": "Пакетът предлага начин да използвате ArcGIS за сървърни услуги слой като източник Web данни",
  "defaults": {
    "name": "Особеност",
    "description": "Разгледайте плъгин за обекти от слой ArcGIS Server",
    "placeHolder": "име на функция ..."
  }
}