{
  "bundleName": "управление на пакет",
  "bundleDescription": "Осигурява интерфейси за управление на пакет",
  "commonDelete": {
    "saveQuery": "Наистина ли искате да изтриете \"{number}\" продукт (а)?",
    "error": "Заличаване на предмети '{items} \"не успя!",
    "partialSuccess": "Някои елементи не могат да бъдат изтрити!",
    "errorFinish": "Не елемент е изтрит!",
    "success": "Операцията за изтриване приключи успешно!"
  },
  "bundleListTool": {
    "title": "Поредици",
    "desc": "Списък на Поредици"
  },
  "removeSelectedBundlesTool": {
    "title": "Изтривам",
    "desc": "Изтрий пакет"
  },
  "createBundleTool": {
    "title": "Качи",
    "desc": "Качване Поредици"
  },
  "dataViewCommon": {
    "filter": {
      "menuDefaultLabel": "Всички",
      "textBoxPlaceHolder": ""
    },
    "pager": {
      "backButtonTooltip": "Предишна страница",
      "forwardButtonTooltip": "Следваща страница",
      "firstButtonTooltip": "Първа страница",
      "lastButtonTooltip": "Последна страница",
      "pageLabeltext": "Page:",
      "pageSizeLabelText": "Резултати ${pageStartItemNumber}-${pageEndItemNumber} на ${itemCount}",
      "pageLabelText": "Page:"
    }
  },
  "bundlesView": {
    "noDataMessage": "Няма налични пакети ...",
    "name": "Име",
    "version": "Версия",
    "title": "Заглавие",
    "desc": "Описание",
    "modifiedBy": "Променено от",
    "modifiedAt": "Модифицирани при"
  },
  "bundleDetailsView": {
    "windowTitle": "Bundle \"{id}\"",
    "createWindowTitle": "Качване Поредици",
    "name": "Име",
    "version": "Версия",
    "dependencies": "Зависимости:",
    "main": "основен досие:",
    "layer": "слой  досие:",
    "location": "Местоположение:",
    "title": "Заглавие:",
    "description": "Описание:",
    "createdAt": "Създаден на:",
    "createdBy": "Създаден от:",
    "modifiedAt": "Модифицирани при",
    "modifiedBy": "Променено от",
    "id": "ID:",
    "upload": "Качи",
    "uploaded": "100% - снопове се извличат и вносни",
    "updateError": "пакет \"{id}\" не може да бъде спасен! {error}",
    "updateSuccess": "пакет \"{id}\" успешни запазена!",
    "uploadStart": "Качване започна!",
    "uploadError": "Грешка при качването:",
    "uploadFinished": "Качи приключи!",
    "createBundleInfo": "<strong>Качване на снопове</strong> <br/><ul><li> Позволени са пощенски или JAR файлове </li><li> Файлът може да съдържа множество пакети. </li></ul>",
    "panelDefaultTitle": "<strong>Обща информация</strong>",
    "panelExtendedTitle": "<strong>Разширена информация</strong>",
    "panelJsonInfoTitle": "<strong>package.json</strong>"
  }
}