{
  "bundleName": "Follow Me",
  "bundleDescription": "Функцията Follow Me осигурява мощен инструмент за работа с map.apps. Потребителите могат да споделят своята карта с други хора или се присъедини към вече съществуваща презентация сесия.",
  "tool": {
    "title": "Follow Me",
    "tooltip": "Follow Me"
  },
  "ui": {
    "createSessionTitle": "Създаване на сесията",
    "joinSessionTitle": "Присъединете сесия",
    "createSessionHint": "Моля въведете вашето име и след това кликнете върху \"Старт на сесията\".",
    "inviteSessionHint": "Поканете гости да присъстват на сесията, като предоставя на сесията-ID:",
    "joinSessionHint": "За да присъства на сесията въведете вашето име и сесия-ID и натиснете \"Присъедини сесия\".",
    "name": "Вашето име",
    "sessionId": "сесия ID",
    "startSession": "Започнете сесия",
    "stopSession": "Край на сесията",
    "joinSession": "Присъединете сесия",
    "leaveSession": "Оставете на сесията",
    "inviteSession": "Изпрати покана",
    "organizer": "Организатор",
    "presenter": "Дарител",
    "owner": "Ми",
    "user": "Потребител",
    "session": "Сесия",
    "markLocation": "Споделяне на местоположение",
    "markLocationTooltip": "Споделяне на местоположение в Follow Me",
    "pleaseWaitForConnection": "Моля, изчакайте, свързващ ...",
    "userList": {
      "attendees": "Присъстващите",
      "numberOfAttendeesSingular": "1 участник е на линия:",
      "numberOfAttendeesPlural": "${numberOfAttendees} участниците са онлайн:"
    },
    "sessionInfo": {
      "sessionActive": "${id}",
      "sessionCreatedAt": "Създаден на ${timestamp}"
    },
    "invitation": {
      "subject": "Вие сте били поканени на заседание Follow Me",
      "body": "За да се присъедини към сесията моля използвайте URL ${url} а сесия-ID ${id}"
    },
    "notifications": {
      "newUser": {
        "shrt": "${type} ${user} присъединиха",
        "lng": "${type} ${user} присъедини към Follow Me сесия."
      },
      "userLeft": {
        "shrt": "${user} е напуснал сесията",
        "lng": "${user} е напуснал сесията Follow Me."
      },
      "sessionClosed": {
        "shrt": "Сесия е закрита",
        "lng": "Сесията Follow Me беше затворен от организатора."
      },
      "parserError": {
        "shrt": "Грешка при анализирането на сървъра отговор"
      },
      "serverError": {
        "shrt": "Грешка в сървъра възникна"
      },
      "topicNotExistent": {
        "shrt": "ID на сесията не съществува"
      },
      "newMarker": {
        "shrt": "${user} сподели ново място"
      },
      "unkownError": {
        "shrt": "Възникна неизвестна грешка"
      }
    }
  }
}