{
  "bundleName": "JoinAddress",
  "bundleDescription": "Този пакет осигурява изпълнението на сървъра JoinAddress.",
  "store": {
    "name": "Търсене JoinAddress",
    "description": "Магазин за услугата за търсене на JoinAddress",
    "placeHolder": "Име Град или пощенски код",
    "fields": {
      "ID": "Id",
      "LNGCODE": "Език код",
      "ZIP": "Пощенски код",
      "CITY": "Град",
      "ZIPNAME": "Пощенски име",
      "ADMCODE": "Административният ключ",
      "XCOOR": "X",
      "YCOOR": "Y",
      "COQ": "Координира качество",
      "SMLCITY": "Сходство на името на града",
      "SMLZIPNAME": "Сходство пощенския име"
    }
  }
}