{
  "bundleName": "Местоположение конфигурация търсене",
  "bundleDescription": "конфигурация пакет за пакета населено място Търсене.",
  "menu": {
    "title": "Esri CH Местоположение Finder"
  },
  "widget": {
    "description": "Конфигурация за търсене темата на Esri Местоположение Finder.",
    "enabled": "Търси в активна",
    "enabledTooltip": "Активира темата за търсене, за да го използвате в търсенето Omni.",
    "defaultLabel": "Заместител",
    "defaultLabelTooltip": "Определя текста по подразбиране на полето за въвеждане на търсене (стойност е по избор).",
    "pageSize": "Максимални резултати",
    "pageSizeTooltip": "Максимален брой попадения в резултатите (обхват: 0-100; 0 е неограничен).",
    "typingdelay": "Забавяне [MS]",
    "typingdelayTooltip": "Пауза между натисканията на клавишите, преди подаване на заявката (диапазон 0-1000 милисекунди)",
    "url": "URL на услугата",
    "urlTooltip": "URL на услугата за търсене REST крайна точка на."
  },
  "stores": {
    "locationFinder": {
      "placeHolder": "Местоположение, адрес, POI ..."
    }
  }
}