{
  "bundleName": "конфигурация на картата поток",
  "bundleDescription": "Този пакет предлага компоненти за конфигурация на пакета Map Flow.",
  "menu": {
    "title": "Карта Flow"
  },
  "widget": {
    "description": "Конфигурация на карта на потока.",
    "singleSelectionMode": {
      "title": "Някои активиране",
      "tooltip": "Само оставя една корица активна карта."
    },
    "autoZoomTo": {
      "title": "Auto-зум",
      "tooltip": "Автоматично отдалечава към първоначалната пространствена част от избраните кориците (ако има такива)"
    },
    "visibleItems": {
      "title": "Видими картата капаци",
      "tooltip": "Брой на видими карти покриване (мин. 3)"
    },
    "nodeDepth": {
      "title": "Дълбочина на нива",
      "tooltip": "Дълбочина на нива в дървото, на задния панел (мин. 1)"
    },
    "showScrollBar": {
      "title": "Показване на плъзгачите",
      "tooltip": "Показване на плъзгачите на задната страна покривка те години."
    }
  }
}