{
  "bundleName": "Резултати Center",
  "bundleDescription": "Компонент за показване на резултатите от търсенето.",
  "ui": {
    "dockTool": {
      "title": "Резултати Center",
      "tooltip": "Резултати Center"
    },
    "rectangleSelectBtn": {
      "title": "Изберете резултати на картата"
    },
    "selectAllBtn": {
      "title": "Избери всички"
    },
    "deselectBtn": {
      "title": "Отмяна на избора"
    },
    "removeAllBtn": {
      "title": "празна резултат център"
    },
    "removeSelectedBtn": {
      "title": "Премахване на избраните елементи от Центъра за резултат"
    },
    "searchStoreTool": {
      "title": "Преглед на данните"
    },
    "exportTool": {
      "title": "Износ"
    },
    "dataView": {
      "filter": {
        "menuDefaultLabel": "Всички",
        "textBoxPlaceHolder": ""
      },
      "pager": {
        "backButtonTooltip": "Предишна страница",
        "forwardButtonTooltip": "Следваща страница",
        "firstButtonTooltip": "Първа страница",
        "lastButtonTooltip": "Последна страница",
        "pageLabeltext": "Page:",
        "pageSizeLabelText": "Резултати ${pageStartItemNumber}-${pageEndItemNumber} на ${itemCount}:",
        "zeroResultsText": "Не са открити съвпадения",
        "pageLabelText": "Page:"
      },
      "DGRID": {
        "noDataMessage": "Няма данни.",
        "loadingMessage": "Зареждане на данните ..."
      }
    },
    "newDataAvailable": "Са налични нови данни"
  }
}