{
  "bundleName": "теми-конфигурация",
  "bundleDescription": "Configuration пакет за пакета шаблон.",
  "menu": {
    "title": "Шаблони за оформление"
  },
  "widget": {
    "description": "Изберете шаблон за оформление ап. Оформлението определя структурата на приложението и позицията на елементи от потребителския интерфейс на. Това ще бъде оформлението който се използва от приложението по подразбиране.",
    "selectedTemplate": {
      "title": "Избрани Layout шаблон:",
      "tooltip": "Избор на шаблони за оформление на приложението."
    }
  }
}