{
  "bundleName": "Web Map",
  "bundleDescription": "Този пакет зарежда Web Map ако номера му се добавя като параметър URL.",
  "errorMessage": "При зареждане на Web Map с ID \"${webmapid}\" Възникнала е грешка. Съобщение: ${errorMsg}"
}