{
  "bundleName": "Webmap-Config",
  "bundleDescription": "Този пакет предлага компоненти за конфигурация на пакета Webmaps.",
  "menu": {
    "title": "ArcGIS Online Webmaps"
  },
  "widget": {
    "description": "Конфигурация ArcGIS Online Webmap",
    "webmaps": {
      "title": "Webmaps",
      "tooltip": "Разделен със запетаи списък на webmaps."
    },
    "webmapsEnabled": {
      "title": "Активирана webmaps",
      "tooltip": "Разделен със запетаи списък на webmaps-индекси, които трябва да се активира. 0 дефинира първата Webmap, 1 за втората и т.н."
    },
    "baseWebMapAsCategory": {
      "title": "Обобщение на основните Webmap слой (първа Webmap) в категорията",
      "tooltip": "Ако оперативната слой на база-Webmap бъдат капсулирани в категория / тема? Ако се проверява не по бокс, отделна категория (например Cover Flow в картата) се генерира за всеки слой."
    },
    "onlyAsOperationalLayer": {
      "title": "Webmaps са само допълнителни теми",
      "tooltip": "Ако webmaps бъде само addional категории / теми? Ако този имот не се проверява, първата webmap ще заменим съдържанието на картата (включително basemaps и начална степен)."
    }
  }
}