{
    "bundleName": "ec-parameter-interceptor",
    "bundleDescription": "ec-parameter-interceptor",
    "errors": {
        "missingQueryParameter": "Missing query parameters",
        "missingTypeQueryParameter": "Missing type query parameter",
        "missingDatasetOrUrlQueryParameter": "Missing dataset or url query parameter",
        "noComponentContextProvided": "No componentContext provided",
        "noBundleContextProvided": "No bundleContext provided",
        "noQueryParametersProvided": "No query parameters provided",
        "datasetTypeNotSupported": "The type '${type}' is not supported",
        "invalidGeoJSON": "Invalid GeoJSON",
        "unsupportedCRSType": "Only named CRS are supported",
        "canNotParseNamedCRS": "Can not parse named CRS to WKID: ${name}",
        "mixingOfDifferentCRS": "Mixing of different CRS is not supported",
        "invalidGeoJSONType": "Unknown GeoJSON type attribute: ${type}",
        "typeNotFoundInResource": "No appropriate format for ${type} found in resource",
        "couldNotLoadDataset": "Could not load dataset: ${cause}",
        "unableToAddDataset": "Unable to add dataset: ${cause}",
        "unableToParseCapabilities": "Unable to parse WMS Capabilities response",
        "canNotDetermineUrl": "Could not determine the download URL of the resource"
    }
}