{
  "bundleName": "Puerta GPS",
  "bundleDescription": "Integra Cliente Puerta GPS (http://gpsgate.com/products/gpsgate_client/) para consultar los datos de los dispositivos de posicionamiento GPS externo"
}