{
  "bundleName": "Configuración Leyenda",
  "bundleDescription": "Este paquete proporciona los componentes de configuración para la leyenda paquete.",
  "menu": {
    "title": "Leyenda"
  },
  "widget": {
    "description": "Configuración de la función de leyenda.",
    "alignmentLeft": {
      "title": "Alinear leyenda contenido izquierda",
      "tooltip": "Si está desactivada, el contenido de la leyenda está alineado a la derecha."
    },
    "respectCurrentMapScale": {
      "title": "Información de la leyenda de visualización de las capas visibles sólo",
      "tooltip": "Si se activa, la leyenda se actualizará con cada mapa de cambio de escala y mostrar sólo información sobre las capas, que son visibles en la escala del mapa actual."
    },
    "showBaseLayer": {
      "title": "Mostrar leyenda para arjetas base",
      "tooltip": "Si está activado, las entradas de leyenda se le aparecen también para arjetas base."
    }
  }
}