{
  "bundleName": "Mapa de configuración de flujo",
  "bundleDescription": "Este paquete proporciona los componentes de configuración para el paquete de Mapa de flujo.",
  "menu": {
    "title": "Mapa de Flujo"
  },
  "widget": {
    "description": "Configuración del mapa de flujo.",
    "singleSelectionMode": {
      "title": "Algunos de activación",
      "tooltip": "Sólo se permite una tapa de la tarjeta activa."
    },
    "autoZoomTo": {
      "title": "Zoom automático",
      "tooltip": "Zoom automáticamente en la sección espacial inicial de las cubiertas seleccionados (si está disponible)"
    },
    "visibleItems": {
      "title": "Visible cubiertas mapa",
      "tooltip": "Número de tarjetas visibles cubra (mín. 3)"
    },
    "nodeDepth": {
      "title": "Profundidad de los niveles de",
      "tooltip": "La profundidad de los niveles en el árbol en la contraportada (min. 1)"
    },
    "showScrollBar": {
      "title": "Mostrar las barras de desplazamiento",
      "tooltip": "Mostrar las barras de desplazamiento en el lado posterior de la cubierta."
    }
  }
}