{
  "bundleName": "Dibujar",
  "bundleDescription": "Dibujo paquete proporciona las herramientas de dibujo y edición de usuario.",
  "commonDelete": {
    "saveQuery": "¿De verdad quiere eliminar {number} artículo (s)?",
    "error": "Supresión de líneas '{items}' falló!",
    "partialSuccess": "Algunos elementos no pueden ser borrados!",
    "errorFinish": "Ningún elemento ha sido eliminado!",
    "success": "La operación de borrado completada con éxito!"
  },
  "ui": {
    "tools": {
      "moveScaleRotateVertices": {
        "title": "Editar gráfico",
        "tooltip": "Modificar un gráfico (haga clic en un gráfico para cambiar el modo)"
      },
      "moveScaleRotate": {
        "title": "Mover, escalar, rotar,",
        "tooltip": "Mover, escalar o rotar un gráfico"
      },
      "editVertices": {
        "title": "Editar estación",
        "tooltip": "Editar los vértices de un gráfico"
      },
      "deleteGraphic": {
        "title": "Borrar Gráficos",
        "tooltip": "Borrar Gráficos"
      }
    },
    "styleProperties": {
      "tool": {
        "title": "Propiedades de carácter",
        "tooltip": "Propiedades de carácter"
      },
      "presets": {
        "title": "Plantillas",
        "deletePresetTool": "Eliminar una plantilla",
        "editPresetTool": "Editar plantilla",
        "addPresetWidget": {
          "textboxPlaceHolder": "Guardar Plantilla ...",
          "buttonTooltip": "Guardar Plantilla ..."
        },
        "overwriteExistingItemMessageTitle": "Ya existe Plantilla",
        "overwriteExistingItemMessage": "Una plantilla llamada '{itemName}' ya existe. Si desea que la plantilla sobreescribirlo?",
        "overwritePreConfiguredItemTitle": "Error",
        "overwritePreConfiguredItemMessage": "No se puede sobrescribir una plantilla configurado previamente!",
        "dataview": {
          "pager": {
            "backButtonTooltip": "Espalda",
            "forwardButtonTooltip": "Adelante",
            "firstButtonTooltip": "Primero",
            "lastButtonTooltip": "Último",
            "pageLabelText": "Página ${currentPage} de ${endPage}",
            "zeroResultsText": "",
            "pageSizeLabelText": "${pageStartItemNumber} - ${pageEndItemNumber} de ${itemCount}"
          },
          "filter": {
            "menuDefaultLabel": "Todos",
            "textBoxPlaceHolder": "Buscar ..."
          },
          "DGRID": {
            "noDataMessage": "No se almacenan las plantillas disponibles.",
            "loadingMessage": "Cargando datos ...",
            "error": "Error:"
          }
        },
        "presetStoreColumns": {
          "id": "Nombre",
          "style": "Tipo",
          "preconfigured": "Configurado"
        },
        "notifier": {
          "saveSuccess": "Plantilla '{itemName}' ha sido guardado con éxito.",
          "saveError": "Plantilla '{itemName}' no se pudo guardar. {error}",
          "applySuccess": "Plantilla '{itemName}' se ha aplicado con éxito.",
          "applyError": "Plantilla '{itemName}' no se podría aplicar. {error}"
        },
        "groups": {
          "font": "Texto",
          "stroke": "Línea",
          "fill": "Llenar",
          "symbol": "Símbolo",
          "marker": "Marcador"
        }
      },
      "text": {
        "title": "Texto",
        "fontFamily": "Fuente",
        "fontSize": "Tamaño de la fuente",
        "fontColor": "Color",
        "fontStyle": {
          "title": "Estilo",
          "bold": "Audaz",
          "italic": "Itálico",
          "underlined": "Subrayar"
        },
        "fontTransparency": "Transparencia"
      },
      "symbol": {
        "title": "Carrera / relleno",
        "stroke": {
          "title": "Línea",
          "color": "Color",
          "style": "Estilo",
          "width": "Ancho",
          "transparency": "Transparencia",
          "strokeval": {
            "none": "Ninguno"
          }
        },
        "fill": {
          "title": "Llenar",
          "color": "Color",
          "pattern": "Patrón",
          "transparency": "Transparencia",
          "patternval": {
            "none": "Ninguno",
            "solid": "Sólido",
            "vertical": "Negro verticales",
            "horizontal": "Negro Horizontal",
            "backwarddiagonal": "Negro diagonal derecha",
            "forwarddiagonal": "Negro Diagonal Izquierda",
            "cross": "Negro Chequeado",
            "diagonalcross": "Negro cruzado"
          }
        }
      },
      "marker": {
        "title": "Marcador",
        "style": "Estilo",
        "size": "Tamaño",
        "styleval": {
          "circle": "Círculo",
          "square": "Cuadrado",
          "cross": "Más",
          "diamond": "Diamante",
          "x": "Cruz"
        }
      },
      "symbols": {
        "title": "Símbolos"
      }
    },
    "edit": {
      "activation": {
        "warn": "El gráfico seleccionado no se puede editar con la herramienta actual.",
        "info": "Seleccionado Gráfico."
      }
    },
    "drawpointtool": "Punto: Dibuja un punto",
    "drawmultipointtool": "Número de puntos: Dibuja varios puntos",
    "drawlinetool": "Línea: Dibuja una línea recta",
    "drawpolylinetool": "Polilínea: Dibuja varias líneas",
    "drawfreehandpolylinetool": "Polilínea de forma libre: Dibuja un trazo definido por el usuario",
    "drawpolygontool": "Polígono: Dibuja un polígono",
    "drawfreehandpolygontool": "Polígono de forma libre: Dibuja un polígono de libre definición",
    "drawextenttool": "A pulso  Rectángulo: Dibuja un rectángulo de libre definición",
    "drawcircletool": "Círculo: Dibuja un círculo",
    "drawellipsetool": "Elipse: Dibuja una elipse",
    "drawrectangletool": "Rectángulo: Dibuje un rectángulo",
    "drawarrowtool": "Flecha: Dibuja una flecha en cualquier dirección",
    "drawleftarrowtool": "Flecha izquierda: Dibujar una tecla de flecha izquierda",
    "drawrightarrowtool": "Flecha derecha: Dibuja una flecha que apunta hacia la derecha",
    "drawuparrowtool": "Flecha arriba: Dibuja una flecha hacia arriba tribunales",
    "drawdownarrowtool": "Flecha abajo: Dibuje una flecha apuntando hacia abajo",
    "drawtriangletool": "Triángulo: Dibuja un triángulo",
    "drawerasealltool": "Borre todos los dibujos",
    "exportTool": "Exportación de gráficos",
    "defaultInfoTemplate": {
      "title": "Dibujo conjunto de herramientas",
      "template": "<div> <span>ID: ${id}</span> <br/> <span>Tipo de geometría: ${geometryType}</span> </div>"
    },
    "texteditor": {
      "tool": {
        "title": "Editor de texto",
        "tooltip": "Escribe el texto de la tarjeta."
      }
    },
    "drawsymbol": {
      "tool": {
        "title": "Galería Icono",
        "tooltip": "Dibuja un símbolo de la galería de símbolos."
      },
      "store": {
        "fields": {
          "title": "Título",
          "description": "Descripción"
        }
      },
      "dataview": {
        "pager": {
          "backButtonTooltip": "Espalda",
          "forwardButtonTooltip": "Adelante",
          "firstButtonTooltip": "Primero",
          "lastButtonTooltip": "Último",
          "pageLabelText": "Página ${currentPage} de ${endPage}",
          "zeroResultsText": "",
          "pageSizeLabelText": "${pageStartItemNumber} - ${pageEndItemNumber} de ${itemCount}"
        },
        "filter": {
          "menuDefaultLabel": "Todos",
          "textBoxPlaceHolder": "Buscar ..."
        },
        "ICON": {
          "noDataMessage": "No hay símbolos!",
          "loadingMessage": "Cargando símbolos ..."
        }
      }
    }
  }
}