{
  "bundleName": "Escala asistente de configuración de visualización del lote",
  "bundleDescription": "Escala asistente de configuración de visualización del lote",
  "menu": {
    "title": "Visualización de la escala"
  },
  "widget": {
    "description": "La configuración de la pantalla de la balanza.",
    "unit": "Unidad",
    "showScaleTooltip": "Seleccione una unidad de la escala de visualización (metros / Millas / ambos). Vista combinada funciona cuando está ajustado \"línea\" de diseño.",
    "metric": "Metro",
    "english": "Miles",
    "dual": "Medidores Millas",
    "style": "Disposición",
    "styleTooltip": "Seleccione un diseño de la escala de visualización (regla / línea)",
    "ruler": "Gobernante",
    "line": "Línea"
  }
}