{
  "bundleName": "Conjunto de herramientas de configuración",
  "bundleDescription": "El paquete de configuración de conjuntos de herramientas.",
  "menu": {
    "title": "Conjunto de herramientas de configuración"
  },
  "widget": {
    "rootLabel": "Conjunto de herramientas",
    "addToolsetLabel": "Añadir nuevo conjunto de herramientas",
    "saveToolsetLabel": "Guardar conjunto de herramientas",
    "deleteToolsetLabel": "Eliminar conjunto de herramientas",
    "defaultToolsetTitle": "Sin nombre conjunto de herramientas",
    "unassignedToolsetTitle": "Herramientas no asignados",
    "selectToolsetHint": "Seleccione un conjunto de herramientas de la lista de la izquierda para configurar",
    "saveDeleteQuery": "¿De verdad quiere eliminar conjunto de herramientas '{title}'?",
    "deleteEntryLabel": "Borrar entrada",
    "saveDeleteEntryQuery": "¿De verdad quiere eliminar la entrada '{title}'?",
    "defaultEntryTitle": "Entrada sin nombre",
    "toolset": {
      "title": "Título",
      "tooltip": "Tooltip",
      "windowType": "Tipo de ventana",
      "fixed": "fijo",
      "floating": "móvil",
      "css_positioned": "Posicionamiento CSS",
      "leftCollapsed": "izquierda se derrumbó",
      "rightCollapsed": "derecho colapsado",
      "topCollapsed": "superior colapsado",
      "bottomCollapsed": "parte inferior se derrumbó",
      "dropdown": "desplegable",
      "menu": "menú",
      "menubar": "barra de menú",
      "menuitem": "Elemento de menú",
      "menubaritem": "Entrada de la barra de menús",
      "position": "Posición",
      "top": "superior",
      "bottom": "fondo",
      "left": "izquierda",
      "right": "derecho",
      "styleClass": "Clase Estilo",
      "closable": "Se puede cerrar",
      "maxHorizontal": "Máximo número de herramientas en una fila",
      "notitle": "Ocultar título",
      "description": "<br /> Las opciones anteriores permiten definir el postion y la aparición de un conjunto de herramientas. <br /><br /> <b>Tipo de ventana:</b> <br /> Conjuntos de herramientas pueden ser ordenado como sigue: fija, flotante o desplomó sobre uno de los bordes de la pantalla. <br /><br /> <b>Posición:</b> <br /> El postion puede definirse con relación a la izquierda o derecha, así como a la página de la pantalla superior o inferior. Las distancias se definen como pixel. Conjuntos de herramientas con el tipo \"fijo\" o \"flotante\" se pueden colocar en cualquier lugar en el mapa. Un conjunto de herramientas colapsado sólo puede colocarse a lo largo de un borde de la pantalla. <br /><br /> <b>Clase Estilo:</b> <br /> Si la barra de título de un conjunto de herramientas con el tipo \"fijo\" se oculta, seleccione 'Ocultar título'."
    }
  }
}