{
  "bundleName": "Comhordú a aimsitheoir",
  "bundleDescription": "Cuidíonn an uirlis an úsáideoir a suímh ag ionchur na comhordanáidí geografacha a aimsiú.",
  "ui": {
    "invalidMessage": "Neamhbhailí bhformáid chomhordú!",
    "invalidDegreeCoordinates": "Neamhbhailí bhformáid chomhordú! <br /> <b>Ord:</b> <br /> Domhanfhad Domhanleithead <br /> <b>Samplaí Formáid:</b> <br /> 7.628694 51.962944 <br /> 7 ° 38'1 \"51 ° 58'1\"",
    "invalidMetricCoordinates": "Neamhbhailí bhformáid chomhordú! <br /> <b>Ord:</b> <br /> Comhordanáid soir Comhordanáid ó thuaidh <br /> <b>Formáid Sampla:</b> <br /> 848860 6793187",
    "submitBtnTxt": "Ok",
    "toolTitle": "Aimsigh comhordanáidí"
  }
}