{
  "bundleName": "Seirbhís Aimsitheoir ESRI",
  "bundleDescription": "Soláthraíonn an beart i siopa don tSeirbhís Aimsitheoir ESRI.",
  "stores": {
    "locator": {
      "name": "Seirbhís ESRI Domhanda geocoding",
      "description": "Breiseán do ESRI Seirbhís geocoding Domhanda (GeocodeServer).",
      "placeHolder": "Seoladh nó suíomh ..."
    }
  }
}