{
  "bundleName": "Léarscáil Cumraíochta Treoraí Bundle",
  "bundleDescription": "Bainistíonn an bundle Léarscáil an léarscáil is mó agus gach eolas ar chion léarscáil. Is féidir teibí an cliant seirbhísí a úsáidtear i samhail Léarscáil ordlathach ionas gur féidir iad a chur ar taispeáint ar bhealaí éagsúla chun an t-úsáideoir.",
  "menu": {
    "mapstate": {
      "title": "Léarscáil Méid"
    },
    "mapmodel": {
      "title": "Léarscáil Ábhar"
    },
    "mrrbuilder": {
      "title": "Bainisteoir Seirbhísí"
    },
    "mapoptions": {
      "title": "Roghanna Léarscáil"
    }
  },
  "commonDelete": {
    "saveQuery": "Ar mhaith leat '{number}' mír (í) a scriosadh? Tabhair faoi deara: Is féidir leis an gcóras a bheith ar neamhréir má tá tú seirbhísí tagartha ag comhpháirteanna eile a scriosadh <b>Faoi láthair tá aon seiceálacha comhsheasmhach dhéantar!</b>",
    "error": "Scriosadh na míreanna '{items}' theip!",
    "partialSuccess": "Ní fhéadfadh roinnt míreanna a scriosadh!",
    "errorFinish": "Níl aon eilimint Scriosadh!",
    "success": "An oibríocht erase chun críche go rathúil!"
  },
  "serviceDetails": {
    "windowTitle": "Seirbhís '{id}'",
    "newServiceId": "Nua",
    "url": "URL:",
    "urltooltip": "Cuir isteach an tseirbhís cruinn url críochphointe anseo! eg http://services.arcgisonline.com/ArcGIS/rest/services/World_Topo_Map/MapServer",
    "title": "Teideal:",
    "titletooltip": "Iontráil teideal don tseirbhís",
    "description": "Cur síos:",
    "descriptiontooltip": "Iontráil síos don tseirbhís",
    "type": "Cineál:",
    "typetooltip": "Roghnaigh an cineál seirbhíse bailí",
    "layer": "Sraith:",
    "layertooltip": "Anseo is féidir leat dul isteach ar an meiteashonraí ciseal na seirbhíse, struchtúrtha cosúil le: <pre> [{\n  \"id\": \"0\",\n  \"title\": \"My Layer\"\n}, ...] </pre>",
    "options": "Roghanna:",
    "optionstooltip": "<p> Anseo is féidir leat dul isteach roghanna speisialta le haghaidh tógála seirbhíse, struchtúrtha cosúil le: <pre> {\n  \"optionName\": \"optionValue\",\n  ...\n} </pre></p><p> Mar shampla, is féidir le teimhneacht seirbhíse a chumrú mar seo a leanas: <pre> {\n  \"opacity\": 0.5\n} </pre></p>",
    "fetchMetadata": "Faigh Meiteashonraí",
    "fetchMetadatatooltip": "Cliceáil seo chun gabháil na meiteashonraí chumraíocht ón url. Tabhair faoi deara go mbeidh gach meiteashonraí isteach a overwritten leis na sonraí arna soláthar ag an tseirbhís!",
    "fetchMetadataDesc": "Beidh an obair seo le haghaidh cineálacha seirbhíse AGS_DYNAMIC ',' AGS_FEATURE 'agus' AGS_TILED '. Mar sin féin, is féidir cineálacha seirbhíse eile a chur leis de láimh leis an bhfoirm seo.",
    "fetchError": "Ceangal le Seirbhís '{url}' theip! {error}",
    "updateError": "Nuashonrú na seirbhíse '{id}' theip! {error}",
    "updateSuccess": "Seirbhís '{id}' suas chun dáta go rathúil!"
  },
  "mrrBuilderWidget": {
    "createNewTitle": "Cruthaigh nód nua",
    "removeServiceTool": "Bain seirbhís",
    "addServiceTool": "Cuir seirbhís nua",
    "dataView": {
      "filter": {
        "menuDefaultLabel": "[Gach]",
        "textBoxPlaceHolder": ""
      },
      "noDataFound": "Níl na seirbhísí atá ar fáil ...",
      "pager": {
        "pageLabelText": "Leathanach ${currentPage} de ${endPage}",
        "backButtonTooltip": "Leathanach roimhe seo",
        "forwardButtonTooltip": "Ar Aghaidh Leathanach",
        "firstButtonTooltip": "An chéad leathanach",
        "lastButtonTooltip": "Leathanach Last",
        "pageSizeLabelText": "Torthaí ${pageStartItemNumber}-${pageEndItemNumber} de ${itemCount}"
      }
    },
    "categories": {
      "id": "An t-ainm",
      "title": "Teideal",
      "serviceUrl": "URL",
      "serviceType": "Cineál"
    }
  },
  "mapModelBuilderWidget": {
    "description": "Sa fhuinneog, is féidir na cártaí le chéile app sainmhíniú téama agus cúlra sraitheanna. Ar an taobh clé bhfuil na seirbhísí atá ar fáil ar taispeáint. Is féidir iad seo a dragged agus thit isteach sa Plains i lár.",
    "hint": "Is féidir na seirbhísí nua a chur leis ag baint úsáide as roghchlár an 'Bainisteoir na Seirbhísí'.",
    "categoryDescription": "Cur síos:",
    "categoryDescriptionTooltip": "Cur síos ar an tseirbhís",
    "categoryTitle": "Teideal:",
    "categoryTitleTooltip": "Teideal na seirbhíse",
    "imageUrl": "URL do Map Flow chlúdach íomhá:",
    "imageUrlTooltip": "URL do Map Flow chlúdach íomhá (méid: 267x159 px, formáidí: jpg, png, gif)",
    "defaultEnabled": "Catagóir chumas ag am tosaithe:",
    "defaultEnabledTooltip": "Seiceáil seirbhís a shocrú a bheith cumasaithe ag am tosaithe an app.",
    "detailsPaneTitle": "Socruithe seirbhíse Athrú <b>'{category.title}'</b>",
    "detailsPaneService": "Bunaithe ar sheirbhís <b>'{service}'</b>",
    "transparencySlider": "Trédhearcacht:",
    "mapFlowPaneTitle": "<b>Socruithe Map Flow</b> <br /> Má tá tú ag baint úsáide as an Shreabhadh Léarscáil, is féidir leat a shainiú airíonna (síos agus íomhá) san alt thíos.",
    "detailsHint": "Roghnaigh nód sonraí shocrú ...",
    "servicesHint": "Seirbhís Tarraing anseo ...",
    "servicesTitle": "Seirbhísí",
    "detailsTitle": "Mionsonraí",
    "operationalLayer": "Sraith Oibriúcháin",
    "baseLayer": "Bonn Sraith",
    "chooseLayers": "Roghnaigh chóir a sraitheanna a chur ar an tseirbhís agus má ba chóir iad a bheith le feiceáil ar dtús.",
    "layerHead": "<b>Sraith</b>",
    "layerVisibleHead": "<b>Le feiceáil Tosaigh</b>",
    "layerVisibleTooltip": "Seiceáil a shocrú staid infheicthe tosaigh ciseal <b>'{title}'.</b>",
    "layerIncludeHead": "<b>Cuir san áireamh</b>",
    "layerIncludeTooltip": "Seiceáil a chur san áireamh ciseal <b>'{title}'.</b>",
    "editable": "Editable",
    "editableTooltip": "Seiceáil eagarthóireacht a cheadú ar an tseirbhís seo"
  },
  "mapStateWidget": {
    "description": "Sainmhíníonn an méid léarscáil an limistéar infheicthe léarscáil. Roghnaigh modh a leagan ar an méid léarscáil tosaigh.",
    "checkBoxApplyMainMapState": "Coigeartaigh méid léarscáil ag panning an léarscáil mó",
    "setExtentManually": "Cineál láimh sna luachanna a mhéid léarscáil",
    "spatialReference": "Córas tagartha spásúil:",
    "errorMessage": "Seiceáil le do thoil na comhordanáidí!"
  },
  "mapOptionsWidget": {
    "description": "Leis na socruithe seo a leanas is féidir le roghanna léarscáil éagsúil a shainiú.",
    "slider": {
      "label": "Taispeáin sleamhnán súmáil",
      "tooltip": "Taispeáin sleamhnán súmáil ar an léarscáil"
    },
    "sliderStyle": {
      "label": "Stíl na sleamhnán súmáil",
      "tooltip": "Bain úsáid as sleamhnán beag nó súmáil réamhshocraithe",
      "type": {
        "small": "beag",
        "large": "mór"
      }
    },
    "nav": {
      "label": "Saigheada Taispeáin nascleanúint",
      "tooltip": "Sainmhíníonn, má tá saigheada nascleanúint taispeáint i cearn den léarscáil."
    },
    "logo": {
      "label": "Taispeáin \"powered-by\" lógó",
      "tooltip": "Sainmhíníonn, má tá an \"powered-by\" lógó atá ar taispeáint ar an léarscáil."
    },
    "doubleClickZoom": {
      "label": "Ceadaigh zooming ar cliceáil dúbailte",
      "tooltip": "Sainmhíníonn, más rud é go zooming féidir ag cliceáil dúbailte."
    },
    "clickRecenter": {
      "label": "Ionad ag an cnaipe [Shift] + Cliceáil",
      "tooltip": "Sainmhíníonn, má tá ionad den léarscáil a cheadaítear ag an cnaipe [Shift] agus cliceáil luch."
    },
    "keyboardNavigation": {
      "label": "Ceadaigh nascleanúint méarchlár",
      "tooltip": "Sainmhíníonn, má tá nascleanúint méarchlár a cheadaítear."
    },
    "scrollWheelZoom": {
      "label": "Ceadaigh zooming ag mousewheel",
      "tooltip": "Sainmhíníonn, má tá zooming ag mousewheel cheadaítear."
    },
    "sliderPosition": {
      "label": "Seasamh an sleamhnán súmáil",
      "tooltip": "An suíomh an sleamhnán súmáil (\"barr chlé\", \"ceart barr\", \"bun-ceart\" nó \"bun-chlé\")",
      "position": {
        "topLeft": "barr chlé",
        "topRight": "ceart barr",
        "bottomLeft": "chlé bun",
        "bottomRight": "ceart bun"
      }
    },
    "displayGraphicsOnPan": {
      "label": "Taispeáin grafaicí cé panning",
      "tooltip": "Nuair a chumas, grafaicí taispeáint nuair a bhogann tú an léarscáil. Is féidir le Disabling an rogha seo feidhmíocht a fheabhsú nuair Internet Explorer."
    },
    "navigationMode": {
      "label": "Mód Nascleanúint",
      "tooltip": "Léiríonn an bhfuil úsáideann an léarscáil chlaochlú CSS3 nuair panning agus zooming (má fhaigheann tacaíocht ón bhrabhsálaí).",
      "csstransform": "CSS-transforms",
      "classic": "clasaiceach"
    },
    "fadeOnZoom": {
      "label": "Céimnithe ar súmáil",
      "tooltip": "Nuair a chumas, sraitheanna tacaíocht a forshuite linn zooming. Faoi láthair tá sé seo le tacaíocht ach amháin le haghaidh Ní mór ciseal Tílithe agus modh loingseoireachta a shocrú chun \"CSS-athrú 'Acht."
    },
    "showAttribution": {
      "label": "Faisnéis View cóipchirt",
      "tooltip": "Má cumasaithe, tá an t-eolas cóipchirt thaispeáint ar na cisil ar taispeáint sa léarscáil."
    },
    "sliderOrientation": {
      "label": "Treoshuíomh an sleamhnán súmáil",
      "tooltip": "Sainmhíníonn an ailíniú an sleamhnán súmáil (\"ingearach\" nó \"cothrománach\").",
      "show": "Taispeáin",
      "hide": "Céimnithe amach",
      "orientation": {
        "horizontal": "cothrománach",
        "vertical": "ingearach"
      }
    },
    "sliderLabels": {
      "label": "Taispeáin lipéid sleamhnán súmáil",
      "tooltip": "Sainmhíníonn má tá lipéid a thaispeántar in aice leis an sleamhnán zúmála seo. (Oibreacha ach amháin le sleamhnán 'mór'.)",
      "labels": {
        "country": "Tír",
        "region": "Réigiún",
        "town": "Cathair"
      }
    }
  }
}