{
  "bundleName": "Léarscáil Sreabhadh",
  "bundleDescription": "Tá an Shreabhadh Léarscáil úsáidtear chun aistriú idir grúpaí ciseal a dhíríonn ar théamaí áirithe. Is gné chlúdach bunaithe Chomhéadain, ag tagairt do Clúdach Apple Shreabhadh.",
  "tool": {
    "title": "Léarscáil Ábhar",
    "tooltip": "Léarscáil Ábhar"
  },
  "ui": {
    "transparency": "Trédhearcacht",
    "transparencyTooltip": "Athraigh trédhearcachta",
    "zoomToTooltip": "Súmáil go feadh chatagóir seo",
    "showDetailsTooltip": "Taispeáin eolas mion",
    "rotatorTooltip": "Ar ais go tosaigh",
    "deleteTooltip": "Scrios",
    "deleteQuestion": "Ar mhaith leat an mhír seo a scriosadh?"
  }
}