{
  "bundleName": "Omni-Cuardaigh",
  "bundleDescription": "Soláthraíonn an bundle comhéadan cuardach thopaicí cuardaigh amháin nó níos mó.",
  "ui": {
    "tooltips": {
      "reset": "Bain toradh",
      "magnifier": "Súmáil thoradh",
      "submit": "Cuir isteach cheist",
      "settings": "Roghnaigh ábhar cuardaigh"
    },
    "settings": "Socruithe",
    "settingsWidget": {
      "title": "Topaicí cuardaigh Fáil"
    },
    "error": "Earráid agus é i mbun cuardaigh!"
  },
  "tool": {
    "title": "Cuardaigh",
    "tooltip": "Fuinneog cuardaigh oscailte"
  }
}