{
  "bundleName": "Uirlis Tuairiscithe",
  "bundleDescription": "Uirlis gur féidir leat a chruthú tuarascálacha a.",
  "title": "Tuairisciú",
  "description": "Cuir leagan síos maidir le tuarascálacha a ghiniúint.",
  "widgets": {
    "reportTool": {
      "menuTitle": "Uirlis Tuairiscithe",
      "description": "Coigeartaigh an iompar an uirlis tuarascála suite i lár toradh.",
      "hint": "Socrú an t-ainm comhaid úsáideach nuair a rogha a íoslódáil díreach a sheiceáil.",
      "dataform": {
        "directDownload": {
          "title": "Íoslódáil Díreach",
          "tooltip": "Seiceáil sin, nuair ba chóir an tuarascáil a ghintear a íoslódáil go díreach. Seachas sin beidh sé a bheith ar taispeáint sa app."
        },
        "fileName": {
          "title": "Comhad Ainm",
          "tooltip": "An t-ainm an chomhaid a bheidh ghintear agus a íoslódáil."
        }
      }
    },
    "reportTask": {
      "menuTitle": "Tuairisc mapálacha",
      "description": "Mapálacha a shainiú a bheidh tuarascáil a úsáid le haghaidh cén cineál ábhar roghnaithe Coigeartaigh.",
      "hint": "Má tá aon mapáil sainithe, beidh an tuarascáil réamhshocraithe a úsáid.",
      "addReportMapping": {
        "title": "Cuir sannadh nua",
        "tooltip": "Cuir sannadh nua",
        "error": "Braitheadh ​​neamhbhailí chumraíocht tuarascáil agus déanfar é a discarded. Tuarascáil:"
      },
      "removeReportMapping": {
        "title": "Scrios mapáil Roghnaithe (í)",
        "tooltip": "Scrios mapáil Roghnaithe (í)"
      },
      "grid": {
        "store": {
          "reportid": "Tuairisc",
          "storeId": "Store",
          "title": "An t-ainm"
        },
        "dataView": {
          "noDataFound": "Aon tuarascáil tascanna atá ar fáil.",
          "DGRID": {
            "noDataMessage": "Níl tuairisc tascanna (í) le fáil ..."
          },
          "pager": {
            "pageSizeLabelText": "Mapálacha Tuairisc ${pageStartItemNumber} - ${pageEndItemNumber} de ${itemCount}"
          }
        }
      },
      "widget": {
        "window": {
          "title": "Cruthaigh tasc tuarascáil"
        },
        "addButtonTitle": "Cuir",
        "labelReportId": "Tuairisc",
        "labelMapmodelId": "Ábhar Roghnú"
      }
    }
  }
}