{
  "bundleName": "Mapa Gréasáin",
  "bundleDescription": "Ualaí a eascraíonn an bundle Léarscáil Gréasáin má tá a id leanas isteach mar pharaiméadar url.",
  "errorMessage": "Nuair a bheidh luchtú an Léarscáil Gréasáin le haitheantas '${webmapid}' Tá Tharla earráid. Teachtaireacht: ${errorMsg}"
}