{
  "bundleName": "FeatureInfo",
  "bundleDescription": "FeatureInfo prikazuje informacije o značajkama za aktivne slojeva.",
  "ui": {
    "featureInfo": {
      "noQueryLayersFound": "Ne pretraživanje sloja dostupan!",
      "contentInfoWindowTitle": "Identificirati",
      "noResultsFound": "Nema rezultata.",
      "loadingInfoText": "Na upite layer ${layerName} (${layerIndex} od ${layersTotal}).",
      "featureInfoTool": "Identificirati",
      "layer": "Sloj",
      "feature": "Objekt"
    },
    "wms": {
      "emptyResult": "Nema pronađenih na WMS sloja \"${layerTitle} 'rezultata."
    }
  }
}