{
  "bundleName": "Karta",
  "bundleDescription": "Karta paket upravlja glavni kartu i sve informacije sadržaja karta. Klijent može apstraktno usluge koriste u hijerarhijskoj Karta modela, tako da oni mogu biti prikazani na različite načine korisnika.",
  "ui": {
    "nodeUpdateError": {
      "info": "Ažuriranje usluge \"${title} 'nije uspjelo! Error: ${errorMsg}",
      "detail": "Ažuriranje usluge \"${title} 'nije uspjelo! Pogreška: ${url} ${errorMsg} - Detalj: ${error}"
    },
    "sliderLabels": {
      "country": "Zemlja",
      "region": "Regija",
      "town": "Grad"
    }
  },
  "drawTooltips": {
    "addPoint": "Kliknite na karti",
    "addMultipoint": "Kliknite za početak",
    "finishLabel": "Završiti"
  }
}