{
  "bundleName": "AddThis konfiguration",
  "bundleDescription": "Tillader konfiguration af AddThis bundter.",
  "menu": {
    "title": "AddThis - Sociale netværk"
  },
  "widget": {
    "description": "Med AddThis besøgende kan sende linket til din hjemmeside på forskellige sociale netværkssider.",
    "addThisUrl": "URL til AddThis JavaScript-API",
    "displayedElements": "Viste elementer",
    "compactShareButton": "kompakt andel knap",
    "compactShareButtonTooltip": "På knappen Del giver brugerne mulighed for at dele et link til din app på en lang række sociale netværk på internettet.",
    "bigShareButton": "Store dele knap",
    "bigShareButtonTooltip": "På knappen Del giver brugerne mulighed for at dele et link til din app på en lang række sociale netværk på internettet.",
    "youTubeButton": "Følg på YouTube",
    "youTubeButtonTooltip": "Når en bruger klikker på denne knap, vil den blive sendt til din kanal på YouTube. Navnet på din kanal, kan du konfigurere \"User Account\" nedenfor.",
    "twitterButton": "Følg på Twitter",
    "twitterButtonTooltip": "Når en bruger klikker på denne knap, vil den blive sendt til din kanal på Twitter. Navnet på din kanal, kan du yderligere nedenfor under configure \"Brugerkonti\"",
    "linkedInButton": "Følg på LinkedIn",
    "linkedInButtonTooltip": "Når en bruger klikker på denne knap, vil den blive sendt til din kanal på LinkedIn. Navnet på din kanal, kan du yderligere nedenfor under configure \"Brugerkonti\"",
    "userAccounts": "Brugerkonti",
    "userAccountHints": "Indtast navnet på dine brugerkonti med de nævnte tjenester. Når brugeren klikker på tilsvarende knap, vil den blive sendt til din kanal.",
    "youTubeUser": "YouTube",
    "twitterUser": "Twitter",
    "linkedInUser": "LinkedIn"
  }
}