{
  "bundleName": "ArcGIS for Server Search & Selection konfiguration",
  "bundleDescription": "Konfigurationen bundle for ArcGIS for Server Search & Selection.",
  "menu": {
    "title": "ArcGIS for Server Search & Selection"
  },
  "widget": {
    "saveDeleteQuery": "Vil du virkelig ønsker at slette \"{number} 'vare (r)?",
    "hint": "Nye tjenester kan tilføjes i menuen \"Services Management\".",
    "storeWindow": {
      "newStoreTitle": "Opret ny søgning emne",
      "editStoreTitle": "Rediger søgning emne",
      "defaultLabel": "Indtast et søgeord ..."
    },
    "storeWizard": {
      "loadingServiceMetadata": "Lastning metadata af tjenesteydelsen ...",
      "loadingLayerMetadata": "Henter metadata lag ...",
      "noQueryService": "Den valgte service kan ikke bruges, da den ikke tillader forespørgsler!",
      "noQueryLayer": "Den valgte lag kan ikke anvendes, da det ikke tillader forespørgsler!",
      "noFields": "Den valgte lag kan ikke anvendes, da det ikke indeholder nogen felter!",
      "serviceError": "Fejl ved tilslutning til tjenesten (Fejlmeddelelse: ${msg})!",
      "layerError": "Fejl forespørgsler lag information (fejlmeddelelse: ${msg})!",
      "noErrorSpecified": "Ingen detaljeret fejlmeddelelse rådighed!",
      "selectServiceTooltip": "Vælg en tjeneste",
      "servicePaneTitle": "Vælg en service til brug for denne søgning emne",
      "serviceTitle": "Service",
      "selectLayerTooltip": "Vælg et lag",
      "layerPaneTitle": "Vælg en lag skal bruges til denne søgning emne",
      "layerTitle": "Layer",
      "storePaneTitle": "Venligst definere nogle grundlæggende indstillinger for denne søgning emne",
      "searchPaneTitle": "Venligst definere omnisearch indstillinger for denne butik",
      "storeTitle": "Titel",
      "storeTitleTooltip": "Titel på søgningen emne",
      "storeDescription": "Beskrivelse",
      "storeDescriptionTooltip": "Beskrivelse af søgningen emne",
      "storeSearchAttr": "Søg attribut",
      "storeSearchAttrTooltip": "Denne attribut anvendes til at søge",
      "storeLabelAttr": "Navn attribut",
      "storeLabelAttrTooltip": "Denne attribut anvendes til at beskrive",
      "defaultLabel": "Pladsholder",
      "defaultLabelTooltip": "Definerer standardteksten af ​​felt søgning input (værdien er valgfrit).",
      "pageSize": "Maksimale resultater",
      "pageSizeTooltip": "Maksimalt antal hits i resultater (interval: 0-100; 0 er ubegrænset).",
      "typingdelay": "Forsinkelse [ms]",
      "typingdelayTooltip": "Pause mellem tastetryk, før forespørgslen forelægges (interval 0-1000 millisekunder)",
      "suggestContains": "Indeholder søgning",
      "suggestContainsTooltip": "Hvis markeret, en søgning er »indeholder« udføres, ellers en 'begynder med' search",
      "selectionPaneTitle": "Venligst angiv indstillingerne for udvælgelsen",
      "useInSearch": "Anvendelse i omni søgning",
      "useInSearchTooltip": "Definerer om lageret vil blive anvendt til udvælgelse.",
      "useInSelection": "Brug for udvælgelse",
      "useInSelectionTooltip": "Kontrollere butik bør anvendes i udvælgelsen",
      "selectionType": "Værktøjstype",
      "selectionTypeTooltip": "Vælg markeringsværktøjet",
      "selectinToolExtent": "Omfang",
      "selectinToolPoint": "Punkt",
      "selectinToolCircle": "Circle",
      "selectinToolPolygon": "Polygon",
      "selectinToolFreehandPolygon": "Ffihånd polygon",
      "selectionToolIconClass": "CSS-klasse til kontakten",
      "selectionToolIconClassTooltip": "Definerer CSS-klasse for værktøjet skifter",
      "selectionToolTolerance": "Klik tolerance",
      "selectionToolToleranceTooltip": "Vælg klik tolerance (Område:. 0 - 100px Tolerance vil kun blive anvendt til punkt værktøj.)."
    },
    "grid": {
      "removeStoreTool": "Fjern Søg emner",
      "addStoreTool": "Tilføj ny Søg Emne",
      "title": "Titel",
      "type": "Type",
      "url": "URL",
      "typeResolve": {
        "AGS_TILED": "Flise-",
        "AGS_DYNAMIC": "Dynamisk",
        "AGS_FEATURE": "Feature",
        "UNKNOWN": "Ukendt"
      },
      "dataView": {
        "noDataFound": "Ingen søgning emner fundet ...",
        "pager": {
          "pageSizeLabelText": "Søg Emner ${pageStartItemNumber} - ${pageEndItemNumber} på ${itemCount}",
          "pageLabelText": "Side ${currentPage} på ${endPage}",
          "backButtonTooltip": "Forrige side",
          "forwardButtonTooltip": "Næste side",
          "firstButtonTooltip": "Første side",
          "lastButtonTooltip": "Sidste side"
        },
        "filter": {
          "menuDefaultLabel": "Alle",
          "textBoxPlaceHolder": ""
        }
      }
    }
  }
}