{
  "bundleName": "GeoNames - Konfiguration",
  "bundleDescription": "Konfigurationen bundt af GeoNames bundt.",
  "menu": {
    "geonames": {
      "title": "GeoNames",
      "description": "Vælg et GeoNames butik"
    },
    "wikipedia": {
      "title": "Wikipedia"
    },
    "poi": {
      "title": "Seværdigheder"
    },
    "postalcodes": {
      "title": "Postnumre"
    }
  },
  "common": {
    "enabled": "Søg topic aktiv",
    "enabledTooltip": "Aktiverer søgningen emne for at bruge det i Omni søgning.",
    "defaultLabel": "Pladsholder",
    "defaultLabelTooltip": "Definerer standardteksten af ​​felt søgning input (værdien er valgfrit).",
    "pageSize": "Maksimale resultater",
    "pageSizeTooltip": "Maksimalt antal hits i resultater (interval: 0-100; 0 er ubegrænset).",
    "typingdelay": "Forsinkelse [ms]",
    "typingdelayTooltip": "Pause mellem tastetryk, før forespørgslen forelægges (interval 0-1000 millisekunder)",
    "languageAware": "Sprog bevidste resultater",
    "languageAwareTooltip": "Sproget i map.apps vil blive brugt til at hente lokaliserede resultater.",
    "url": "URL af tjenesteydelsen",
    "urlTooltip": "URL for søgetjeneste REST endpoint.",
    "username": "GeoNames brugernavn",
    "usernameTooltip": "Navn på personlig GeoNames konto."
  },
  "wikipediaWidget": {
    "description": "Konfiguration af Wikipedia søgning emne."
  },
  "poiWidget": {
    "description": "Konfiguration for interessepunkter søgning butik."
  },
  "postalcodesWidget": {
    "description": "Konfiguration af postnummer søgning emne.",
    "countries": "Land filter",
    "countriesTooltip": "Landekode til at filtrere resultaterne, for eksempel. \"DE\" (værdi er valgfrit)."
  },
  "stores": {
    "postalcodes": {
      "placeHolder": "Indtast postnummer eller stednavn ..."
    },
    "wikipedia": {
      "placeHolder": "Indtast et søgeord ..."
    },
    "poi": {
      "placeHolder": "Point of Interest ..."
    }
  }
}