{
  "bundleName": "Beliggenhed søgning konfiguration",
  "bundleDescription": "Konfiguration bundle for placeringen Søg bundt.",
  "menu": {
    "title": "ESRI CH Location Finder"
  },
  "widget": {
    "description": "Konfiguration til ESRI Location Finder søgning emne.",
    "enabled": "Søg topic aktiv",
    "enabledTooltip": "Aktiverer søgningen emne for at bruge det i Omni søgning.",
    "defaultLabel": "Pladsholder",
    "defaultLabelTooltip": "Definerer standardteksten af ​​felt søgning input (værdien er valgfrit).",
    "pageSize": "Maksimale resultater",
    "pageSizeTooltip": "Maksimalt antal hits i resultater (interval: 0-100; 0 er ubegrænset).",
    "typingdelay": "Forsinkelse [ms]",
    "typingdelayTooltip": "Pause mellem tastetryk, før forespørgslen forelægges (interval 0-1000 millisekunder)",
    "url": "URL af tjenesteydelsen",
    "urlTooltip": "URL for søgetjeneste REST endpoint."
  },
  "stores": {
    "locationFinder": {
      "placeHolder": "Beliggenhed, adresse, POI ..."
    }
  }
}