{
  "bundleName": "Forstørrelsesglas",
  "bundleDescription": "Den Magnifier opskalerer et specifikt område i kortet i et separat vindue. Derved dette område kan inspiceres nærmere uden at forlade den aktuelle visning af de vigtigste kort.",
  "ui": {
    "tools": {
      "magnifier": {
        "title": "Forstørrelsesglas",
        "tooltip": "Vis Forstørrelsesglas"
      }
    }
  }
}