{
  "bundleName": "Navigation værktøjslinjen",
  "bundleDescription": "Navigationen Værktøjslinjen indeholder klassiske navigation værktøjer til rådighed (såsom zoom til fulde udstrækning).",
  "ui": {
    "zoomInTool": {
      "title": "Forstør",
      "tooltip": "Forstør"
    },
    "zoomOutTool": {
      "title": "Reducer",
      "tooltip": "Reducer"
    },
    "panTool": {
      "title": "Move",
      "tooltip": "Move"
    },
    "zoomToNextExtent": {
      "title": "Næste Omfang",
      "tooltip": "Flyt til den næste plads sektion"
    },
    "zoomToPrevExtent": {
      "title": "Forrige plads sektion",
      "tooltip": "Gå til den forrige plads sektion"
    },
    "zoomToFullExtent": {
      "title": "Fulde omfang",
      "tooltip": "Skift til fuld forlængelse"
    },
    "zoomToInitialExtent": {
      "title": "Indledende del af rummet",
      "tooltip": "Skift til indledende ekspansion"
    },
    "zoomInClickTool": {
      "title": "Forstør",
      "tooltip": "Forstør"
    },
    "zoomOutClickTool": {
      "title": "Reducer",
      "tooltip": "Reducer"
    }
  }
}