{
  "bundleName": "Oversigtskort konfiguration",
  "bundleDescription": "Konfigurationen bundle for oversigtskortet.",
  "menu": {
    "title": "Oversigtskort"
  },
  "widget": {
    "description": "Vælg en service for oversigtskortet. Du kan også definere et lag, hvis mere end én er tilgængelig.",
    "hint": "Nye tjenester kan tilføjes i menuen \"Services Management\".",
    "service": "Kort tjeneste",
    "layers": "Layer",
    "transparency": "Gennemsigtighed af rektanglet",
    "color": "Farve af rektanglet",
    "allLayers": "Alle tilgængelige",
    "expandFactor": "Ekspansion / zoomfaktor",
    "errorMessage": "Vælg mindst ét ​​lag!"
  }
}