{
  "bundleName": "temaer-konfiguration",
  "bundleDescription": "Konfiguration bundt for skabelonen bundt.",
  "menu": {
    "title": "Layoutskabeloner"
  },
  "widget": {
    "description": "Vælg en app layout skabelon. Layoutet bestemmer strukturen af ​​app og positionen af ​​UI elementer. Dette vil være det layout, som anvendes af den app som standard.",
    "selectedTemplate": {
      "title": "Valgte layout skabelon:",
      "tooltip": "Udvælgelse af layout skabeloner af app."
    }
  }
}