{
  "bundleName": "UndoRedo",
  "bundleDescription": "Modulet tilbyder en fortryd / redo-system.",
  "undoTool": {
    "title": "Fortryd",
    "tooltip": "Fortryd"
  },
  "redoTool": {
    "title": "Redo",
    "tooltip": "Redo"
  },
  "messages": {
    "undo": {
      "start": "Fortryd {operation} startede",
      "success": "Fortryd {operation} færdig",
      "failure": "Fortryd {operation} mislykkedes. Fejl: {error}"
    },
    "redo": {
      "start": "Redo {operation} startede",
      "success": "Redo {operation} færdig",
      "failure": "Redo {operation} mislykkedes. Fejl: {error}"
    }
  }
}