{
  "bundleName": "Ledelse vindue",
  "bundleDescription": "--KERNFUNKTIONALITÄT-- Vinduet manager er ansvarlig for forvaltningen al dialogvinduet.",
  "ui": {
    "defaultWindowTitle": "Vindue",
    "closeBtn": {
      "title": "Luk"
    },
    "minimizeBtn": {
      "title": "Minimer"
    },
    "maximizeBtn": {
      "title": "Maksimer"
    },
    "restoreBtn": {
      "title": "Gendan"
    },
    "opacityBtn": {
      "title": "Skift gennemsigtighed"
    },
    "collapseBtn": {
      "title": "Skjul indhold"
    },
    "loading": {
      "title": "Vent venligst!",
      "message": "Indlæser ..."
    },
    "okcancel": {
      "title": "Spørgsmål",
      "okButton": "Ok",
      "cancelButton": "Afbestille"
    }
  }
}