{
  "bundleName": "ArcGIS για εκτύπωση διακομιστή",
  "bundleDescription": "Αυτό το πακέτο παρέχει ένα εργαλείο ArcGIS Server εκτύπωσης.",
  "menu": {
    "title": "ArcGIS για εκτύπωση διακομιστή"
  },
  "widget": {
    "description": "Ρύθμιση για τη λειτουργικότητα AGS εκτύπωση.",
    "hint": "Αυτή η λειτουργία είναι διαθέσιμη μόνο με το ArcGIS Server 10.1 ή νεότερη έκδοση, η οποία παρέχει ένα Εξαγωγή Web Map εργασιών.",
    "url": {
      "title": "URL για το ArcGIS Server εργασίας εκτύπωσης",
      "tooltip": "AGS διεύθυνση URL για να εκτυπώσετε την υπηρεσία."
    },
    "directDownload": {
      "title": "Άμεση λήψη",
      "tooltip": "Κατεβάζει το αποτέλεσμα της εκτύπωσης απευθείας αντί να το ανοίξετε σε ένα παράθυρο."
    }
  }
}