{
  "bundleName": "Χάρτης ροής Διαμόρφωση",
  "bundleDescription": "Αυτό το πακέτο παρέχει τα στοιχεία για τη διαμόρφωση της δέσμης Χάρτης ροής.",
  "menu": {
    "title": "Χάρτης ροής"
  },
  "widget": {
    "description": "Διαμόρφωση του χάρτη ροής.",
    "singleSelectionMode": {
      "title": "Μερικά ενεργοποίηση",
      "tooltip": "Επιτρέπεται μόνο μία ενεργό κάλυμμα της κάρτας."
    },
    "autoZoomTo": {
      "title": "Αυτόματο ζουμ",
      "tooltip": "Μεγεθύνει αυτόματα στην αρχική χωρική ενότητα των επιλεγμένων καλύμματα (εάν είναι διαθέσιμο)"
    },
    "visibleItems": {
      "title": "Ορατό χάρτη καλύμματα",
      "tooltip": "Αριθμός των ορατών κάρτες καλύπτουν (ελάχ. 3)"
    },
    "nodeDepth": {
      "title": "Βάθος των επιπέδων",
      "tooltip": "(1 min.) Βάθος επίπεδα στο δέντρο στο πίσω κάλυμμα"
    },
    "showScrollBar": {
      "title": "Εμφάνιση Γραμμές κύλισης",
      "tooltip": "Εμφάνιση κύλισης στην πίσω πλευρά του καλύμματος."
    }
  }
}