{
  "bundleName": "Επισκόπηση Χάρτης Διαμόρφωση",
  "bundleDescription": "Η δέσμη ρυθμίσεων για την επισκόπηση του χάρτη.",
  "menu": {
    "title": "Επισκόπηση χάρτη"
  },
  "widget": {
    "description": "Παρακαλώ επιλέξτε μια υπηρεσία για την επισκόπηση του χάρτη. Μπορείτε επίσης να ορίσετε ένα στρώμα αν περισσότερα από ένα είναι διαθέσιμα.",
    "hint": "Νέες υπηρεσίες μπορούν να προστεθούν στο μενού «υπηρεσίες διαχείρισης».",
    "service": "Υπηρεσία Χάρτης",
    "layers": "Στρώμα",
    "transparency": "Η διαφάνεια του ορθογωνίου",
    "color": "Χρώμα του ορθογωνίου",
    "allLayers": "Όλα τα διαθέσιμα",
    "expandFactor": "Επέκταση / συντελεστή ζουμ",
    "errorMessage": "Επιλέξτε τουλάχιστον ένα στρώμα!"
  }
}