{
  "bundleName": "Έκθεση Διαχείρισης",
  "bundleDescription": "Παρέχει διεπαφές για τη διαχείριση της έκθεσης",
  "commonDelete": {
    "saveQuery": "Θέλετε πραγματικά να διαγράψετε '{number}' αντικείμενο (α);",
    "error": "Διαγραφή των αντικειμένων '{items}' απέτυχε!",
    "partialSuccess": "Ορισμένα αντικείμενα δεν ήταν δυνατόν να διαγραφεί!",
    "errorFinish": "Δεν στοιχείο έχει διαγραφεί!",
    "success": "Η λειτουργία διαγραφής ολοκληρώθηκε με επιτυχία!"
  },
  "reportsTool": {
    "title": "Έκθεση Πρότυπα",
    "desc": "Κατάλογος της Έκθεσης Πρότυπα"
  },
  "removeSelectedReportTool": {
    "title": "Διαγραφή",
    "desc": "Διαγραφή Πρότυπο έκθεσης (s)"
  },
  "createReportTool": {
    "title": "Δημιουργήστε",
    "desc": "Δημιουργία πρότυπο αναφοράς"
  },
  "dataViewCommon": {
    "filter": {
      "menuDefaultLabel": "Όλα",
      "textBoxPlaceHolder": ""
    },
    "pager": {
      "backButtonTooltip": "Προηγούμενη σελίδα",
      "forwardButtonTooltip": "Επόμενη σελίδα",
      "firstButtonTooltip": "Πρώτη σελίδα",
      "lastButtonTooltip": "Τελευταία σελίδα",
      "pageLabeltext": "Σελίδα:",
      "pageSizeLabelText": "Αποτελέσματα ${pageStartItemNumber}-${pageEndItemNumber} του ${itemCount}",
      "pageLabelText": "Σελίδα:"
    }
  },
  "reportsView": {
    "noDataMessage": "Δεν έκθεση πρότυπα που είναι διαθέσιμα ...",
    "id": "Ταυτότητα",
    "title": "Τίτλος",
    "desc": "Περιγραφή",
    "filename": "Αρχείο",
    "enabled": "Καθαρό",
    "trueEnabled": "ναί",
    "falseEnabled": "όχι",
    "modifiedBy": "Τροποποιήθηκε από",
    "modifiedAt": "Τροποποιηθεί σε"
  },
  "reportDetailsView": {
    "windowTitle": "Έκθεση πρότυπο »{title} '",
    "createWindowTitle": "Νέο Πρότυπο έκθεσης",
    "title": "Τίτλος:",
    "enabled": "Καθαρό",
    "uploaded": "Uploaded",
    "description": "Περιγραφή:",
    "createdAt": "Δημιουργήθηκε στις:",
    "createdBy": "Δημιουργήθηκε από:",
    "modifiedAt": "Τροποποιηθεί σε",
    "modifiedBy": "Τροποποιήθηκε από",
    "id": "ID:",
    "fileName": "Αρχείο:",
    "upload": "Ανεβάστε",
    "uploadedMsg": "100%",
    "updateError": "Ενημέρωση της Έκθεσης Πρότυπο »{id}\" απέτυχε! {error}",
    "updateErrorAllreadyExists": "Έκθεση πρότυπο υπάρχει ήδη!",
    "updateSuccess": "Έκθεση \"{id} 'αποθηκεύτηκε με επιτυχία!",
    "uploadStart": "Ανεβάστε ξεκίνημα!",
    "uploadError": "Ανεβάστε το σφάλμα:",
    "uploadFinished": "Η μεταφόρτωση ολοκληρώθηκε!",
    "createInfo": "Παρακαλώ εισάγετε τον τίτλο του νέου προτύπου έκθεσή σας. Μετά τη δημιουργία επιτυχώς το πρότυπο έκθεσης, μπορείτε να προσθέσετε δεδομένα.",
    "panelDefaultTitle": "<strong>Γενικές Πληροφορίες</strong>",
    "panelFileTitle": "<b>Έκθεση πρότυπο</b>"
  }
}