{
  "bundleName": "Δρομολόγηση Διαμόρφωση",
  "bundleDescription": "Δέσμη ρυθμίσεων για το πακέτο δρομολόγησης",
  "menu": {
    "title": "Δρομολόγηση"
  },
  "routing": {
    "menuTitle": "γραφικό δρομολόγησης",
    "description": "Ρύθμιση για τη δέσμη δρομολόγησης.",
    "configSections": {
      "basic": "Βασικές ρυθμίσεις",
      "stops": "Σταματά διαμόρφωση",
      "traffic": "Διαμόρφωση κυκλοφορίας"
    },
    "routeTaskUrl": {
      "title": "URL για το έργο διαδρομή",
      "tooltip": "Καθορίστε την υπηρεσία που θα χρησιμοποιηθεί για τον υπολογισμό κατευθύνσεις. Το widget Οδηγίες χρησιμοποιεί το Παγκόσμιο Δίκτυο Ανάλυσης ως η προεπιλεγμένη υπηρεσία που χρησιμοποιείται για τον υπολογισμό οδηγίες οδήγησης. Αυτό είναι μια συνδρομητική υπηρεσία η οποία είναι διαθέσιμη μέσω του ArcGIS Online. Εάν έχετε μια υπηρεσία ανάλυσης Δίκτυο ArcGIS Server που θέλετε να χρησιμοποιήσετε για να υπολογίσετε τις κατευθύνσεις καθορίσετε τη διεύθυνση URL για την εν λόγω υπηρεσία."
    },
    "directionsLengthUnits": {
      "title": "Μονάδες μήκους",
      "tooltip": "Μονάδες μήκους. Προεπιλογή είναι χιλιόμετρα.",
      "units": {
        "esriMillimeters": "mm",
        "esriCentimeters": "cm",
        "esriDecimeters": "dm",
        "esriMeters": "m",
        "esriKilometers": "χιλιόμετρα",
        "esriFeet": "ft",
        "esriInches": "σε",
        "esriMiles": "μι",
        "esriNauticalMiles": "nm",
        "esriUnknownUnits": "άγνωστος"
      }
    },
    "dragging": {
      "title": "Αφήστε το σύρσιμο των Στάσεις",
      "tooltip": "Ενεργοποιήστε το σύρσιμο των θέσεων στάσης στο χάρτη. Όταν η αληθινή στάσεις μπορεί να μετακινηθεί σε μια νέα θέση και η διαδρομή θα υπολογιστεί. Η προεπιλεγμένη τιμή είναι αλήθεια."
    },
    "showPrintPage": {
      "title": "Εμφάνιση κουμπιού διαδρομή εκτύπωσης",
      "tooltip": "Επιλέξτε να εκτυπώσετε το κουμπί της οθόνης οδηγίες δρομολόγησης."
    },
    "showMilesKilometersOption": {
      "title": "Εμφάνιση μίλια χιλιόμετρα εναλλαγής",
      "tooltip": "Όταν είναι επιλεγμένο, η ομάδα κουμπί εναλλαγής που επιτρέπει στο χρήστη να επιλέξει μεταξύ μίλια και χιλιόμετρα φαίνεται"
    },
    "showTravelModesOption": {
      "title": "Εμφάνιση 'επιλογή του τρόπου λειτουργίας πλοήγησης »σε",
      "tooltip": "Όταν είναι επιλεγμένο, η ομάδα κουμπί εναλλαγής που επιτρέπει στο χρήστη να επιλέξει τους τρόπους ταξιδιού παρουσιάζεται"
    },
    "showClearButton": {
      "title": "σόου «Επαναφορά δρομολόγηση ' κουμπί",
      "tooltip": "Επιλέξτε για να εμφανιστεί το κουμπί επαναφοράς δρομολόγησης."
    },
    "canModifyStops": {
      "title": "Αφήστε την προσθήκη των στάσεων",
      "tooltip": "Εμφανίζει το κουμπί \"Προσθήκη προορισμού». Αυτό το κουμπί επιτρέπει στους χρήστες να προσθέτουν επιπλέον στάσεις."
    },
    "minStops": {
      "title": "Ελάχιστες στάσεις",
      "tooltip": "Ελάχιστος αριθμός των στάσεων."
    },
    "maxStops": {
      "title": "Μέγιστη στάσεις",
      "tooltip": "Μέγιστος αριθμός των στάσεων."
    },
    "returnToStart": {
      "title": "Επιστροφή στην αρχή",
      "tooltip": "Όταν η αληθινή, η διαδρομή θα επιστρέψει στο σημείο εκκίνησης."
    },
    "showReturnToStartOption": {
      "title": "Εμφάνιση επιστροφή στο αρχικό επιλογή",
      "tooltip": "Όταν η αληθινή, η Επιστροφή στην αρχή επιλογή αυτή εμφανίζεται."
    },
    "traffic": {
      "title": "Χρησιμοποιήστε τα δεδομένα κίνησης",
      "tooltip": "Εάν τα δεδομένα κίνησης σε πραγματικό χρόνο για τον υπολογισμό της διαδρομής;"
    },
    "showTrafficOption": {
      "title": "Επιλογή Δείτε κυκλοφορίας",
      "tooltip": "Εμφανίζει τα δεδομένα κίνησης για να χρησιμοποιήσετε την επιλογή."
    }
  },
  "template": {
    "description": "Ρύθμιση για το πρότυπο δρομολόγησης εκτύπωση.",
    "menuTitle": "Δρομολόγηση Πρότυπο Εκτύπωση",
    "titleText": {
      "title": "Τίτλος κειμένου",
      "tooltip": "Ορίστε έναν τίτλο που εμφανίζεται στο πάνω μέρος της εκτύπωσης δρομολόγησης.",
      "defaultText": "Διαδρομή μου"
    },
    "logoImageUrl": {
      "title": "URL εικόνας",
      "tooltip": "URL εικόνας για ένα λογότυπο για την εκτύπωση διαδρομή."
    },
    "customStyleSheet": {
      "title": "URL για τη δική στυλ",
      "tooltip": "URL σε ένα προσαρμοσμένο στυλ που εφαρμόζεται στην εκτύπωση δρομολόγησης."
    },
    "showMap": {
      "title": "Εμφάνιση χάρτη",
      "tooltip": "Μια πρόσθετη χάρτης με την υπολογισμένη διαδρομή προστίθεται στην εκτύπωση."
    },
    "showSummary": {
      "title": "Εμφάνιση ενός δρομολόγηση περίληψη",
      "tooltip": "Η περίληψη θα δείξει την απόσταση και το χρόνο της υπολογισμένης διαδρομής."
    },
    "showNotes": {
      "title": "Εμφάνιση σημειώσεων των χρηστών",
      "tooltip": "Επιτρέπει στο χρήστη να προσθέσετε σημειώσεις σε δρομολόγησης εκτύπωση."
    },
    "footerText": {
      "title": "Υποσέλιδο",
      "tooltip": "Προσθέστε το προσαρμοσμένο κείμενο για να εμφανιστεί στο κάτω μέρος της σελίδας δρομολόγησης εκτύπωση.",
      "defaultText": "Οι οδηγίες που παρέχονται αποκλειστικά για λόγους προγραμματισμού και υπόκεινται στους <a href='http://www.esri.com/legal/software-license' target='_blank'>όρους της Esri χρήσης</a> . Δυναμική οδικές συνθήκες μπορεί να υπάρχει ότι αιτία της ακρίβειας να διαφέρουν από τις οδηγίες σας και θα πρέπει να λαμβάνονται υπόψη μαζί με τα σημάδια και νομικούς περιορισμούς. Μπορείτε να αναλάβει εξ ολοκλήρου τον κίνδυνο της χρήσης."
    }
  }
}