{
  "bundleName": "Street View Διαμόρφωση",
  "bundleDescription": "Δέσμη παραμέτρων για το Street View δέσμη.",
  "menu": {
    "title": "Το Google Street View"
  },
  "widget": {
    "description": "Ρύθμιση για το εργαλείο της Google Street View.",
    "hint": "Παρακαλώ σιγουρευτείτε ότι χρησιμοποιείτε το Google Street View σύμφωνα με τους όρους και τις προϋποθέσεις της Google.",
    "disableDoubleClickZoom": "Ζουμ με διπλό κλικ",
    "panControlEnabled": "Ενεργοποίηση του ελέγχου πλοήγησης",
    "scrollWheelZoomingEnabled": "Ενεργοποίηση ζουμ κύλισης τροχού",
    "scrollWheelTurningEnabled": "Ενεργοποίηση κύλισης τροχό καμπής",
    "zoomControlEnabled": "Ενεργοποίηση του ελέγχου ζουμ"
  }
}