{
  "bundleName": "Editieren Konfiguration",
  "bundleDescription": "Konfigurationsbundle für das Editieren Bundle.",
  "title": "Editieren",
  "description": "Legen Sie die Einstellungen rund um das Editieren von Geoobjekten fest.",
  "hint": "Um die Editierfunktionen nutzen zu können, muss mindest ein Dienst als editierbar markiert sein.",
  "widget": {
    "snapping": {
      "menuTitle": "Fang Optionen",
      "description": "Stellen Sie die Fangeigenschaften ein.",
      "hint": "Nach Änderungen müssen aktivierte Editierwerkzeuge deaktiviert und erneut aktiviert werden.",
      "componentEnabled": {
        "title": "Fangen benutzen",
        "tooltip": "Das Fangen komplett ein-/ausschalten."
      },
      "alwaysSnap": {
        "title": "Immer Fangen",
        "tooltip": "Wenn eingeschaltet, ist Fangen immer aktiv. Sonst muss eine Fang-Taste benutzt werden."
      },
      "tolerance": {
        "title": "Fangradius [px]",
        "tooltip": "Der Fangradius in Pixel."
      }
    },
    "tools": {
      "menuTitle": "Editierwerkzeuge",
      "description": "Wählen Sie die Editierwerkzeuge, die zur Verfügung stehen sollen.",
      "DefaultCreateFeatureTool": {
        "title": "Neues Geoobjekte erstellen",
        "tooltip": "Werkzeug zum Erstellen neuer Geoobjekte ein-/ausschalten."
      },
      "DeleteFeatureTool": {
        "title": "Geoobjekt löschen",
        "tooltip": "Werkzeug zum Löschen von Geoobjekten ein-/ausschalten."
      },
      "DefaultEditFeatureTool": {
        "title": "Geoobjekt editieren",
        "tooltip": "Werkzeug zum Verändern von Geoobjekten ein-/ausschalten."
      }
    },
    "editmodes": {
      "menuTitle": "Editieren von Geoobjekten",
      "description": "Editierbare Eigenschaften von Geoobjekten.",
      "editAttributes": {
        "title": "Attribute sind editierbar",
        "tooltip": "Ein-/Ausschalten, um das Editieren von Attributen von Geoobjekten zu erlauben/verbieten."
      },
      "editGeometry": {
        "title": "Geometrien sind editierbar",
        "tooltip": "Ein-/Ausschalten, um das Editieren der Geometrie von Geoobjekten zu erlauben/verbieten."
      }
    },
    "createmodes": {
      "menuTitle": "Erstellen von Geoobjekten",
      "description": "Ablauf bei der Erstellung von Geoobjekten.",
      "persistAfterFeatureDrawn": {
        "title": "Geoobjekt unmittelbar nach dem Zeichnen speichern",
        "tooltip": "Wenn aktiviert, wird ein gezeichnetes Geoobjekt unmittelbar nach Abschluss des Zeichnvorgangs gespeichert, ansonsten erst nach Klick auf Speichern."
      },
      "disableDrawToolAfterCreation": {
        "title": "Zeichenwerkzeug nach Erstellung deaktivieren",
        "tooltip": "Wenn aktiviert, wird nach dem Speichern des neuen Geoobjekts das Werkzeug für die Erstellung deaktiviert."
      }
    },
    "attachments": {
      "menuTitle": "Anhänge",
      "description": "Konfiguration von Anhängen.",
      "hint": "Anhänge können nur dann verwendet werden, wenn dies im Feature Server konfiguriert ist!<br/>Nach Änderungen müssen aktivierte Editierwerkzeuge deaktiviert und erneut aktiviert werden.",
      "enable": {
        "title": "Anhänge erlauben",
        "tooltip": "Wenn aktiviert, ist es möglich für existierende Geoobjekte Anhänge hochzuladen. Dies ist nur möglich, wenn die Funktion im Feature Server konfiguriert ist."
      }
    }
  }
}