{
  "bundleName": "Karten-Konfigurationsbundle",
  "bundleDescription": "Das Karten Bundle stellt die Hauptkarte und alle Karteninhaltsinformationen zur Verfügung.",
  "menu": {
    "mapstate": {
      "title": "Kartenausdehnung"
    },
    "mapmodel": {
      "title": "Karteninhalt"
    },
    "mrrbuilder": {
      "title": "Diensteverwaltung"
    },
    "mapoptions": {
      "title": "Kartenoptionen"
    }
  },
  "commonDelete": {
    "saveQuery": "Wollen Sie wirklich '{number}' Element(e) löschen? Bitte beachten Sie: Das System kann inkonsistent werden, wenn Kartendienste noch durch andere Komponenten referenziert werden! <b>Aktuell werden keine Konsistenzprüfungen vorgenommen!</b>",
    "error": "Das Löschen der Elemente '{items}' ist fehlgeschlagen!",
    "partialSuccess": "Einige Elemente konnten nicht gelöscht werden!",
    "errorFinish": "Kein Element konnte gelöscht werden!",
    "success": "Der Löschvorgang wurde erfolgreich beendet!"
  },
  "serviceDetails": {
    "windowTitle": "Dienst '{id}'",
    "newServiceId": "Neu",
    "url": "URL:",
    "urltooltip": "Bitte geben Sie hier die exakte Kartendienst-Endpunkt-URL ein! z.B.: http://services.arcgisonline.com/ArcGIS/rest/services/World_Topo_Map/MapServer",
    "title": "Titel:",
    "titletooltip": "Bitte geben Sie einen Titel für den Kartendienst ein.",
    "description": "Beschreibung:",
    "descriptiontooltip": "Bitte geben Sie eine Beschreibung für den Kartendienst ein.",
    "type": "Typ:",
    "typetooltip": "Bitte wählen Sie den korrekten Typ ihres Kartendienstes.",
    "layer": "Ebene:",
    "layertooltip": "Hier können Sie die Ebenen-Metadaten des Kartendienstes erfassen. Diese müssen wie folgt strukturiert sein: <pre>[{\n  \"id\": \"0\",\n  \"title\": \"My Layer\"\n},...]</pre>",
    "options": "Optionen:",
    "optionstooltip": "<p>Hier können Sie Optionen für die Diensterzeugung angeben. Diese müssen wie folgt strukturiert sein: <pre>{\n  \"optionName\": \"optionValue\",\n  ...\n}</pre></p><p>Die Deckkraft eines Dienstes können Sie z.B. folgendermaßen einstellen: <pre>{\n  \"opacity\": 0.5\n}</pre></p>",
    "fetchMetadata": "Metadaten abfragen",
    "fetchMetadatatooltip": "Klicken um die Konfigurationsmetadaten des Kartendienstes abzufragen. Bitte beachten Sie, dass alle eingegebenen Metadaten mit denen des Dienstes überschrieben werden!",
    "fetchMetadataDesc": "Diese Funktion ist für die Dienstetypen 'AGS_DYNAMIC', 'AGS_FEATURE' und 'AGS_TILED' verfügbar. Andere Dienstetypen können jedoch manuell über dieses Formular hinzugefügt werden.",
    "fetchError": "Verbindung zum Dienst '{url}' fehlgeschlagen! {error}",
    "updateError": "Aktualisierung des Dienstes '{id}' fehlgeschlagen! {error}",
    "updateSuccess": "Dienst '{id}' erfolgreich aktualisiert!"
  },
  "mrrBuilderWidget": {
    "createNewTitle": "Create new node",
    "removeServiceTool": "Dienst entfernen",
    "addServiceTool": "Dienst hinzufügen",
    "dataView": {
      "filter": {
        "menuDefaultLabel": "[Alle]",
        "textBoxPlaceHolder": ""
      },
      "noDataFound": "Keine Dienste vorhanden...",
      "pager": {
        "pageLabelText": "Seite ${currentPage} von ${endPage}",
        "backButtonTooltip": "Vorherige Seite",
        "forwardButtonTooltip": "Nächste Seite",
        "firstButtonTooltip": "Erste Seite",
        "lastButtonTooltip": "Letzte Seite",
        "pageSizeLabelText": "Treffer ${pageStartItemNumber}-${pageEndItemNumber} von ${itemCount}"
      }
    },
    "categories": {
      "id": "Name",
      "title": "Titel",
      "serviceUrl": "URL",
      "serviceType": "Typ"
    }
  },
  "mapModelBuilderWidget": {
    "description": "In diesem Fenster kann die Kartenzusammenstellung dieser App mit Themen- und Hintergrundebenen definiert werden. Auf der linken Seite werden alle verfügbaren Dienste angezeigt. Diese können per Drag & Drop in die Ebenen in der Mitte gezogen werden.",
    "hint": "Neue Dienste können über das Menü 'Diensteverwaltung' hinzugefügt werden.",
    "categoryDescription": "Beschreibung:",
    "categoryDescriptionTooltip": "Beschreibung des Kartendienstes",
    "categoryTitle": "Titel:",
    "categoryTitleTooltip": "Titel des Kartendienstes",
    "imageUrl": "URL des Map Flow Bildes:",
    "imageUrlTooltip": "URL des Map Flow Bildes (Größe: 267x159 px, Formate: jpg, png, gif)",
    "defaultEnabled": "Karte beim Start der App aktivieren:",
    "defaultEnabledTooltip": "Wählen Sie die Option, um den Kartendienst beim Start der App zu aktivieren",
    "detailsPaneTitle": "Einstellungen für den Kartendienst <b>'{category.title}'</b>",
    "detailsPaneService": "Basiert auf dem Kartendienst <b>'{service}'</b>",
    "transparencySlider": "Transparenz:",
    "mapFlowPaneTitle": "<b>Map Flow Einstellungen</b><br />Wenn Sie den Map Flow benutzen, können Sie die Einstellungen im folgenden Abschnitt konfigurieren.",
    "detailsHint": "Wählen Sie einen Eintrag um die Details zu ändern...",
    "servicesHint": "Ziehen Sie einen Dienst hierher...",
    "servicesTitle": "Dienste",
    "detailsTitle": "Details",
    "operationalLayer": "Themenebenen",
    "baseLayer": "Hintergrundebenen",
    "chooseLayers": "Wählen Sie aus, welche Kartenebenen verwendet werden sollen und ob diese initial sichtbar sein sollen.",
    "layerHead": "<b>Ebene</b>",
    "layerVisibleHead": "<b>Initial sichtbar</b>",
    "layerVisibleTooltip": "Aktivieren Sie die Option um die initialen Sichbarkeit der Ebene <b>'{title}'</b> zu wählen.",
    "layerIncludeHead": "<b>Verwenden</b>",
    "layerIncludeTooltip": "Aktivieren Sie die Option um die Ebene <b>'{title}'</b> zu verwenden.",
    "editable": "Editierbar",
    "editableTooltip": "Wählen Sie die Option, um den Dienst editierbar zu machen."
  },
  "mapStateWidget": {
    "description": "Der Raumausschnitt bestimmt den sichtbaren Bereich einer Karte. Bitte wählen Sie zunächst eine der zwei Möglichkeiten zur Auswahl des initialen Raumauschnitts aus.",
    "checkBoxApplyMainMapState": "Raumausschnitt durch Verschieben der Hauptkarte anpassen",
    "setExtentManually": "Koordinaten für den Raumausschnitt manuell eingeben",
    "spatialReference": "Raumbezugssystem:",
    "errorMessage": "Bitte überprüfen Sie die Koordinaten!"
  },
  "mapOptionsWidget": {
    "description": "Mit den folgenden Einstellungen können verschiedene Kartenoptionen geändert werden.",
    "slider": {
      "label": "Zeige Zoom-Slider",
      "tooltip": "Definiert, ob ein Zoom-Slider auf der Karte dargestellt wird."
    },
    "sliderStyle": {
      "label": "Style des Zoom-Sliders",
      "tooltip": "Auswahl zwischen Minimal- oder Standard-Slider",
      "type": {
        "small": "Minimal",
        "large": "Groß"
      }
    },
    "nav": {
      "label": "Zeige Navigationpfeile",
      "tooltip": "Definiert, ob Navigationspfeile an den Rändern der Karte dargestellt werden."
    },
    "logo": {
      "label": "Zeige \"powered-by\" Logo",
      "tooltip": "Definiert, ob das \"powered-by\" Logo auf der Karte dargestellt wird."
    },
    "doubleClickZoom": {
      "label": "Zoom mittels Doppelklick",
      "tooltip": "Definiert, ob Vergrößern der Karte mittels Doppelklick möglich ist."
    },
    "clickRecenter": {
      "label": "Zentrieren mittels [Shift] + Mausklick",
      "tooltip": "Definiert, ob Zentrieren mittels Drücken der Shift-Taste und Mausklick erlaubt ist."
    },
    "keyboardNavigation": {
      "label": "Navigation mittels Tastatur",
      "tooltip": "Definiert, ob Kartennavigation mittels Tastatur erlaubt ist."
    },
    "scrollWheelZoom": {
      "label": "Zoom mittels Mausrad",
      "tooltip": "Definiert, ob Vergrößern mittels Mausrad erlaubt ist."
    },
    "sliderPosition": {
      "label": "Position des Zoom-Sliders",
      "tooltip": "Definiert die Position des Zoom-Sliders (\"oben-links\", \"oben-rechts\", \"unten-rechts\" oder \"unten-links\")",
      "position": {
        "topLeft": "oben-links",
        "topRight": "oben-rechts",
        "bottomLeft": "unten-links",
        "bottomRight": "unten-rechts"
      }
    },
    "displayGraphicsOnPan": {
      "label": "Grafiken beim Verschieben anzeigen",
      "tooltip": "Wenn aktiviert, werden Grafiken beim Verschieben der Karte angezeigt. Deaktivieren dieser Option kann die Performance beim Internet Explorer verbessern."
    },
    "navigationMode": {
      "label": "Navigationsmodus",
      "tooltip": "Wenn Modus 'css-transforms' aktiviert ist, werden CSS3 Transformationen beim Verschieben und Zoomen der Karte verwendet (sofern vom Browser unterstützt).",
      "csstransform": "css-transforms",
      "classic": "klassisch"
    },
    "fadeOnZoom": {
      "label": "Überblenden beim Zoom",
      "tooltip": "Wenn aktiviert, werden unterstützte Layer beim Zoomen überblendet. Momentan ist dies nur für gekachelte Layer unterstützt und Navigationsmodus muss auf 'css-transform' gesetz sein."
    },
    "showAttribution": {
      "label": "Zeige Copyright-Information",
      "tooltip": "Wenn aktiviert, wird in der Karte die Copyright-Information zu den angezeigten Layern eingeblendet."
    },
    "sliderOrientation": {
      "label": "Ausrichtung des Zoom-Sliders",
      "tooltip": "Definiert die Ausrichtung des Zoom-Sliders (\"vertikal\" oder \"horizontal\").",
      "show": "Anzeigen",
      "hide": "Ausblenden",
      "orientation": {
        "horizontal": "horizontal",
        "vertical": "vertikal"
      }
    },
    "sliderLabels": {
      "label": "Beschriftung des Zoom-Sliders anzeigen",
      "tooltip": "Wenn aktiv, wird neben dem Zoom-Slider eine Beschriftung von Zoom-Stufen angezeigt. (Funktioniert nur mit Slider-Style 'Groß'.)",
      "labels": {
        "country": "Land",
        "region": "Region",
        "town": "Stadt"
      }
    }
  }
}