{
  "bundleName": "Map Flow",
  "bundleDescription": "Der Map Flow dient zum Umschalten zwischen Layer Gruppen, die sich auf bestimmte Themen beziehen. In der Darstellung lehnt sich der Map Flow an den Apple Cover Flow an.",
  "tool": {
    "title": "Karteninhalt",
    "tooltip": "Karteninhalt"
  },
  "ui": {
    "transparency": "Transparenz",
    "transparencyTooltip": "Transparenz ändern",
    "zoomToTooltip": "Auf die Ausdehnung dieser Kategorie zoomen",
    "showDetailsTooltip": "Zeige Detailinformation",
    "rotatorTooltip": "Zurück zur Vorderseite",
    "deleteTooltip": "Löschen",
    "deleteQuestion": "Wollen Sie wirklich dieses Element löschen?"
  }
}