{
  "bundleName": "Maßstabsanzeige Konfigurations-Wizard Bundle",
  "bundleDescription": "Konfigurations-Wizard Bundle für die Maßstabsanzeige",
  "menu": {
    "title": "Maßstabsanzeige"
  },
  "widget": {
    "description": "Konfiguration der Maßstabsanzeige.",
    "unit": "Einheit",
    "showScaleTooltip": "Wählen Sie eine Einheit für die Maßstabsanzeige (Meter/Meilen/beides). Die kombinierte Anzeige funktioniert nur, wenn Layout \"Linie\" eingestellt ist.",
    "metric": "Meter",
    "english": "Meilen",
    "dual": "Meter & Meilen",
    "style": "Layout",
    "styleTooltip": "Wählen Sie ein Layout für die Maßstabsanzeige (Lineal/Linie)",
    "ruler": "Lineal",
    "line": "Linie"
  }
}