{
  "bundleName": "Werkzeugregeln",
  "bundleDescription": "Mit Werkzeugregeln kann jedes Werkzeug als kontextsensitiv definiert werden. Es kann z.B. nur in einem bestimmten Maßstab oder bei Aktivierung eines bestimmten Kartendienstes angezeigt werden."
}