{
  "bundleName": "Webmap-Config",
  "bundleDescription": "Das Bundle stellt Konfigurationskomponenten für Web Maps bereit.",
  "menu": {
    "title": "ArcGIS Online Webmaps"
  },
  "widget": {
    "description": "ArcGIS Online Webmap Konfiguration",
    "webmaps": {
      "title": "Webmaps",
      "tooltip": "Komma getrennte Liste von Webmaps."
    },
    "webmapsEnabled": {
      "title": "Aktivierte Webmaps",
      "tooltip": "Komma getrennte Liste von Webmaps-Indizies, welche aktiviert werden sollen. 0 steht für die erste Webmap, 1 für die zweite etc."
    },
    "baseWebMapAsCategory": {
      "title": "Layer der Grund-Webmap (1. Webmap) in einer Kategorie zusammenfassen",
      "tooltip": "Sollen die operationalen Layer der Grund-Webmap innerhalb einer Kategorie/eines Themas gekapselt werden? Wenn kein Haken gesetzt ist, wird für jeden Layer eine eigene Kategorie (z.B. ein Cover im Map Flow) erzeugt."
    },
    "onlyAsOperationalLayer": {
      "title": "Webmaps sind lediglich zusätzliche Themen",
      "tooltip": "Sollen alle Webmaps als Themen interpretiert werden, die die vorkonfigurierten Karteninhalte lediglich ergänzen? Wenn kein Haken gesetzt ist, ersetzt die erste Webmap die vorkonfigurierten Karteninhalte (inkl. Hintergrundkarten und Kartenausdehnung)."
    }
  }
}