{
  "bundleName": "Fenster Verwaltung",
  "bundleDescription": "--KERNFUNKTIONALITÄT-- Die Fenster Verwaltung ist für die Verwaltung aller Dialog-Fenster verantwortlich.",
  "ui": {
    "defaultWindowTitle": "Fenster",
    "closeBtn": {
      "title": "Schließen"
    },
    "minimizeBtn": {
      "title": "Verkleinern"
    },
    "maximizeBtn": {
      "title": "Maximieren"
    },
    "restoreBtn": {
      "title": "Wiederherstellen"
    },
    "opacityBtn": {
      "title": "Transparenz umschalten"
    },
    "collapseBtn": {
      "title": "Inhalt verstecken"
    },
    "loading": {
      "title": "Bitte warten!",
      "message": "Lade..."
    },
    "okcancel": {
      "title": "Frage",
      "okButton": "Ok",
      "cancelButton": "Abbrechen"
    }
  }
}