{
  "bundleName": "Live-Konfiguration-Menü",
  "bundleDescription": "Menü zur Live-Konfiguration einer App.",
  "ui": {
    "title": "Live-Konfiguration",
    "entry": "Eintrag",
    "entries": "Einträge",
    "noEntries": "Derzeit gibt es keine Einträge in dieser Kategorie.",
    "chooseCategory": "Wählen Sie eine Option",
    "buttons": {
      "back": "Zurück",
      "apply": "Vorschau aktualisieren",
      "save": "App speichern"
    },
    "dataFormBuilderWidget": {
      "defaultValidationErrorMessage": "Bitte überprüfen Sie Ihre Eingabe(n)!"
    },
    "saveStart": "Speichern gestartet!",
    "saveError": "Speichern fehlgeschlagen! {message}",
    "saveSuccess": "Speichern erfolgreich!",
    "unknownError": "Unbekannter Fehler!",
    "notAppliedConfigChanges": "Konfigurationsänderungen wurden noch nicht übernommen! Sollen diese jetzt übernommen werden?",
    "loadConfigBundles": "<p>Initialisiere Konfigurationsbundles ({pos}/{count})!<br/>Bitte haben Sie einen Moment Geduld.</p>",
    "configureBtn": "Live-Konfiguration",
    "bundleStart": "An",
    "bundleStartMessage": "Starte Bundle '{name}({symname})'",
    "bundleStartMessageSuccess": "Start des Bundles '{name}({symname})' erfolgreich!",
    "bundleStartMessageFailure": "Start des Bundles '{name}({symname})' fehlgeschlagen! {error}",
    "bundleStop": "Aus",
    "bundleStopMessage": "Stoppe Bundle '{name}({symname})'",
    "bundleStopMessageSuccess": "Stop des Bundles '{name}({symname})' erfolgreich!",
    "bundleStopMessageFailure": "Stop des Bundles '{name}({symname})' fehlgeschlagen! {error}",
    "bundleInfo": {
      "components": "Komponenten",
      "bundleIdentifier": "Kennung",
      "bundleName": "Name",
      "bundleDescription": "Beschreibung",
      "bundleVersion": "Version",
      "bundleLocation": "Url",
      "bundleCopyRight": "Copyright",
      "bundleState": "Status",
      "bundleVendor": "Hersteller",
      "bundleCategory": "Kategorien",
      "bundleContactAddress": "Kontaktadresse",
      "bundleDocUrl": "Dokumentation",
      "bundleLicense": "Lizenz",
      "bundleLicenseUrl": "Lizenz-Link"
    },
    "componentInfo": {
      "component": "Komponente",
      "componentIdentifier": "Kennung",
      "componentName": "Name",
      "componentState": "Status",
      "componentInstances": "Instanzen",
      "componentLog": "Log",
      "jsonError": "Ungültige JSON Formatierung: {error}",
      "commonDescription": "Sie können hier die Konfiguration einer Komponente durch Editierung der JSON Konfiguration verändern. <b>Bitte seien Sie vorsichtig!</b>",
      "factoryCreateHint": "Diese Komponente ist eine 'Component Factory'. Durch die Definition einer neuen Konfiguration, wird eine neue Komponente angelegt!",
      "factoryDeleteHint": "Diese Komponente ist eine Instanz einer 'Component Factory'. Durch das Löschen der Konfiguration wird die Komponente entfernt!",
      "notConfigurableHint": "Diese Komponente kann nicht konfiguriert werden."
    }
  },
  "menu": {
    "main": {
      "title": "Live-Konfiguration"
    },
    "content": {
      "title": "Inhalt",
      "description": "Inhalt definieren: Dienste, Kartenebenen, Kartenausdehnung, ..."
    },
    "widgets": {
      "title": "Widgets",
      "description": "Wählen Sie ein Widget"
    },
    "search": {
      "title": "Suche & Selektion",
      "description": "Wählen Sie eine Such- oder Selektionsoption"
    },
    "tools": {
      "title": "Werkzeuge",
      "description": "Werkzeuge, die in dieser App verwendet werden können"
    },
    "design": {
      "title": "Layout & Design",
      "description": "Definiert das visuelle Layout und Design der App"
    },
    "bundles": {
      "title": "Erweiterte Konfiguration (Bundles)"
    }
  }
}