{
  "bundleName": "Gestion App",
  "bundleDescription": "Encapsule éléments d'interface utilisateur pour la gestion de l'application",
  "commonDelete": {
    "saveQuery": "Voulez-vous vraiment supprimer '{number}' article (s)?",
    "error": "Suppression d'éléments '{items}' a échoué!",
    "partialSuccess": "Certains éléments ne peuvent pas être supprimés!",
    "errorFinish": "Aucun élément a été supprimée!",
    "success": "Articles supprimés avec succès!"
  },
  "templatesTool": {
    "title": "Les modèles de cette appli",
    "desc": "Liste des app modèles"
  },
  "removeSelectedTemplatesTool": {
    "title": "Effacer",
    "desc": "Supprimer le modèle (s) de l'application"
  },
  "createTemplateTool": {
    "title": "Créer",
    "desc": "Créer un modèle de l'application"
  },
  "dataViewCommon": {
    "filter": {
      "menuDefaultLabel": "Tous",
      "textBoxPlaceHolder": ""
    },
    "pager": {
      "backButtonTooltip": "Page précédente",
      "forwardButtonTooltip": "Page suivante",
      "firstButtonTooltip": "Première page",
      "lastButtonTooltip": "Dernière page",
      "pageLabeltext": "Page:",
      "pageSizeLabelText": "Résultats ${pageStartItemNumber} - ${pageEndItemNumber} de ${itemCount}",
      "pageLabelText": "Page:"
    }
  },
  "templatesView": {
    "noDataMessage": "Pas de modèles disponibles App ...",
    "title": "Titre",
    "desc": "Description",
    "filename": "Fichier",
    "modifiedBy": "Modifié par",
    "modifiedAt": "Modifié A"
  },
  "templatesDetailsView": {
    "windowTitle": "App modèle '{title}",
    "createWindowTitle": "Nouveau modèle de l'application",
    "title": "Titre:",
    "description": "Description:",
    "createdAt": "Créé le:",
    "createdBy": "Créé par:",
    "modifiedAt": "Modifié le:",
    "modifiedBy": "Modifié par:",
    "id": "ID:",
    "fileName": "Fichier:",
    "upload": "Télécharger",
    "uploaded": "100% - modèle est optimisé",
    "updateError": "Modèle '{id}' n'a pas pu être sauvé! {error}",
    "updateSuccess": "Modèle '{id}' enregistré avec succès!",
    "uploadStart": "Téléchargez en route!",
    "uploadError": "Téléchargez erreur:",
    "uploadFinished": "Téléchargez terminé!",
    "createTemplateInfo": "Entrez un nom de votre nouveau modèle App. Après le nouveau modèle a été créé avec succès, vous pouvez télécharger des données.",
    "panelDefaultTitle": "<b>Informations Générales</b>",
    "panelFileTitle": "<b>Modèles Fichier</b>",
    "syncInfo": "<strong>Remarque:</strong> toutes les applications basées sur ce modèle et 'synchronisation automatique \"activée seront synchronisés pendant le processus de téléchargement!"
  },
  "appsTool": {
    "title": "Applications",
    "desc": "Liste des applications"
  },
  "removeSelectedAppsTool": {
    "title": "Effacer",
    "desc": "Supprimer App(s)"
  },
  "createAppTool": {
    "title": "Créer une nouvelle application",
    "desc": "Créer App"
  },
  "appsView": {
    "noDataMessage": "Aucune application disponible ...",
    "id": "App ID",
    "title": "Titre",
    "desc": "Description",
    "filename": "Fichier",
    "modifiedBy": "Modifié par",
    "modifiedAt": "Modifié A",
    "editorState": "Statut",
    "appTemplateFilterSelect": {
      "placeHolder": "Filtrer par modèle de l'application",
      "tooltip": "Afficher uniquement les applications basées sur un modèle de l'application spécifique."
    }
  },
  "appColumnExtender": {
    "launchApp": "Lancer",
    "launchAppTooltip": "App lancement"
  },
  "appDetailsView": {
    "windowTitle": "App '{title}",
    "createWindowTitle": "Créer une nouvelle application",
    "title": "Titre:",
    "description": "Description:",
    "createdAt": "Créé le:",
    "createdBy": "Créé par:",
    "modifiedAt": "Modifié le:",
    "modifiedBy": "Modifié par:",
    "id": "App ID:",
    "templateId": "App modèle:",
    "templateModifiedAt": "Modèle App modifié à:",
    "fileName": "Fichier:",
    "editorState": "Statut",
    "syncAuto": {
      "title": "Synchronisation automatique:",
      "tooltip": "Permet la synchronisation automatique de cette application. Sur chaque mise à jour du modèle de l'application sous-jacente, cette application sera synchronisé avec le mode de synchronisation configuré automatiquement."
    },
    "syncMode": {
      "title": "le mode de synchronisation:",
      "tooltip": "<ul><li> <b>Remplacer:</b> Dans ce mode, l'application sera complètement remplacé par le modèle de l'application. Tous les paramètres de cette application ainsi que les fichiers modifiés ou ajoutés seront perdus. </li><li> <b>Fusionner:</b> Dans ce mode, tous les changements de cette application seront fusionnés avec les paramètres du modèle de l'application. Par défaut, toutes les modifications de fichiers dans l'application sont perdues à l'exception des fichiers ajoutés et le fichier app.json. Changements modèle pour les fichiers app.json sont appliquées à un niveau de propriété par composant. Se il vous plaît consulter <i>la documentation développeur</i> pour plus de détails et d'options. <br/> <b>Après synchronisation réussie vous devez examiner les changements dans l'application.</b> </li></ul>"
    },
    "syncedAt": "Synchronisé sur:",
    "editorStateValues": {
      "DRAFT": "Ébauche",
      "EDITED": "Édité",
      "VERIFIED": "Vérifié",
      "PUBLISHED": "Publié",
      "DEPRECATED": "Déconseillé"
    },
    "syncModeValues": {
      "REPLACE": "Remplacer",
      "MERGE": "Fusionner"
    },
    "enabled": "En ligne:",
    "updateError": "App '{id}' n'a pas pu être sauvé! {error}",
    "updateSuccess": "App '{id}' enregistré avec succès!",
    "updateStarted": "Enregistrement de l'App '{id}' commencé ...",
    "invalidJSONError": "Le JSON est invalide: {erreur}",
    "editJsonInfo": "Vous pouvez modifier tous les fichiers de l'application manuellement dans cette boîte de dialogue. <br/> <strong>AVERTISSEMENT:</strong> Vous pouvez apporter des modifications qui peuvent empêcher un démarrage réussie de l'application.",
    "choseFileLabel": "Choisissez un fichier:",
    "createAppInfo": {
      "id": "Se il vous plaît entrer un ID (sans espaces) pour votre nouvelle application. <br/> Cet ID doit être unique. Il est utilisé dans l'URL qui pointe vers votre application.",
      "template": "Se il vous plaît choisir un modèle App. Tous les paramètres de configuration initiales sont choisies à partir de ce modèle. Vous pouvez également choisir de télécharger une application directement.",
      "title": "Se il vous plaît entrer un titre et une description pour votre application.",
      "templateId": "App modèle:",
      "emptyTemplate": "Téléchargez l'application directement:",
      "uploadInfo": "Se il vous plaît télécharger l'application.",
      "upload": "Télécharger App",
      "uploaded": "100% - App est optimisée",
      "uploadStart": "Téléchargez en route!",
      "uploadError": "Téléchargez erreur:",
      "uploadFinished": "Téléchargez terminé!"
    },
    "panelDefaultTitle": "<strong>Informations Générales</strong>",
    "panelEditorTitle": "<strong>Modifier les informations</strong>",
    "panelTemplateTitle": "<strong>App Informations sur le modèle</strong>",
    "panelConfigureTitle": "<strong>Actions de configuration</strong>",
    "panelShareTitle": "<strong>Partager avec:</strong>",
    "panelThumbnailTitle": "<strong>Vignette pour les applications Aperçu</strong>",
    "thumbnailUploadTitle": "Envoyer une image",
    "thumbnailUploadedTitle": "100%",
    "configurePreviewBtn": "Configuration en direct",
    "configureFilesBtn": "Configuration manuelle",
    "configureOptimizeBtn": "Optimiser app",
    "configureExportBtn": "App Export",
    "configureSynchronizeBtn": "Synchroniser maintenant",
    "shareWithAnyone": "<strong>Tout le monde</strong>",
    "command": {
      "Add": "Créez un fichier",
      "Replace": "Remplacez le contenu du fichier",
      "Save": "Enregistrer le fichier",
      "Delete": "Supprimer le fichier",
      "Preview": "Aperçu demande"
    },
    "deleteWarning": "Voulez-vous vraiment supprimer ce fichier?",
    "addFileTitle": "Entrez le nom de fichier",
    "fileExistsError": "Le fichier {fichier} existe déjà!",
    "invalidError": "Le fichier ne est pas valide!",
    "templateInfo": {
      "requested": "Informations sur le modèle actuellement demandé ...",
      "deleted": "Le modèle ne existe plus!",
      "directuploaded": "Le modèle a été téléchargé directement pendant le processus de création de l'application!",
      "isNewerAsApp": "<strong>Le modèle de l'application a été modifiée depuis la dernière synchronisation.</strong>"
    },
    "fileUpload": {
      "windowTitle": "Remplacez le contenu du fichier",
      "warning": "Se il vous plaît noter que le contenu du fichier existant sera remplacé sans vérification!",
      "upload": "Télécharger le fichier",
      "uploaded": "100%"
    }
  },
  "optimizeError": "Optimisation échoué! Erreur: {erreur}",
  "optimizeSuccess": "Optimisation terminé avec succès!",
  "optimizeInfo": "L'optimisation peut prendre un certain temps pour terminer. Etes-vous sûr que vous voulez commencer le processus maintenant?",
  "optimizeRunningInfo": "Optimisation fonctionnement ...",
  "synchronizeError": "La synchronisation a échoué! Erreur: {erreur}",
  "synchronizeSuccess": "Synchronisation terminée succès!",
  "synchronizeInfo": "Le processus de synchronisation peut prendre un certain temps. <br/> <strong>Les modifications non enregistrées seront perdues!</strong> <br/> Etes-vous sûr que vous voulez commencer maintenant?",
  "synchronizeRunningInfo": "Synchronisation fonctionnement ..."
}