{
  "bundleName": "Contexte galerie de cartes",
  "bundleDescription": "Un utilisateur peut choisir une carte pour une utilisation ultérieure comme un fond de carte à partir d'une liste des cartes disponibles de fond.",
  "ui": {
    "title": "Contexte galerie de cartes"
  },
  "tool": {
    "title": "Galerie",
    "tooltip": "Galerie"
  }
}