{
  "bundleName": "Transformateur de coordonnées",
  "bundleDescription": "--FONCTIONNALITÉ principales-- Le transformateur de coordonnées transforme géométries à partir de l'un système de coordonnées à l'autre."
}