{
  "bundleName": "Geonames - Lieu Recherche",
  "bundleDescription": "Cet ensemble met en œuvre geonames.org postal recherche de code API. Un utilisateur peut effectuer une recherche par code postal ou nom de lieu. La recherche peut être élargi grâce à la mise en œuvre de services de recherche supplémentaires.",
  "stores": {
    "noValue": "Aucune valeur",
    "postalcodes": {
      "name": "Geonames (codes postaux et les villes)",
      "description": "Plugin pour le service Geonames pour les codes postaux et les villes.",
      "placeHolder": "Code postal ou nom de lieu ...",
      "fields": {
        "countryCode": "Code pays",
        "lat": "Latitude",
        "lng": "Longitude",
        "placeName": "nom de localité",
        "postalCode": "Code Postal"
      }
    },
    "wikipedia": {
      "name": "Wikipedia",
      "description": "Plugin pour articles de Wikipedia avec des informations de localisation.",
      "placeHolder": "Entrez un terme de recherche ...",
      "fields": {
        "title": "Titre",
        "summary": "Résumé",
        "rank": "Rang",
        "elevation": "Hauteur",
        "wikipediaUrl": "Wikipedia URL",
        "countryCode": "Code pays",
        "lat": "Latitude",
        "lng": "Longitude",
        "feature": "Caractéristique",
        "thumbnailImg": "Thumbnail image",
        "lang": "Langue"
      }
    },
    "poi": {
      "name": "Points d'interêts",
      "description": "Plugin pour le service Geonames pour le point d'intérêts.",
      "placeHolder": "Point d'intérêt ...",
      "fields": {
        "countryName": "Nom du pays",
        "fclName": "nom de la classe d'entité",
        "countryCode": "Code pays",
        "lng": "Longitude",
        "fcodeName": "Caractéristique nom de code",
        "toponymName": "Nom toponyme",
        "fcl": "classe d'entité",
        "name": "Nom",
        "fcode": "Code d'entité",
        "geonameId": "Carte d'identité",
        "lat": "Latitude",
        "population": "Population"
      }
    }
  },
  "builder": {
    "menu": {
      "geonames": {
        "title": "Geonames"
      },
      "wikipedia": {
        "title": "Wikipedia"
      },
      "poi": {
        "title": "Points d'interêts"
      },
      "postalcodes": {
        "title": "Codes postaux"
      }
    },
    "common": {
      "enabled": "Rangez actif:",
      "enabledTooltip": "Permet la boutique pour lui dans la recherche Omni.",
      "defaultLabel": "Espace réservé:",
      "defaultLabelTooltip": "Définit le texte du champ de saisie de recherche par défaut (valeur est facultative).",
      "pageSize": "Résultats maximum",
      "pageSizeTooltip": "Nombre maximum de hits dans les résultats (fourchette: 0-100; 0 est illimité).",
      "typingdelay": "Retard [ms]",
      "typingdelayTooltip": "Pause entre les touches avant que la requête est présentée (plage de 0 à 1000 millisecondes)",
      "languageAware": "Langue résultats sensibiliser",
      "languageAwareTooltip": "La langue utilisée dans map.apps sera utilisé pour obtenir des résultats localisés.",
      "url": "URL du service",
      "urlTooltip": "URL de la REST terminaison de service de recherche.",
      "username": "Nom d'utilisateur Geonames",
      "usernameTooltip": "Nom de compte de geonames personnelle."
    },
    "wikipediaWidget": {
      "description": "Configuration de la recherche sujet Wikipedia."
    },
    "poiWidget": {
      "description": "Configuration pour les Points de recherche d'intérêt magasin."
    },
    "postalcodesWidget": {
      "description": "Configuration du sujet de recherche par code postal.",
      "countries": "filtre de Pays",
      "countriesTooltip": "Code pays pour filtrer les résultats, par exemple. \"DE\" (valeur est facultative)."
    }
  }
}