{
  "bundleName": "configuration Loupes",
  "bundleDescription": "liasse de configuration pour le faisceau de loupe",
  "menu": {
    "title": "Loupe"
  },
  "widget": {
    "description": "Configuration de la fonction de zoom.",
    "magnificationFactor": {
      "title": "Facteur d'agrandissement",
      "tooltip": "Définit le facteur de grossissement. Se il vous plaît noter que seul facteur 1, 2, 4 ou 8 peuvent généralement être utilisés lors de l'utilisation des services mis en cache."
    },
    "disableMagnifierNavigation": {
      "title": "Navigation loupe Désactiver",
      "tooltip": "Définit Que ce est possible de naviguer dans la fenêtre de loupe."
    },
    "fixable": {
      "title": "Fixé",
      "tooltip": "Définit si le cadre d'agrandissement est réparable par un clic de souris."
    }
  },
  "ui": {
    "tools": {
      "magnifier": {
        "title": "Loupe",
        "tooltip": "Afficher Loupe"
      }
    }
  }
}