{
  "bundleName": "Mesure de l'outil de configuration",
  "bundleDescription": "faisceau de configuration pour l'ensemble de l'outil de mesure.",
  "menu": {
    "title": "Outils de mesure"
  },
  "widget": {
    "description": "La configuration des outils de mesure.",
    "finishWithButton": {
      "title": "Arrêter la mesure en cliquant sur le bouton",
      "tooltip": "Se il est activé, un bouton pour la finition dessin est affiché. Sinon double-cliquez termine le dessin."
    },
    "showTools": {
      "area": "Outil de mesure de la zone Afficher",
      "distance": "Afficher l'outil de mesure de distance",
      "location": "Afficher l'outil de mesure d'emplacement"
    },
    "defaultTool": {
      "title": "Par défaut outil permis",
      "none": "Aucun",
      "area": "Zone",
      "distance": "Distance",
      "location": "Position"
    },
    "defaultAreaUnit": {
      "title": "unité de surface par défaut",
      "ACRES": "Acres",
      "SQUARE_MILES": "Miles carrés",
      "SQUARE_KILOMETERS": "Kilomètres carrés",
      "HECTARES": "Hectares",
      "SQUARE_YARDS": "Mètre carré",
      "SQUARE_FEET": "Pieds carrés",
      "SQUARE_METERS": "Mètre carré"
    },
    "defaultLengthUnit": {
      "title": "unité de longueur par défaut",
      "MILES": "Miles",
      "KILOMETERS": "Kilomètre",
      "FEET": "Pied",
      "METERS": "Mètre",
      "YARDS": "Cour",
      "NAUTICAL_MILES": "Miles nautiques"
    },
    "defaultLocationUnit": {
      "title": "Les coordonnées de l'unité standard",
      "DECIMAL_DEGREES": "Degré",
      "DEGREE_MINUTE_SECONDS": "DMS"
    }
  }
}