{
  "bundleName": "Barre d'outils de navigation",
  "bundleDescription": "La barre d'outils de navigation fournit des outils de navigation classiques disponibles (telles que le zoom à la pleine mesure).",
  "ui": {
    "zoomInTool": {
      "title": "Agrandir",
      "tooltip": "Agrandir"
    },
    "zoomOutTool": {
      "title": "Réduire",
      "tooltip": "Réduire"
    },
    "panTool": {
      "title": "Mouvement",
      "tooltip": "Mouvement"
    },
    "zoomToNextExtent": {
      "title": "Suivant étendue",
      "tooltip": "Passer à la section suivante de l'espace"
    },
    "zoomToPrevExtent": {
      "title": "Section de l'espace précédent",
      "tooltip": "Allez à la section de l'espace précédente"
    },
    "zoomToFullExtent": {
      "title": "Section spatiale complet",
      "tooltip": "Passer en pleine extension"
    },
    "zoomToInitialExtent": {
      "title": "Section initiale de l'espace",
      "tooltip": "Passer en expansion initiale"
    },
    "zoomInClickTool": {
      "title": "Agrandir",
      "tooltip": "Agrandir"
    },
    "zoomOutClickTool": {
      "title": "Réduire",
      "tooltip": "Réduire"
    }
  }
}