{
  "bundleName": "Omni-Recherche",
  "bundleDescription": "Ce paquet fournit une interface de recherche de sujets un ou plusieurs recherche.",
  "ui": {
    "tooltips": {
      "reset": "Supprimer le résultat",
      "magnifier": "Zoom entraîner",
      "submit": "Proposez requête",
      "settings": "Sélectionnez le sujet de recherche"
    },
    "settings": "Paramètres",
    "settingsWidget": {
      "title": "Disponible sujets de recherche"
    },
    "error": "Erreur lors de l'exécution recherche!"
  },
  "tool": {
    "title": "Recherche",
    "tooltip": "Ouvrir la fenêtre de recherche"
  }
}