{
  "bundleName": "Configuration de routage",
  "bundleDescription": "liasse de configuration pour le groupe de routage",
  "menu": {
    "title": "Routage"
  },
  "routing": {
    "menuTitle": "widget de routage",
    "description": "Configuration pour le faisceau de routage.",
    "configSections": {
      "basic": "La configuration de base",
      "stops": "Arrête configuration",
      "traffic": "configuration de circulation"
    },
    "routeTaskUrl": {
      "title": "URL de la tâche de routage",
      "tooltip": "Spécifiez le service qui sera utilisé pour calculer l'itinéraire. Le widget Directions utilise l'analyse Réseau mondial que le service par défaut utilisée pour calculer des itinéraires. Ce est un service par abonnement disponible sur ArcGIS Online. Si vous avez un service d'analyse de réseau ArcGIS Server que vous souhaitez utiliser pour calculer l'itinéraire spécifier l'URL à ce service."
    },
    "directionsLengthUnits": {
      "title": "Les unités de longueur",
      "tooltip": "Les unités de longueur. Par défaut est km.",
      "units": {
        "esriMillimeters": "mm",
        "esriCentimeters": "cm",
        "esriDecimeters": "dm",
        "esriMeters": "m",
        "esriKilometers": "km",
        "esriFeet": "ft",
        "esriInches": "en",
        "esriMiles": "mi",
        "esriNauticalMiles": "nm",
        "esriUnknownUnits": "inconnu"
      }
    },
    "dragging": {
      "title": "Laisser glisser d'arrêts",
      "tooltip": "Activer le glissement des points d'arrêt sur la carte. Lorsque de véritables arrêts peuvent être glissés vers un nouvel emplacement et l'itinéraire sera recalculé. La valeur par défaut est vrai."
    },
    "showPrintPage": {
      "title": "Afficher le bouton route imprimer",
      "tooltip": "Sélectionnez d'imprimer l'affichage des boutons d'instructions de routage."
    },
    "showMilesKilometersOption": {
      "title": "Afficher mille kilomètres bascule",
      "tooltip": "Quand elle est cochée, le groupe de bouton à bascule permettant à l'utilisateur de choisir entre Miles et Kilomètres est montré"
    },
    "showTravelModesOption": {
      "title": "Voir 'Navigation sélection de mode «à",
      "tooltip": "Quand elle est cochée, le groupe de bouton à bascule permettant à l'utilisateur de choisir les modes de déplacement est représenté"
    },
    "showClearButton": {
      "title": "Afficher 'réinitialiser routage' bouton",
      "tooltip": "Sélectionnez pour afficher le bouton de réinitialisation de routage."
    },
    "canModifyStops": {
      "title": "Autoriser l'ajout d'arrêts",
      "tooltip": "Afficher le bouton «Ajouter une destination '. Ce bouton permet aux utilisateurs d'ajouter des arrêts."
    },
    "minStops": {
      "title": "Arrêts minimales",
      "tooltip": "Nombre minimum d'arrêts."
    },
    "maxStops": {
      "title": "Arrêts maximales",
      "tooltip": "Nombre maximum d'arrêts."
    },
    "returnToStart": {
      "title": "Retourner au début",
      "tooltip": "Lorsque vrai, la route sera de retour au point de départ."
    },
    "showReturnToStartOption": {
      "title": "Afficher retour à option de démarrage",
      "tooltip": "Lorsque vrai, l'Retourner au début option est affichée."
    },
    "traffic": {
      "title": "Utilisez les données de trafic",
      "tooltip": "Si les données de trafic en temps réel sont utilisés lors du calcul de l'itinéraire?"
    },
    "showTrafficOption": {
      "title": "Option Afficher du trafic",
      "tooltip": "Affiche les données de trafic à utiliser option."
    }
  },
  "template": {
    "description": "Configuration pour le modèle de routage d'impression.",
    "menuTitle": "Routage Modèle d'Impression",
    "titleText": {
      "title": "texte Titre",
      "tooltip": "Définissez un titre qui apparaît en haut de l'impression de routage.",
      "defaultText": "Mon parcours"
    },
    "logoImageUrl": {
      "title": "URL de l'image",
      "tooltip": "URL de l'image d'un logo sur la route Impression."
    },
    "customStyleSheet": {
      "title": "URL propre feuille de style",
      "tooltip": "URL à une feuille de style personnalisée qui est appliquée à l'impression de routage."
    },
    "showMap": {
      "title": "Voir la carte",
      "tooltip": "Une carte supplémentaire avec l'itinéraire calculé est ajouté à l'impression."
    },
    "showSummary": {
      "title": "Afficher un résumé de routage",
      "tooltip": "Le résumé affiche la distance et le temps de l'itinéraire calculé."
    },
    "showNotes": {
      "title": "Voir les notes des utilisateurs",
      "tooltip": "Autoriser les utilisateurs à ajouter des notes à l'acheminement impression."
    },
    "footerText": {
      "title": "Pied de page",
      "tooltip": "Ajouter texte personnalisé à afficher au bas de la page routage d'impression.",
      "defaultText": "Indications sont fournis à des fins de planification seulement et sont sujets à <a href='http://www.esri.com/legal/software-license' target='_blank'>des termes de Esri d'utilisation</a> . Conditions routières dynamiques peuvent exister cette cause l'exactitude de différer de vos directions et doivent être pris en compte ainsi que les signes et les restrictions légales. Vous assumez tous les risques d'utilisation."
    }
  }
}