{
  "bundleName": "thèmes configuration",
  "bundleDescription": "liasse de configuration pour l'ensemble des thèmes.",
  "menu": {
    "title": "thème de conception"
  },
  "widget": {
    "description": "Sélection du thème de conception pour l'application. Le thème de conception définit l'aspect visuel de l'application; Couleurs, icônes, polices, etc.",
    "selectedTheme": {
      "title": "Thème de conception sélectionné:",
      "tooltip": "Sélectionnez un thème de conception qui devrait être utilisé par l'application"
    }
  }
}