{
  "bundleName": "Webmap-Config",
  "bundleDescription": "Cet ensemble fournit les composants de configuration pour le faisceau Webmaps.",
  "menu": {
    "title": "ArcGIS Online Webmaps"
  },
  "widget": {
    "description": "Configuration ArcGIS Online Webmap",
    "webmaps": {
      "title": "Webmaps",
      "tooltip": "Liste des webmaps séparées par des virgules."
    },
    "webmapsEnabled": {
      "title": "Webmaps Enabled",
      "tooltip": "Liste des webmaps-indices qui doivent être activés séparées par des virgules. 0 représente la première Webmap, 1 pour le deuxième, etc."
    },
    "baseWebMapAsCategory": {
      "title": "Résumer la couche d'Webmap base (1er Webmap) dans une catégorie",
      "tooltip": "Si la couche opérationnel de la base-Webmap être encapsulé dans une catégorie / un thème? Si aucune case ne est cochée, une catégorie distincte (par exemple, un Cover Flow dans la carte) est généré pour chaque couche."
    },
    "onlyAsOperationalLayer": {
      "title": "Webmaps ne sont que des thèmes supplémentaires",
      "tooltip": "Si webmaps seulement addional catégories / thèmes? Si cette propriété ne est pas cochée, la première plane du web remplacera la carte contenu (y compris les cartes de base et mesure initiale)."
    }
  }
}