{
  "bundleName": "AddThis",
  "bundleDescription": "Com AddThis os usuários podem compartilhar o aplicativo map.apps em diferentes redes sociais.",
  "ui": {
    "errorOnAPILoad": "AddThis indisponível!",
    "addThisAPILoader": {
      "exceptionAnn": "Falha ao carregar o JavaScript-API para AddThis.",
      "exceptionMsg": "Falha ao carregar o JavaScript-API para AddThis."
    }
  }
}