{
  "bundleName": "ArcGIS for Server Printing",
  "bundleDescription": "Este pacote fornece uma ferramenta de impressão ArcGIS Server.",
  "ui": {
    "button": {
      "title": "Imprimir o mapa atual"
    },
    "window": {
      "title": "Saída de impressão"
    },
    "error": {
      "unknown": "Impressão ArcGIS Server: Um erro desconhecido ocorreu!",
      "code403": "AGS Impressão: A URL do serviço de impressão configurado tem que estar em seus proxys lista permitida!",
      "code404": "AGS Impressão: O serviço de impressão não pôde ser resolvido para o URL configurado!"
    },
    "dialog": {
      "title": "Título",
      "format": "Formato",
      "layout": "Traçado",
      "dpi": "DPI",
      "scale": "Mantido escala",
      "submitBtnLabel": "Impressão"
    },
    "imgPrintResultWidget": {
      "printBtnText": "Impressão"
    }
  }
}