{
  "bundleName": "Coordenar configuração de exibição",
  "bundleDescription": "Configuração da exibição de coordenadas",
  "menu": {
    "title": "Exibição de coordenadas"
  },
  "widget": {
    "description": "Os parâmetros de configuração da exibição de coordenadas.",
    "showScale": "Mostrar a escala",
    "showCoordinates": "Mostrar coordenadas",
    "degreeFormat": "Mostrar coordenadas em grau",
    "degreeFormatTooltip": "O formato de grau só é usado se o sistema de coordenadas de longitude e latitude de referência espacial com base",
    "decimalPlaces": "Casas decimais de coordenadas",
    "transformSrs": "Transformar as coordenadas",
    "targetSrs": "Transformação do sistema-alvo",
    "targetSrsTooltip": "Este parâmetro de configuração é usado apenas se 'transformar as coordenadas' está ativado."
  }
}