{
  "bundleName": "Exibição de coordenadas",
  "bundleDescription": "A exibição coordenadas indica as coordenadas e sistema de referência espacial na posição atual do mouse. Além disso, a escala atual do mapa é exibido.",
  "ui": {
    "coordinates": "<table><tr><td>${x}</td><td>:</td><td>${y}</td></tr><tr><td colspan='3'>${srs}</td></tr></table>",
    "scale": "Escala: 1: ${scale}",
    "noSrs": "-"
  },
  "hemispheres": {
    "north": "N",
    "south": "S",
    "east": "E",
    "west": "W"
  }
}