{
  "bundleName": "Coordenar localizador",
  "bundleDescription": "Esta ferramenta ajuda o usuário a encontrar locais por a entrada de coordenadas geográficas.",
  "ui": {
    "invalidMessage": "Inválido formato de coordenadas!",
    "invalidDegreeCoordinates": "Inválido formato de coordenadas! <br /> <b>Ordenação:</b> <br /> Longitude Latitude <br /> <b>Formato Exemplos:</b> <br /> 7.628694 51.962944 <br /> 7 ° 38'1 \"51 ° 58'1\"",
    "invalidMetricCoordinates": "Inválido formato de coordenadas! <br /> <b>Ordenação:</b> <br /> Easting Northing <br /> <b>Formato Exemplo:</b> <br /> 848860 6793187",
    "submitBtnTxt": "ESTÁ BEM",
    "toolTitle": "Procurar coordenadas"
  }
}