{
  "bundleName": "Lupa",
  "bundleDescription": "O Magnifier upscale de uma área específica do mapa em uma janela separada. Desse modo, esta área pode ser inspecionado em mais detalhes sem deixar a visão atual do mapa principal.",
  "ui": {
    "tools": {
      "magnifier": {
        "title": "Lupa",
        "tooltip": "Mostrar Lupa"
      }
    }
  }
}