{
  "bundleName": "Roteamento",
  "bundleDescription": "Este pacote fornece as indicações widget da API do ArcGIS para JavaScript.",
  "tool": {
    "title": "Roteamento",
    "tooltip": "Mostrar Widget de roteamento"
  },
  "printTemplate": {
    "printbutton": "Impressão",
    "closebutton": "Perto",
    "titleText": "Minha rota:",
    "notesPlaceholder": "Escreva as notas aqui",
    "routingSummaryETE": "Tempo estimado na rota:",
    "routingSummaryDistance": "Distância:",
    "footerText": "Os sentidos são fornecidas apenas para fins de planejamento e estão sujeitas a <a href='http://www.esri.com/legal/software-license' target='_blank'>termos de uso da ESRI</a> . Condições da estrada dinâmicos podem existir que a precisão causa a diferir das suas direções e deve ser levado em conta, juntamente com sinais e restrições legais. Você assume todos os riscos do uso."
  },
  "units": {
    "hour": "hora",
    "hours": "horas",
    "minute": "minuto",
    "minutes": "atas",
    "esriMillimeters": "mm",
    "esriCentimeters": "cm",
    "esriDecimeters": "dm",
    "esriMeters": "m",
    "esriKilometers": "km",
    "esriFeet": "ft",
    "esriInches": "em",
    "esriMiles": "mi",
    "esriNauticalMiles": "nm",
    "esriUnknownUnits": "desconhecido"
  }
}