{
  "bundleName": "Regras de ferramentas",
  "bundleDescription": "Com regras Ferramenta cada ferramenta pode ser especificado como sensível ao contexto. A ferramenta pode ser mostrado, dependendo da escala do mapa atual ou o serviço de mapas ativado."
}