{
  "bundleName": "Janela de Gestão",
  "bundleDescription": "--NÚCLEO FUNCIONALIDADE-- O gerenciador de janelas é responsável por gerenciar toda a janela de diálogo.",
  "ui": {
    "defaultWindowTitle": "Janela",
    "closeBtn": {
      "title": "Perto"
    },
    "minimizeBtn": {
      "title": "Minimizar"
    },
    "maximizeBtn": {
      "title": "Maximizar"
    },
    "restoreBtn": {
      "title": "Restaurar"
    },
    "opacityBtn": {
      "title": "Alterar transparência"
    },
    "collapseBtn": {
      "title": "Ocultar conteúdo"
    },
    "loading": {
      "title": "Por favor, aguarde!",
      "message": "Carregando ..."
    },
    "okcancel": {
      "title": "Pergunta",
      "okButton": "Está Bem",
      "cancelButton": "Cancelar"
    }
  }
}