{
  "bundleName": "Ġestjoni App",
  "bundleDescription": "Tiġbor elementi UI għall-ġestjoni app",
  "commonDelete": {
    "saveQuery": "Do you verament tixtieq li tħassar \"{number}\" oġġett (i)?",
    "error": "Tħassir ta 'oġġetti \"{items}\" naqset!",
    "partialSuccess": "Xi punti ma setgħux jiġu mħassra!",
    "errorFinish": "L-ebda element ġie mħassar!",
    "success": "Punti b'suċċess imħassra!"
  },
  "templatesTool": {
    "title": "App templates",
    "desc": "Lista ta 'app templates"
  },
  "removeSelectedTemplatesTool": {
    "title": "Ħassar",
    "desc": "Ħassar sottomissjoni (i) app"
  },
  "createTemplateTool": {
    "title": "Oħloq",
    "desc": "Oħloq sottomissjoni app"
  },
  "dataViewCommon": {
    "filter": {
      "menuDefaultLabel": "Kollha",
      "textBoxPlaceHolder": ""
    },
    "pager": {
      "backButtonTooltip": "Page preċedenti",
      "forwardButtonTooltip": "Paġna li jmiss",
      "firstButtonTooltip": "L-ewwel paġna",
      "lastButtonTooltip": "Aħħar paġna",
      "pageLabeltext": "Paġna:",
      "pageSizeLabelText": "Riżultati ${pageStartItemNumber}-${pageEndItemNumber} ta '${itemCount}",
      "pageLabelText": "Paġna:"
    }
  },
  "templatesView": {
    "noDataMessage": "Nru App Templates disponibbli ...",
    "title": "Titolu",
    "desc": "Deskrizzjoni",
    "filename": "File",
    "modifiedBy": "Modifikat Billi",
    "modifiedAt": "Modifikat Fuq"
  },
  "templatesDetailsView": {
    "windowTitle": "App sottomissjoni \"{title}\"",
    "createWindowTitle": "Sottomissjoni ġodda app",
    "title": "Titolu:",
    "description": "Deskrizzjoni:",
    "createdAt": "Maħluqa fuq:",
    "createdBy": "Maħluqa minn:",
    "modifiedAt": "Modifikat fuq:",
    "modifiedBy": "Immodifikat permezz:",
    "id": "ID:",
    "fileName": "fajl:",
    "upload": "Upload",
    "uploaded": "100% - template huwa ottimizzati",
    "updateError": "Template \"{id}\" ma setgħux jiġu salvati! {error}",
    "updateSuccess": "Template \"{id} \" b'suċċess salvati!",
    "uploadStart": "Tella beda!",
    "uploadError": "Tella 'żball:",
    "uploadFinished": "Tella titlesta!",
    "createTemplateInfo": "Daħħal l-isem ta 'Template tiegħek App ġdida. Wara l-template ġdida inħoloq b'suċċess, inti tista 'upload data lilha.",
    "panelDefaultTitle": "<b>Informazzjoni Ġenerali</b>",
    "panelFileTitle": "<b>Templates fajl</b>",
    "syncInfo": "<strong>Nota:</strong> L-applikazzjonijiet kollha li huma bbażati fuq dan il-mudell u jkollhom \"-sinkronizzazzjoni Auto hija ppermettiet, jkun sinkronizzat matul il-proċess ta 'aġġornament!"
  },
  "appsTool": {
    "title": "Apps",
    "desc": "Lista ta 'Apps"
  },
  "removeSelectedAppsTool": {
    "title": "Ħassar",
    "desc": "Ħassar App(i)"
  },
  "createAppTool": {
    "title": "Oħloq App Ġdida",
    "desc": "Oħloq App"
  },
  "appsView": {
    "noDataMessage": "Ebda apps disponibbli ...",
    "id": "App ID",
    "title": "Titolu",
    "desc": "Deskrizzjoni",
    "filename": "File",
    "modifiedBy": "Modifikat Billi",
    "modifiedAt": "Modifikat Fuq",
    "editorState": "Status",
    "appTemplateFilterSelect": {
      "placeHolder": "Iffiltra minn template app",
      "tooltip": "Uri biss apps bbażati fuq mudell app speċifiku."
    }
  },
  "appColumnExtender": {
    "launchApp": "Tnedija",
    "launchAppTooltip": "Tnedija App"
  },
  "appDetailsView": {
    "windowTitle": "App \"{title}\"",
    "createWindowTitle": "Oħloq App Ġdida",
    "title": "Titolu:",
    "description": "Deskrizzjoni:",
    "createdAt": "Maħluqa fuq:",
    "createdBy": "Maħluqa minn:",
    "modifiedAt": "Modifikat fuq:",
    "modifiedBy": "Immodifikat permezz:",
    "id": "App ID:",
    "templateId": "Template App:",
    "templateModifiedAt": "Template App modifikata fuq:",
    "fileName": "fajl:",
    "editorState": "Status",
    "syncAuto": {
      "title": "Sinkronizzazzjoni awtomatika:",
      "tooltip": "Jippermetti sinkronizzazzjoni awtomatika ta 'dan app. Fuq kull aġġornament tal-mudell app sottostanti, dan app se jkun sinkronizzat mal-mod sinkronizzazzjoni konfigurati awtomatikament."
    },
    "syncMode": {
      "title": "Mod Sinkronizzazzjoni:",
      "tooltip": "<ul><li> <b>Ibdel:</b> F'din il-modalità l-app se jiġu sostitwiti kompletament mill-template app. Settings kollha ta 'din app kif ukoll il-fajls editjat jew miżjud se tintilef. </li><li> <b>Jingħaqdu:</b> F'din il-modalità bidliet kollha ta 'dan app se jingħaqdu mal-settings ta' l-template app. Permezz ta 'default bidliet kollha tal-fajl fil-app huma mitlufa bl-eċċezzjoni ta' fajls miżjud u l-fajl app.json. Bidliet template għall-fajls app.json huma applikati fuq bażi per-komponent tal-livell proprjetà. Jekk jogħġbok ikkonsulta <i>l-Dokumentazzjoni Developer</i> għal dettalji u l-għażliet. <br/> <b>Wara sinkronizzazzjoni suċċess inti għandha tirrevedi l-bidliet fil-app.</b> </li></ul>"
    },
    "syncedAt": "Sinkronizzat fuq:",
    "editorStateValues": {
      "DRAFT": "Abbozz",
      "EDITED": "Editjat",
      "VERIFIED": "Ivverifikat",
      "PUBLISHED": "Ippubblikat",
      "DEPRECATED": "Deprecated"
    },
    "syncModeValues": {
      "REPLACE": "Ibdel",
      "MERGE": "Jingħaqdu"
    },
    "enabled": "Online:",
    "updateError": "App \"{id}\" ma setgħux jiġu salvati! {error}",
    "updateSuccess": "App \"{id}\" b'suċċess salvati!",
    "updateStarted": "Iffrankar ta 'App \"{id}\" beda ...",
    "invalidJSONError": "Il JSON huwa invalidu: {żball}",
    "editJsonInfo": "Tista jeditjaw fajls kollha tal-app manwalment f'dan dialog. <br/> <strong>TWISSIJA:</strong> Inti tista 'tagħmel bidliet li jistgħu jipprevjenu l-istartjar suċċess ta' l-app.",
    "choseFileLabel": "Agħżel fajl:",
    "createAppInfo": {
      "id": "Jekk jogħġbok ikteb ID (mingħajr spazji) għall app ġdida tiegħek. <br/> Dan ID għandu jkun uniku. Huwa użat fil-URL li l-punti li app tiegħek.",
      "template": "Jekk jogħġbok jagħżlu Template App. Settings kollha konfigurazzjoni inizjali huma Magħżul minn din it-template. Tista 'wkoll jagħżel li ittella app direttament.",
      "title": "Jekk joghgbok ikteb titolu u deskrizzjoni għall-app tiegħek.",
      "templateId": "Template App:",
      "emptyTemplate": "Tella app direttament:",
      "uploadInfo": "Jekk jogħġbok ittella 'l-app.",
      "upload": "Upload App",
      "uploaded": "100% - App huwa ottimizzati",
      "uploadStart": "Tella beda!",
      "uploadError": "Tella 'żball:",
      "uploadFinished": "Tella titlesta!"
    },
    "panelDefaultTitle": "<strong>Informazzjoni Ġenerali</strong>",
    "panelEditorTitle": "<strong>Jeditjaw informazzjoni</strong>",
    "panelTemplateTitle": "<strong>App Template Informazzjoni</strong>",
    "panelConfigureTitle": "<strong>Azzjonijiet Konfigurazzjoni</strong>",
    "panelShareTitle": "<strong>Share mal-:</strong>",
    "panelThumbnailTitle": "<strong>Minjatura għal apps Ħarsa ġenerali</strong>",
    "thumbnailUploadTitle": "Ittella Minjatura",
    "thumbnailUploadedTitle": "100%",
    "configurePreviewBtn": "Jgħixu konfigurazzjoni",
    "configureFilesBtn": "Konfigurazzjoni Manwal",
    "configureOptimizeBtn": "Itejb app",
    "configureExportBtn": "Esportazzjoni App",
    "configureSynchronizeBtn": "Synchronize issa",
    "shareWithAnyone": "<strong>Kulhadd</strong>",
    "command": {
      "Add": "Toħloq fajl",
      "Replace": "Ibdel kontenut tal-fajl",
      "Save": "Biex jiffrankaw fajl",
      "Delete": "Ħassar fajl",
      "Preview": "Applikazzjoni preview ta"
    },
    "deleteWarning": "Do you verament tixtieq li tħassar dan il-fajl?",
    "addFileTitle": "Daħħal l-isem fajl",
    "fileExistsError": "Il-fajl {fajl} diġà teżisti!",
    "invalidError": "Il-fajl huwa invalidu!",
    "templateInfo": {
      "requested": "Informazzjoni Mudell bħalissa huwa mitlub ...",
      "deleted": "Il-mudell ma teżistix jibqgħalu!",
      "directuploaded": "Il-mudell ttellgħet direttament matul il-proċess ta 'ħolqien app!",
      "isNewerAsApp": "<strong>Il-mudell app ġie mmodifikat mill-aħħar sinkronizzazzjoni.</strong>"
    },
    "fileUpload": {
      "windowTitle": "Ibdel kontenut tal-fajl",
      "warning": "Jekk jogħġbok innota li l-kontenut tal-fajl eżistenti ser tiġi sostitwita mingħajr verifika!",
      "upload": "Fajl upload",
      "uploaded": "100%"
    }
  },
  "optimizeError": "Ottimizzazzjoni naqset! Error: {żball}",
  "optimizeSuccess": "Ottimizzazzjoni lest b'suċċess!",
  "optimizeInfo": "L-ottimizzazzjoni jistgħu jieħdu xi żmien biex jitlesta. Inti żgur li int tixtieq li tibda l-proċess issa?",
  "optimizeRunningInfo": "Ottimizzazzjoni running ...",
  "synchronizeError": "Sinkronizzazzjoni naqset! Error: {żball}",
  "synchronizeSuccess": "Sinkronizzazzjoni temmew b'suċċess!",
  "synchronizeInfo": "Il-proċess sinkronizzazzjoni jista 'jieħu ftit taż-żmien. <br/> <strong>Kwalunkwe tibdil unsaved se tintilef!</strong> <br/> Inti żgur li int tixtieq li tibda issa?",
  "synchronizeRunningInfo": "Sinkronizzazzjoni running ..."
}