{
  "bundleName": "Bookmark Konfigurazzjoni Wizard Bundle",
  "bundleDescription": "Konfigurācija vednis saišķis grāmatzīmju widget",
  "menu": {
    "title": "Bookmarks spazjali"
  },
  "widget": {
    "description": "Konfigurazzjoni tal bookmarks",
    "editable": "Ħalli bookmarks dwana",
    "localStorageKey": "Isem tal-Ħażna Lokali",
    "predefinedBookmarks": "Bookmarks predefiniti",
    "predefinedBookmarksHint": "Huwa possibbli li prefine lista ta 'bookmarks. Dawn bookmarks se jkunu disponibbli għall-utenti kollha fil-kontumaċja. Mexxi l-mappa għall-estent mixtieqa u isalvawh."
  }
}