{
  "bundleName": "Geonames - Konfigurazzjoni",
  "bundleDescription": "Il-mazz konfigurazzjoni tal-gozz geonames.",
  "menu": {
    "geonames": {
      "title": "Geonames",
      "description": "Agħżel maħżen Geonames"
    },
    "wikipedia": {
      "title": "Wikipedija"
    },
    "poi": {
      "title": "Punti ta 'Interess"
    },
    "postalcodes": {
      "title": "Postcodes"
    }
  },
  "common": {
    "enabled": "Fittex suġġett attiva",
    "enabledTooltip": "Jippermetti l-tema tat-tiftix biex tużah fit-tfittxija Omni.",
    "defaultLabel": "Placeholder",
    "defaultLabelTooltip": "Jiddefinixxi t-test default tal-qasam input optimization (valur huwa fakultattiv).",
    "pageSize": "Riżultati Massimi",
    "pageSizeTooltip": "Numru massimu ta 'hits fil-riżultati (medda: 0-100; 0 hija illimitata).",
    "typingdelay": "Dewmien [ms]",
    "typingdelayTooltip": "Pause bejn presses ewlenin qabel ma ressqet il-mistoqsija (medda 0-1000 millisekondi)",
    "languageAware": "Riżultati konxji Lingwa",
    "languageAwareTooltip": "Il-lingwa użata fil map.apps se jintużaw sabiex tkun irkuprata riżultati lokalizzati.",
    "url": "URL tas-servizz",
    "urlTooltip": "URL tal-endpoint SERĦAN servizz ta 'tfittxija.",
    "username": "Geonames isem l-utent",
    "usernameTooltip": "Isem tal-kont geonames personali."
  },
  "wikipediaWidget": {
    "description": "Konfigurazzjoni is-suġġett tfittxija Wikipedija."
  },
  "poiWidget": {
    "description": "Konfigurazzjoni għall-Punti ta 'maħżen tfittxija Interess."
  },
  "postalcodesWidget": {
    "description": "Konfigurazzjoni tas-suġġett tfittxija kodiċi postali.",
    "countries": "Filtru Pajjiż",
    "countriesTooltip": "Kodiċi tal-pajjiż biex jiffiltraw r-riżultati, per eżempju. \"DE\" (valur huwa fakultattiv)."
  },
  "stores": {
    "postalcodes": {
      "placeHolder": "Ikteb il-kodiċi postali jew isem tal-post ..."
    },
    "wikipedia": {
      "placeHolder": "Ikteb terminu tfittxija ..."
    },
    "poi": {
      "placeHolder": "Punt ta 'Interess ..."
    }
  }
}