{
  "bundleName": "Konfigurazzjoni Stampar",
  "bundleDescription": "Dan sorra configures l-funzjonalità ta 'stampar.",
  "menu": {
    "title": "Stampa"
  },
  "widget": {
    "description": "Konfigurazzjoni għall-għodda istampar.",
    "printservletURL": {
      "title": "Stampa Servlet URL",
      "tooltip": "URL għall-Servlet print"
    },
    "downloadResponseWithoutShowing": {
      "title": "Tniżżil dirett mingħajr ma juri",
      "tooltip": "Ir-riżultat ta 'stampar iġġenerat jista' jintwera fil-tieqa, jew tista 'titniżżel direttament"
    },
    "format": {
      "title": "Format",
      "tooltip": "Il-format tar-riżultat print iġġenerat"
    },
    "title": {
      "title": "Titolu",
      "tooltip": "A titolu għar-riżultat istampar"
    }
  }
}