{
  "bundleName": "temi-konfigurazzjoni",
  "bundleDescription": "Bundle Konfigurazzjoni għall-gozz template.",
  "menu": {
    "title": "Templates Layout"
  },
  "widget": {
    "description": "Agħżel template tqassim app. It-tqassim jiddetermina l-istruttura tal-app u l-pożizzjoni tal-elementi UI. Dan se jkun il-format li jintuża mill-app b'kontumaċja.",
    "selectedTemplate": {
      "title": "Magħżula template Layout:",
      "tooltip": "Għażla ta 'tqassim templates tal-app."
    }
  }
}