{
  "bundleName": "Webmap-Config",
  "bundleDescription": "Dan sorra jipprovdi l-komponenti konfigurazzjoni għall-gozz Webmaps.",
  "menu": {
    "title": "ArcGIS Online Webmaps"
  },
  "widget": {
    "description": "Konfigurazzjoni ArcGIS Online Webmap",
    "webmaps": {
      "title": "Webmaps",
      "tooltip": "Lista ta 'webmaps virgola-mifruda."
    },
    "webmapsEnabled": {
      "title": "Webmaps ppermettiet",
      "tooltip": "Lista ta 'webmaps-subscripts li għandhom jiġu attivati ​​comma-mifruda. 0 stands għall-ewwel Webmap, 1 għat-tieni, eċċ"
    },
    "baseWebMapAsCategory": {
      "title": "Tqassar-Saff Webmap bażiku (1 Webmap) f'kategorija",
      "tooltip": "Jekk is-saff operazzjonali tal-Webmap bażi jinġabar f'Att fi ħdan kategorija / tema? Jekk l-ebda kaxxa hija kontrollata, kategorija separata (eż Fluss Qoxra fil-mappa) huwa ġġenerat għal kull saff."
    },
    "onlyAsOperationalLayer": {
      "title": "Webmaps huma biss temi addizzjonali",
      "tooltip": "Jekk webmaps tkun biss kategoriji addional / temi? Jekk din il-proprjetà ma tiġix iċċekkjata, l-ewwel webmap se jissostitwixxi l-kontenut mappa (inklużi basemaps u estent inizjali)."
    }
  }
}