{
  "bundleName": "App Pregled",
  "bundleDescription": "Prikaže se pogovorno okno, ki navaja vse razpoložljive aplikacije za.",
  "dataViewCommon": {
    "noDataMessage": "Ni aplikacije na voljo.",
    "filter": {
      "menuDefaultLabel": "Vsi",
      "textBoxPlaceHolder": ""
    },
    "pager": {
      "backButtonTooltip": "Prejšnja stran",
      "forwardButtonTooltip": "Naslednja stran",
      "firstButtonTooltip": "Prva stran",
      "lastButtonTooltip": "Zadnja stran",
      "pageLabeltext": "Stran:",
      "pageSizeLabelText": "Rezultati ${pageStartItemNumber}-${pageEndItemNumber} od ${itemCount}",
      "pageLabelText": "Stran:"
    }
  },
  "appsTool": {
    "title": "Aplikacije",
    "desc": "Seznam Apps"
  },
  "appsView": {
    "id": "Name",
    "title": "Naslov",
    "desc": "Opis",
    "filename": "Datoteka",
    "modifiedBy": "Spremenjen z",
    "modifiedAt": "Spremenjeni Na"
  }
}