{
  "bundleName": "Usklajujejo finder",
  "bundleDescription": "To orodje omogoča uporabniku, da najde lokacije z vnosom geografskih koordinat.",
  "ui": {
    "invalidMessage": "Neveljaven koordinatni zapis!",
    "invalidDegreeCoordinates": "Neveljaven koordinatni zapis! <br /> <b>Vrstni red:</b> <br /> Zemljepisna širina <br /> <b>Format Primeri:</b> <br /> 7.628694 51.962944 <br /> 7 ° 38'1 \"51 ° 58'1\"",
    "invalidMetricCoordinates": "Neveljaven koordinatni zapis! <br /> <b>Vrstni red:</b> <br /> Easting Northing <br /> <b>Primer Format:</b> <br /> 848860 6793187",
    "submitBtnTxt": "Ok",
    "toolTitle": "Najdi koordinate"
  }
}