{
  "bundleName": "Lastna Content Configuration Wizard Bundle",
  "bundleDescription": "Config Wizard Bundle po meri info widget",
  "menu": {
    "title": "Moje vsebine"
  },
  "widget": {
    "window": {
      "title": "Name",
      "saveDeleteQuery": "Ali res želite \"{number}\" izbrisati vnose?",
      "editCustomInfoDefinitionTitle": "Uredi vsebino",
      "newCustomInfoDefinitionTitle": "Ustvari novo vsebino"
    },
    "wizard": {
      "types": {
        "copyright": {
          "title": "Avtorske pravice",
          "tooltip": "Prikaži informacije o avtorskih pravicah"
        },
        "disclaimer": {
          "title": "Pogoji",
          "tooltip": "Prikaži disclaimer"
        },
        "imprint": {
          "title": "Imprint",
          "tooltip": "Prikaži odtis"
        },
        "info": {
          "title": "Informacije",
          "tooltip": "Prikaži podatke"
        },
        "help": {
          "title": "Pomaga",
          "tooltip": "Pokaži Pomoč"
        },
        "legend": {
          "title": "Legend",
          "tooltip": "Prikaži legendo"
        },
        "link": {
          "title": "Link",
          "tooltip": "Prikaži povezava"
        },
        "custom": {
          "title": "Po meri"
        }
      },
      "generalPane": {
        "paneTitle": "Nastavitve za orodje",
        "type": "Tip",
        "typeTooltip": "Izberite vrsto za vnaprej določeno info",
        "title": "Naslov",
        "titleTooltip": "Določite naslov za orodje",
        "tooltip": "Tooltip",
        "tooltipTooltip": "Določite besedilo tooltip",
        "toolClass": "Orodja CSS razred",
        "toolClassTooltip": "Izberite izbirni razred CSS za ikono gumba za orodje"
      },
      "windowPane": {
        "paneTitle": "Določite možnosti oken",
        "title": "Naslov",
        "titleTooltip": "Izberite naslov za okna",
        "windowWidth": "Širina",
        "windowWidthTooltip": "Širina okna",
        "windowHeight": "Višina",
        "windowHeightTooltip": "Višina okna",
        "position": "Položaj",
        "positionTooltip": "Izbira položaj okna",
        "center": "centralno",
        "left": "levo",
        "right": "Pravica",
        "top": "top",
        "bottom": "dno",
        "modal": "Modal",
        "modalTooltip": "Izberite, ali je okno modalno",
        "draggable": "Premično",
        "draggableTooltip": "Izberite, ali je okno, premični",
        "resizable": "Raztegljivo",
        "resizableTooltip": "Izberite omogoča spreminjanje velikosti okna",
        "closable": "Zapirljiv",
        "closableTooltip": "Izberite, ali je okno lahko zaprto",
        "maximizable": "Čim večje",
        "maximizableTooltip": "Izberite, ali je okno maksimirati"
      },
      "contentPane": {
        "paneTitle": "Izberite, ali želite brezplačno vsebino ali povezavo za prikaz",
        "content": "Poljubna vsebina",
        "link": "Link",
        "linkWidget": {
          "url": "URL",
          "urlTooltip": "Vnesite URL",
          "newTab": "Odpri v novem zavihku / oknu",
          "newTabTooltip": "Izberite, ali želite, da se povezava odpre v novem zavihku / oknu"
        }
      }
    },
    "grid": {
      "removeCustomInfoTool": "Odstrani svojo vsebino",
      "addCustomInfoTool": "Dodaj novo vsebino",
      "title": "Naslov",
      "dataView": {
        "DGRID": {
          "noDataMessage": "Ne lastne vsebine našli."
        },
        "pager": {
          "pageSizeLabelText": "Vsebina ${pageStartItemNumber} - ${pageEndItemNumber} za ${itemCount}"
        }
      }
    }
  }
}