{
  "bundleName": "Sledite mi",
  "bundleDescription": "Funkcija Follow Me zagotavlja močno orodje za delo z map.apps. Uporabniki lahko delijo svoje karte z drugimi ali pridružitev obstoječo predstavitev sejo.",
  "tool": {
    "title": "Sledite mi",
    "tooltip": "Sledite mi"
  },
  "ui": {
    "createSessionTitle": "Ustvari sejo",
    "joinSessionTitle": "Pridružite se seje",
    "createSessionHint": "Prosimo vnesite vaše ime in nato kliknite na \"Začni sejo\".",
    "inviteSessionHint": "Povabi gosta, da se udeležijo sejo z zagotavljanjem session-ID:",
    "joinSessionHint": "Da se udeležijo seje, vnesite vaše ime in session ID in kliknite 'Pridružite sejo \".",
    "name": "Vaše ime",
    "sessionId": "Sejo ID",
    "startSession": "Začni sejo",
    "stopSession": "Stop zasedanje",
    "joinSession": "Pridružite se seje",
    "leaveSession": "Zapusti sejo",
    "inviteSession": "Pošlji povabilo",
    "organizer": "Organizator",
    "presenter": "Presenter",
    "owner": "Me",
    "user": "Uporabnik",
    "session": "Session",
    "markLocation": "Skupna raba lokacije",
    "markLocationTooltip": "Delite lokacijo v Follow Me",
    "pleaseWaitForConnection": "Prosimo, počakajte, ki povezuje ...",
    "userList": {
      "attendees": "Udeleženci",
      "numberOfAttendeesSingular": "1 udeleženec je na spletu:",
      "numberOfAttendeesPlural": "${numberOfAttendees} Udeleženci so na spletu:"
    },
    "sessionInfo": {
      "sessionActive": "${id}",
      "sessionCreatedAt": "Ustvarjeno na ${timestamp}"
    },
    "invitation": {
      "subject": "Povabljeni ste bili na Follow Me seji",
      "body": "Če se želite pridružiti sejo prosimo uporabite URL ${url} in session ID ${id}"
    },
    "notifications": {
      "newUser": {
        "shrt": "${type} ${user} pridružil",
        "lng": "${type} ${user} pridružil Sledite mi sejo."
      },
      "userLeft": {
        "shrt": "${user} je zapustil sejo",
        "lng": "${user} je zapustil sejo Follow Me."
      },
      "sessionClosed": {
        "shrt": "Seja se je zaključila",
        "lng": "Follow Me seja se je zaključila s strani organizatorja."
      },
      "parserError": {
        "shrt": "Napaka pri razčlenjevanju odgovor strežnika"
      },
      "serverError": {
        "shrt": "Napaka na strežniku je prišlo do napake"
      },
      "topicNotExistent": {
        "shrt": "ID seja ne obstaja"
      },
      "newMarker": {
        "shrt": "${user} delijo novo lokacijo"
      },
      "unkownError": {
        "shrt": "Neznane napake"
      }
    }
  }
}