{
  "bundleName": "Legend Konfiguracija",
  "bundleDescription": "Ta paket zagotavlja sestavne dele konfiguracije za legendo svežnju.",
  "menu": {
    "title": "Legend"
  },
  "widget": {
    "description": "Konfiguracija funkcije legende.",
    "alignmentLeft": {
      "title": "Uskladiti vsebino legende levo",
      "tooltip": "Če je onemogočeno, je vsebina legenda poravnana desno."
    },
    "respectCurrentMapScale": {
      "title": "Prikaz informacij legenda za vidne plasti le",
      "tooltip": "Če je omogočeno, bo legenda posodobiti z vsako zemljevid spremembo lestvice in prikaže le podatke o plasti, ki so vidni v trenutnem zemljevidu lestvici."
    },
    "showBaseLayer": {
      "title": "Prikaži legendo do bazne kartice",
      "tooltip": "Če je omogočeno, bo vnosi legenda se pokazale tudi bazne kartice."
    }
  }
}