{
  "bundleName": "Map Flow",
  "bundleDescription": "Zemljevid Flow se uporablja za preklop med plasti skupin, ki se osredotočajo na določene teme. To je pokrov temelji UI element, ki se nanaša na Apple Cover Flow.",
  "tool": {
    "title": "Zemljevid vsebina",
    "tooltip": "Zemljevid vsebina"
  },
  "ui": {
    "transparency": "Preglednost",
    "transparencyTooltip": "Spremeni preglednost",
    "zoomToTooltip": "Zoom v obsegu te kategorije",
    "showDetailsTooltip": "Prikaži podrobnosti informacije",
    "rotatorTooltip": "Nazaj na sprednji strani",
    "deleteTooltip": "Izbriši",
    "deleteQuestion": "Ali res želite izbrisati ta element?"
  }
}