{
  "bundleName": "Ravnanje parameter",
  "bundleDescription": "Parameter Manager je odgovoren, da prenese parametre iz URL-ja za po komponent za zagon.",
  "ui": {
    "encoderBtn": "Link orodje",
    "encoderBtnTooltip": "Link orodje",
    "sendMail": "E-mail",
    "refresh": "Osvežitev",
    "linkBoxTitle": "Link URL",
    "size": "Velikost (pike)",
    "codeBoxTitle": "Koda vlagati v HTML",
    "qrCode": "QRCode",
    "mailBody": "${url}",
    "mailSubject": "Poglej časih to kartico!",
    "options": {
      "small": "majhna (480 x 320)",
      "medium": "srednja (640 x 480)",
      "large": "velika (1280 x 1024)",
      "custom": "uporabniško definirane"
    }
  }
}