{
  "bundleName": "ArcGIS Server pentru imprimare",
  "bundleDescription": "Acest pachet oferă un instrument ArcGIS Server de imprimare.",
  "menu": {
    "title": "ArcGIS Server pentru imprimare"
  },
  "widget": {
    "description": "Configurarea pentru funcționalitatea de imprimare AGS.",
    "hint": "Această funcționalitate este disponibilă doar cu ArcGIS Server 10.1 sau superior versiune, care oferă un export Web Map de activități.",
    "url": {
      "title": "URL-ul pentru ArcGIS Server de imprimare de sarcini",
      "tooltip": "AGS URL pentru a imprima serviciu."
    },
    "directDownload": {
      "title": "Descărcare directă",
      "tooltip": "Descarcă rezultatul de imprimare direct în loc de a deschide într-o fereastră."
    }
  }
}