{
  "bundleName": "Marcaje expertul de configurare pachet",
  "bundleDescription": "Asistentul de configurare pachet de marcaje widget",
  "menu": {
    "title": "Marcaje spațiale"
  },
  "widget": {
    "description": "Configurarea marcaje",
    "editable": "Permiteți marcaje personalizate",
    "localStorageKey": "Numele de Stocare locală",
    "predefinedBookmarks": "Marcaje predefinite",
    "predefinedBookmarksHint": "Este posibil să prefine o listă de marcaje. Aceste marcaje vor fi disponibile pentru toți utilizatorii în mod implicit. Mutați harta în măsura dorită și salvați-l."
  }
}