{
  "bundleName": "GeoNames - Configurare",
  "bundleDescription": "Mănunchiul de configurare a mănunchiului GeoNames.",
  "menu": {
    "geonames": {
      "title": "GeoNames",
      "description": "Alege un magazin GeoNames"
    },
    "wikipedia": {
      "title": "Wikipedia"
    },
    "poi": {
      "title": "Puncte de Interes"
    },
    "postalcodes": {
      "title": "Codurile poștale"
    }
  },
  "common": {
    "enabled": "Căutare subiect activ",
    "enabledTooltip": "Permite subiectul căutare să-l folosească în căutarea Omni.",
    "defaultLabel": "Placeholder",
    "defaultLabelTooltip": "Definește textul implicit a campului de intrare de căutare (valoare nu este opțional).",
    "pageSize": "Rezultate maxime",
    "pageSizeTooltip": "Numărul maxim de puncte în rezultate (gama: 0-100; 0 este nelimitat).",
    "typingdelay": "Întârziere [ms]",
    "typingdelayTooltip": "Pauză între taste apăsate înainte interogarea se depune (interval 0-1000 milisecunde)",
    "languageAware": "Limba rezultate conștient",
    "languageAwareTooltip": "Limbajul folosit în map.apps va fi utilizat pentru a prelua rezultatele localizate.",
    "url": "URL serviciului",
    "urlTooltip": "URL-ul de final REST serviciu de căutare.",
    "username": "Numele de utilizator GeoNames",
    "usernameTooltip": "Numele de cont GeoNames personal."
  },
  "wikipediaWidget": {
    "description": "Configurarea căutare subiectul Wikipedia."
  },
  "poiWidget": {
    "description": "Configurarea pentru punctele de magazin căutare turistice."
  },
  "postalcodesWidget": {
    "description": "Configurarea Poștal Căutare cod subiect.",
    "countries": "Filtru de Țară",
    "countriesTooltip": "Codul de țară pentru a filtra rezultatele, de exemplu. \"DE\" (valoare nu este opțional)."
  },
  "stores": {
    "postalcodes": {
      "placeHolder": "Introduceți codul poștal sau numele loc ..."
    },
    "wikipedia": {
      "placeHolder": "Introduceți un termen de căutare ..."
    },
    "poi": {
      "placeHolder": "Punct de interes ..."
    }
  }
}