{
  "bundleName": "Instrument de măsurat de configurare",
  "bundleDescription": "Pachet de configurare pentru pachetul instrument de măsurare.",
  "menu": {
    "title": "Instrumente de masura"
  },
  "widget": {
    "description": "Configurarea instrumentelor de măsurare.",
    "finishWithButton": {
      "title": "Opriți de măsurare prin click pe butonul",
      "tooltip": "Dacă este activată, este afișat un buton pentru finisarea desen. În caz contrar, dublu clic inainteaza desen."
    },
    "showTools": {
      "area": "Instrument de măsurare Afișare zonă",
      "distance": "Afișare instrument de măsurare a distanței",
      "location": "Afișare instrument de măsurare locație"
    },
    "defaultTool": {
      "title": "Implicit instrument activat",
      "none": "Nici unul",
      "area": "Zonă",
      "distance": "Distanță",
      "location": "Poziție"
    },
    "defaultAreaUnit": {
      "title": "Unitate de suprafață Implicit",
      "ACRES": "Acres",
      "SQUARE_MILES": "Pătrat mile",
      "SQUARE_KILOMETERS": "Piața de kilometri",
      "HECTARES": "Hectare",
      "SQUARE_YARDS": "Piața curte",
      "SQUARE_FEET": "Pătrat picioare",
      "SQUARE_METERS": "Metru pătrat"
    },
    "defaultLengthUnit": {
      "title": "Unitatea de lungime implicită",
      "MILES": "Miles",
      "KILOMETERS": "Kilometru",
      "FEET": "Picior",
      "METERS": "Metru",
      "YARDS": "Curte",
      "NAUTICAL_MILES": "Mile marine"
    },
    "defaultLocationUnit": {
      "title": "Coordonate unitare standard",
      "DECIMAL_DEGREES": "Gradul",
      "DEGREE_MINUTE_SECONDS": "DMS"
    }
  }
}