{
  "bundleName": "Hartă generală Configurație",
  "bundleDescription": "Pachetul de configurare pentru harta generală.",
  "menu": {
    "title": "Prezentare generală hartă"
  },
  "widget": {
    "description": "Vă rugăm să alegeți un serviciu de pe harta de ansamblu. Ați putea defini, de asemenea, un strat dacă mai mult de unul este disponibil.",
    "hint": "Servicii noi pot fi adăugate în meniul \"Servicii de Management\".",
    "service": "Serviciu Hartă",
    "layers": "Strat",
    "transparency": "Transparența dreptunghiului",
    "color": "Culoarea dreptunghiului",
    "allLayers": "Disponibile toate",
    "expandFactor": "Extinderea / factor de zoom",
    "errorMessage": "Vă rugăm să selectați cel puțin un strat!"
  }
}