{
  "bundleName": "Rutare de configurare",
  "bundleDescription": "Pachet de configurare pentru pachetul de rutare",
  "menu": {
    "title": "Rutare"
  },
  "routing": {
    "menuTitle": "Rutare widget",
    "description": "Configurarea pentru mănunchiul de rutare.",
    "configSections": {
      "basic": "Configurația de bază",
      "stops": "Oprește configurație",
      "traffic": "Configurație de trafic"
    },
    "routeTaskUrl": {
      "title": "URL-ul la sarcina traseu",
      "tooltip": "Precizați serviciul care va fi folosit pentru a calcula directii. Direcții widget utilizează analiza Mondială de rețea ca serviciul implicit folosit pentru a calcula direcții de conducere. Acesta este un serviciu pe bază de abonament disponibil prin intermediul ArcGIS Online. Dacă aveți un serviciu de Analiza rețelei ArcGIS Server pe care doriți să utilizați pentru a calcula traseu specifica URL-ul pentru acest serviciu."
    },
    "directionsLengthUnits": {
      "title": "Unități Lungime",
      "tooltip": "Unități lungime. Implicit este de kilometri.",
      "units": {
        "esriMillimeters": "mm",
        "esriCentimeters": "cm",
        "esriDecimeters": "dm",
        "esriMeters": "m",
        "esriKilometers": "km",
        "esriFeet": "ft",
        "esriInches": "în",
        "esriMiles": "mi",
        "esriNauticalMiles": "nm",
        "esriUnknownUnits": "necunoscut"
      }
    },
    "dragging": {
      "title": "Permite tragerea de Opriri",
      "tooltip": "Activați tergiversarea de locuri de oprire pe hartă. Când se oprește adevărate pot fi trase la o locație nouă și ruta va fi recalculată. Valoarea implicită este adevărat."
    },
    "showPrintPage": {
      "title": "Afișați butonul traseu imprimare",
      "tooltip": "Selectați pentru a imprima pe ecran butonul instrucțiuni de rutare."
    },
    "showMilesKilometersOption": {
      "title": "Vedeți km kilometri de comutare",
      "tooltip": "Când este bifat, grupul buton de comutare care permite utilizatorului să aleagă între Miles și în kilometri este prezentat"
    },
    "showTravelModesOption": {
      "title": "Afișare \"navigație de selectare a modului de a",
      "tooltip": "Când este selectat, este afișat grupul buton de comutare care permite utilizatorului să aleagă moduri de călătorie"
    },
    "showClearButton": {
      "title": "Arată \"reseta rutare\" buton",
      "tooltip": "Selectați pentru a afișa butonul de reset de rutare."
    },
    "canModifyStops": {
      "title": "Permite adăugarea de opriri",
      "tooltip": "Afișează butonul \"Adăugați destinație\". Acest buton permite utilizatorilor să adauge stații suplimentare."
    },
    "minStops": {
      "title": "Opriri minime",
      "tooltip": "Numărul minim de opriri."
    },
    "maxStops": {
      "title": "Opriri maxime",
      "tooltip": "Numărul maxim de opriri."
    },
    "returnToStart": {
      "title": "Înapoi pentru a începe",
      "tooltip": "Când adevărat, traseul va reveni pentru a începe punct."
    },
    "showReturnToStartOption": {
      "title": "Arată întoarcere pentru a începe opțiune",
      "tooltip": "Când adevărat, este afișat întoarcere pentru a începe opțiune."
    },
    "traffic": {
      "title": "Utilizați datele de trafic",
      "tooltip": "În cazul în care datele de trafic în timp real sunt utilizate la calcularea rutei?"
    },
    "showTrafficOption": {
      "title": "Opțiune Afișare trafic",
      "tooltip": "Afișează datele de trafic pentru a folosi opțiunea."
    }
  },
  "template": {
    "description": "Configurarea pentru șablonul de rutare imprimare.",
    "menuTitle": "șablon de imprimare de rutare",
    "titleText": {
      "title": "Titlul textului",
      "tooltip": "Setați un titlu care apare pe partea de sus a imprimării rutare.",
      "defaultText": "Traseu meu"
    },
    "logoImageUrl": {
      "title": "Adresa URL a imaginii",
      "tooltip": "Adresa URL a imaginii pentru un logo pe pagina imprimată rută."
    },
    "customStyleSheet": {
      "title": "URL-ul pentru propria foaie de stil",
      "tooltip": "URL-ul pentru o foaie de stil personalizat, care se aplică la imprimarea de rutare."
    },
    "showMap": {
      "title": "Arata Harta",
      "tooltip": "Un hartă suplimentar cu traseul calculat este adăugat la imprimarea."
    },
    "showSummary": {
      "title": "Afiseaza un rezumat de rutare",
      "tooltip": "Rezumatul va arăta distanța și timpul de ruta calculată."
    },
    "showNotes": {
      "title": "Note Afișare de utilizare",
      "tooltip": "Permite utilizatorului să adauge note la rutare imprimare."
    },
    "footerText": {
      "title": "Subsol",
      "tooltip": "Adăugați text personalizat pentru a afișa în partea de jos a paginii de rutare imprimare.",
      "defaultText": "Direcții sunt oferite numai în scopuri de planificare și sunt supuse <a href='http://www.esri.com/legal/software-license' target='_blank'>termenilor Esri de utilizare ale lui</a> . Conditiile de drum dinamice pot exista ca motiv precizie să difere de la traseu si trebuie luate în considerare, împreună cu semne și restricții legale. Vă asumați toate riscurile de utilizare."
    }
  }
}