{
  "bundleName": "Street View",
  "bundleDescription": "Un utilizator poate selecta o locație pe hartă și vedea Google Street View imagini pentru locația respectivă într-o fereastră separată.",
  "ui": {
    "tools": {
      "streetViewToggleTool": {
        "title": "Street View",
        "tooltip": "Street View (-context sensibil la intervalul de 1 scara: 2.000.000 la 1: 2.000)"
      },
      "streetViewCenterOnMarkerTool": {
        "title": "Salt la marcator",
        "tooltip": "Salt la marcator"
      }
    },
    "noStreetViewData": "Nu Street View date disponibile la această locație."
  }
}