{
  "bundleName": "Vedere",
  "bundleDescription": "--FUNCTIONALITATE CORE-- Vizualizări sunt utilizate de către Layout Template.",
  "templates": {
    "desktop": {
      "title": "Desktop",
      "desc": "Un aspect orientate spre desktop."
    },
    "modern": {
      "title": "Modern",
      "desc": "Un aspect elegant modernă."
    },
    "minimal": {
      "title": "Minim",
      "desc": "Un aspect minimalist"
    }
  },
  "ui": {
    "selectorLabelTitle": "Vedere"
  }
}