{
  "bundleName": "ArcGIS for Server Search",
  "bundleDescription": "De bundel biedt een manier om ArcGIS gebruiken voor Server-services laag als Web gegevensbron",
  "defaults": {
    "name": "Kenmerken",
    "description": "Blader plugin om objecten van een ArcGIS Server Layer",
    "placeHolder": "Elementnaam ..."
  }
}