{
  "bundleName": "Eigen Content Configuration Wizard Bundle",
  "bundleDescription": "Config wizard Bundel van douaneinfo widget",
  "menu": {
    "title": "Mijn inhoud"
  },
  "widget": {
    "window": {
      "title": "Naam",
      "saveDeleteQuery": "Wil je echt '{number}' items wilt verwijderen?",
      "editCustomInfoDefinitionTitle": "Inhoud bewerken",
      "newCustomInfoDefinitionTitle": "Maak een nieuwe inhoud"
    },
    "wizard": {
      "types": {
        "copyright": {
          "title": "Auteursrecht",
          "tooltip": "Toon informatie over auteursrechten"
        },
        "disclaimer": {
          "title": "Ontkenning",
          "tooltip": "Toon disclaimer"
        },
        "imprint": {
          "title": "Afdruk",
          "tooltip": "Toon imprint"
        },
        "info": {
          "title": "Info",
          "tooltip": "Toon informatie"
        },
        "help": {
          "title": "Helpen",
          "tooltip": "Toon help"
        },
        "legend": {
          "title": "Legende",
          "tooltip": "Toon legende"
        },
        "link": {
          "title": "Link",
          "tooltip": "Toon koppeling"
        },
        "custom": {
          "title": "Gewoonte"
        }
      },
      "generalPane": {
        "paneTitle": "Hulpmiddel instellingen",
        "type": "Type",
        "typeTooltip": "Kies een type voor de vooraf gedefinieerde info",
        "title": "Titel",
        "titleTooltip": "Definieer een titel voor de functie",
        "tooltip": "Tooltip",
        "tooltipTooltip": "Definieer de tooltip tekst",
        "toolClass": "Gereedschappen CSS-klasse",
        "toolClassTooltip": "Kies een optionele CSS-klasse voor het gereedschapspictogram knop"
      },
      "windowPane": {
        "paneTitle": "Definieer opties venster",
        "title": "Titel",
        "titleTooltip": "Selecteer een titel voor het raam",
        "windowWidth": "Breedte",
        "windowWidthTooltip": "Breedte van het venster",
        "windowHeight": "Hoogte",
        "windowHeightTooltip": "Hoogte van het venster",
        "position": "Positie",
        "positionTooltip": "Selecteer de positie van het venster",
        "center": "centraal",
        "left": "links",
        "right": "rechts",
        "top": "top",
        "bottom": "bodem",
        "modal": "Modaal",
        "modalTooltip": "Selecteer of het venster is modale",
        "draggable": "Beweegbaar",
        "draggableTooltip": "Selecteer of het venster is verplaatsbaar",
        "resizable": "Aanpasbare",
        "resizableTooltip": "Kies ervoor om aanpassen van het venster staan",
        "closable": "Afsluitbare",
        "closableTooltip": "Selecteer of het venster kan worden gesloten",
        "maximizable": "Gemaximaliseerd",
        "maximizableTooltip": "Selecteer of het venster is gemaximaliseerd"
      },
      "contentPane": {
        "paneTitle": "Geef aan of u een gratis content of een link om te laten zien",
        "content": "Willekeurige Inhoud",
        "link": "Link",
        "linkWidget": {
          "url": "URL",
          "urlTooltip": "Voer een URL",
          "newTab": "Openen in nieuw tabblad / venster",
          "newTabTooltip": "Kiezen of u de link te openen in een nieuw tabblad / venster"
        }
      }
    },
    "grid": {
      "removeCustomInfoTool": "Verwijder uw eigen inhoud",
      "addCustomInfoTool": "Voeg nieuwe inhoud",
      "title": "Titel",
      "dataView": {
        "DGRID": {
          "noDataMessage": "Geen eigen inhoud gevonden."
        },
        "pager": {
          "pageSizeLabelText": "Content ${pageStartItemNumber} - ${pageEndItemNumber} van ${itemCount}"
        }
      }
    }
  }
}