{
  "bundleName": "Volg Mij",
  "bundleDescription": "De Follow Me-functie biedt een krachtige tool voor het werken met map.apps. Gebruikers kunnen hun kaart met anderen of te sluiten bij een bestaande presentatie sessie te delen.",
  "tool": {
    "title": "Volg Mij",
    "tooltip": "Volg Mij"
  },
  "ui": {
    "createSessionTitle": "Sessie",
    "joinSessionTitle": "Word lid van een sessie",
    "createSessionHint": "Voer uw naam in en klik vervolgens op 'Start sessie'.",
    "inviteSessionHint": "Nodig een gast om uw sessie bij te wonen door het verstrekken van de sessie-ID:",
    "joinSessionHint": "Bij te wonen van een sessie voert u uw naam en de sessie-ID in en klik op 'Join sessie'.",
    "name": "Jouw naam",
    "sessionId": "Sessie-ID",
    "startSession": "Start sessie",
    "stopSession": "Beëindigen sessie",
    "joinSession": "Word lid van een sessie",
    "leaveSession": "Verlaat sessie",
    "inviteSession": "Uitnodiging verzenden",
    "organizer": "Organisator",
    "presenter": "Presentator",
    "owner": "Mij",
    "user": "Gebruiker",
    "session": "Sessie",
    "markLocation": "Deel een locatie",
    "markLocationTooltip": "Deel een locatie in Follow Me",
    "pleaseWaitForConnection": "Even geduld, het aansluiten van ...",
    "userList": {
      "attendees": "Deelnemers",
      "numberOfAttendeesSingular": "1 genodigde online:",
      "numberOfAttendeesPlural": "${numberOfAttendees} aanwezigen zijn online:"
    },
    "sessionInfo": {
      "sessionActive": "${id}",
      "sessionCreatedAt": "Gemaakt op ${timestamp}"
    },
    "invitation": {
      "subject": "U bent uitgenodigd om een ​​Follow Me-sessie",
      "body": "Om de sessie te sluiten kunt u gebruik maken van de URL ${url} en de sessie-id ${id}"
    },
    "notifications": {
      "newUser": {
        "shrt": "${type} ${user} toegetreden",
        "lng": "${type} ${user} toegetreden tot de Follow Me-sessie:."
      },
      "userLeft": {
        "shrt": "${user} heeft de sessie links",
        "lng": "${user} heeft de Follow Me-sessie verliet."
      },
      "sessionClosed": {
        "shrt": "Werd afgesloten",
        "lng": "De Follow Me-sessie werd afgesloten door de organisator."
      },
      "parserError": {
        "shrt": "Fout tijdens het ontleden van een server response"
      },
      "serverError": {
        "shrt": "Er is een fout op de server opgetreden"
      },
      "topicNotExistent": {
        "shrt": "De sessie-ID niet bestaat"
      },
      "newMarker": {
        "shrt": "${user} een nieuwe locatie gedeeld"
      },
      "unkownError": {
        "shrt": "Er is een onbekende fout opgetreden"
      }
    }
  }
}