{
  "bundleName": "Locatie informatie",
  "bundleDescription": "Geeft informatie over een specifieke locatie.",
  "ui": {
    "tools": {
      "mainActivationTool": "Locatie informatie",
      "activationToolExtent": "Locatie-informatie (rechthoek selectie)"
    },
    "result": {
      "type": "Type",
      "adapter": "Dienst",
      "title": "Titel",
      "detailsUrl": "Link",
      "thumbnailUrl": "Miniatuur"
    },
    "content": {
      "image": {
        "title": "Afbeelding",
        "goToImageButton": "Ga naar de website voor deze afbeelding",
        "sendByMailButton": "E-mail deze afbeelding",
        "detailViewButtonLabel": "Details"
      },
      "wikipedia": {
        "title": "Wikipedia",
        "openLink": "Zie volledige artikel op Wikipedia"
      }
    },
    "noDataMessage": "We hebben niet gevonden voorwerpen."
  },
  "requestErrorMessage": "Er is een fout opgetreden. De dienst kan zijn momenteel niet beschikbaar."
}