{
  "bundleName": "Mobiele niveauregeling",
  "bundleDescription": "Deze bundel biedt een mobiele besturing klaar",
  "tool": {
    "title": "Kaart inhoud",
    "tooltip": "Schakel aan / uit Kaart inhoud"
  },
  "ui": {
    "basemaps": "Basiskaarten",
    "operationalLayers": "Onderwerpen niveaus",
    "switchUI": {
      "noTitle": "geen titel",
      "leftLabel": "Op",
      "rightLabel": "Af"
    }
  }
}