{
  "bundleName": "Omni-Search",
  "bundleDescription": "Deze bundel biedt een zoekinterface voor één of meer zoekopdracht onderwerpen.",
  "ui": {
    "tooltips": {
      "reset": "Verwijder resultaat",
      "magnifier": "Zoomen tot gevolg",
      "submit": "Submit-query",
      "settings": "Selecteer zoekonderwerp"
    },
    "settings": "Instellingen",
    "settingsWidget": {
      "title": "Beschikbaar zoekopdracht topics"
    },
    "error": "Fout tijdens het uitvoeren van zoeken!"
  },
  "tool": {
    "title": "Zoeken",
    "tooltip": "Hiermee opent u zoekvenster"
  }
}