{
  "bundleName": "Report Management",
  "bundleDescription": "Biedt interfaces voor het verslag van het beheer",
  "commonDelete": {
    "saveQuery": "Wil je echt wilt '{number}' product (en) wilt verwijderen?",
    "error": "Schrapping van de items '{items}' mislukt!",
    "partialSuccess": "Sommige items kunnen niet worden verwijderd!",
    "errorFinish": "Geen enkel items is verwijderd!",
    "success": "Het wissen met succes afgerond!"
  },
  "reportsTool": {
    "title": "Rapportsjablonen",
    "desc": "Lijst van Rapportsjablonen"
  },
  "removeSelectedReportTool": {
    "title": "Verwijderen",
    "desc": "Rapport verwijderen Template (s)"
  },
  "createReportTool": {
    "title": "Creëren",
    "desc": "Maak rapport sjabloon"
  },
  "dataViewCommon": {
    "filter": {
      "menuDefaultLabel": "Alle",
      "textBoxPlaceHolder": ""
    },
    "pager": {
      "backButtonTooltip": "Vorige pagina",
      "forwardButtonTooltip": "Komende pagina",
      "firstButtonTooltip": "Eerste pagina",
      "lastButtonTooltip": "Laatste pagina",
      "pageLabeltext": "Pagina:",
      "pageSizeLabelText": "Resultaten ${pageStartItemNumber}-${pageEndItemNumber} van ${itemCount}",
      "pageLabelText": "Pagina:"
    }
  },
  "reportsView": {
    "noDataMessage": "Geen rapport templates beschikbaar ...",
    "id": "ID",
    "title": "Titel",
    "desc": "Beschrijving",
    "filename": "Bestand",
    "enabled": "Bruikbare",
    "trueEnabled": "ja",
    "falseEnabled": "geen",
    "modifiedBy": "Gewijzigd door",
    "modifiedAt": "Gewijzigd op"
  },
  "reportDetailsView": {
    "windowTitle": "Rapport sjabloon '{title}'",
    "createWindowTitle": "Nieuw rapport Template",
    "title": "Titel:",
    "enabled": "Bruikbare",
    "uploaded": "Geupload",
    "description": "Beschrijving:",
    "createdAt": "Gemaakt op:",
    "createdBy": "Gemaakt door:",
    "modifiedAt": "Gewijzigd op",
    "modifiedBy": "Gewijzigd door",
    "id": "ID:",
    "fileName": "bestand:",
    "upload": "Uploaden",
    "uploadedMsg": "100%",
    "updateError": "Update van het sjabloon voor '{id} \"is mislukt! {error}",
    "updateErrorAllreadyExists": "Rapportagesjabloon bestaat al!",
    "updateSuccess": "Rapport '{id}' succesvol opgeslagen!",
    "uploadStart": "Upload de slag!",
    "uploadError": "Upload fout:",
    "uploadFinished": "Uploaden voltooid!",
    "createInfo": "Vul de titel van uw nieuwe rapport template. Na het succesvol creëren van het rapport sjabloon, kunt u gegevens toevoegt.",
    "panelDefaultTitle": "<strong>Algemene Informatie</strong>",
    "panelFileTitle": "<b>Rapportsjabloon</b>"
  }
}