{
  "bundleName": "Routing",
  "bundleDescription": "Deze bundel bevat de routebeschrijving Widget van de ArcGIS API voor JavaScript.",
  "tool": {
    "title": "Routing",
    "tooltip": "Toon routing widget"
  },
  "printTemplate": {
    "printbutton": "Afdruk",
    "closebutton": "Dicht",
    "titleText": "Mijn route:",
    "notesPlaceholder": "Vul hier notities",
    "routingSummaryETE": "Onderweg Geschatte tijd:",
    "routingSummaryDistance": "Afstand:",
    "footerText": "Richtingen zijn uitsluitend bedoeld voor planning en zijn onderworpen aan <a href='http://www.esri.com/legal/software-license' target='_blank'>de gebruiksvoorwaarden van Esri's</a> . Dynamische omstandigheden weg kan die oorzaak nauwkeurigheid te verschillen van uw aanwijzingen bestaan ​​en in aanmerking moet worden genomen, samen met tekenen en wettelijke beperkingen. U neemt alle risico's van het gebruik."
  },
  "units": {
    "hour": "uur",
    "hours": "uur",
    "minute": "minuut",
    "minutes": "notulen",
    "esriMillimeters": "mm",
    "esriCentimeters": "cm",
    "esriDecimeters": "dm",
    "esriMeters": "m",
    "esriKilometers": "km",
    "esriFeet": "ft",
    "esriInches": "in",
    "esriMiles": "mi",
    "esriNauticalMiles": "nm",
    "esriUnknownUnits": "onbekend"
  }
}