{
  "bundleName": "View Layout",
  "bundleDescription": "--Basisfunctionaliteit-- De Template Layout implementeert de rangschikking van alle UI-elementen op basis van vooraf gedefinieerde templates."
}