{
  "bundleName": "Prehliadač obsahu",
  "bundleDescription": "Zobrazuje rôzne druhy obsahu.",
  "ui": {
    "unknownContentError": "Obsah je neznáma.",
    "graphicinfotool": {
      "title": "Element informácie",
      "desc": "Element informácie"
    },
    "content": {
      "defaultTitle": "Prvok",
      "grid": {
        "detailView": "Zobraziť detaily",
        "key": "Nehnuteľnosť",
        "value": "Hodnota"
      },
      "customTemplate": {
        "detailView": "Zobraziť detaily"
      },
      "attachment": {
        "noAttachmentSupport": "Táto vrstva nepodporuje prílohy",
        "detailView": "Zobraziť detaily"
      },
      "AGSDetail": {
        "title": "Zobraziť detaily",
        "print": "Tlač",
        "serviceMetadata": "Metadáta Service",
        "serviceURL": "URL",
        "serviceCopyrights": "Autorské práva",
        "serviceTitle": "Názov",
        "pager": {
          "pageSizeLabel": "Funkcia ${currentPage} z ${endPage}"
        },
        "key": "Nehnuteľnosť",
        "value": "Hodnota",
        "detailView": "Zobraziť detaily"
      }
    }
  }
}