{
  "bundleName": "Vlastný obsah Configuration Wizard Bundle",
  "bundleDescription": "Config Wizard Bundle zákazkového info widgetu",
  "menu": {
    "title": "Má obsah"
  },
  "widget": {
    "window": {
      "title": "Názov",
      "saveDeleteQuery": "Myslíte si naozaj chcete \"{number} ' zmazať záznamy?",
      "editCustomInfoDefinitionTitle": "Upraviť obsah",
      "newCustomInfoDefinitionTitle": "Vytvoriť nový obsah"
    },
    "wizard": {
      "types": {
        "copyright": {
          "title": "Copyright",
          "tooltip": "Zobraziť informácie o autorských právach"
        },
        "disclaimer": {
          "title": "Zrieknutie sa",
          "tooltip": "Show disclaimer"
        },
        "imprint": {
          "title": "Odtlačok",
          "tooltip": "Show odtlačok"
        },
        "info": {
          "title": "Info",
          "tooltip": "Zobraziť informácie"
        },
        "help": {
          "title": "Pomoc",
          "tooltip": "Zobraziť nápovedu"
        },
        "legend": {
          "title": "Legenda",
          "tooltip": "Show legenda"
        },
        "link": {
          "title": "Odkaz",
          "tooltip": "Ukázať odkaz"
        },
        "custom": {
          "title": "Zvyk"
        }
      },
      "generalPane": {
        "paneTitle": "Nastavenie nástrojov",
        "type": "Typ",
        "typeTooltip": "Vyberte typ pre vopred definované informácie",
        "title": "Názov",
        "titleTooltip": "Definujte názov pre nástroj",
        "tooltip": "Tooltip",
        "tooltipTooltip": "Definovať text popisku",
        "toolClass": "Nástroje CSS trieda",
        "toolClassTooltip": "Vyberte si voliteľné CSS triedu na ikonu tlačidla nástroje"
      },
      "windowPane": {
        "paneTitle": "Definovať voľby okná",
        "title": "Názov",
        "titleTooltip": "Vyberte si svoje meno pre okno",
        "windowWidth": "Šírka",
        "windowWidthTooltip": "Šírka okna",
        "windowHeight": "Výška",
        "windowHeightTooltip": "Výška okna",
        "position": "Poloha",
        "positionTooltip": "Vyberte si pozíciu okna",
        "center": "centrálne",
        "left": "ľavý",
        "right": "doprava",
        "top": "top",
        "bottom": "dno",
        "modal": "Modal",
        "modalTooltip": "Vyberte, či je okno modálne",
        "draggable": "Pohyblivý",
        "draggableTooltip": "Vyberte, či je okno pohyblivý",
        "resizable": "Značný",
        "resizableTooltip": "Vyberte, či chcete, aby zmena veľkosti okna",
        "closable": "Uzatvárateľné",
        "closableTooltip": "Vyberte, či možno okno zatvorené",
        "maximizable": "Maximalizovatelné",
        "maximizableTooltip": "Vyberte, či je okno maximalizované"
      },
      "contentPane": {
        "paneTitle": "Vyberte, či chcete obsah voľného alebo odkaz pre zobrazenie",
        "content": "Ľubovoľný obsah",
        "link": "Odkaz",
        "linkWidget": {
          "url": "URL",
          "urlTooltip": "Zadajte adresu URL",
          "newTab": "Otvoriť v novej záložke / okne",
          "newTabTooltip": "Vyberte, či chcete, aby sa odkaz otvorí v novom okne / záložke"
        }
      }
    },
    "grid": {
      "removeCustomInfoTool": "Odstráňte svoj vlastný obsah",
      "addCustomInfoTool": "Pridať nový obsah",
      "title": "Názov",
      "dataView": {
        "DGRID": {
          "noDataMessage": "Žiadne vlastný obsah nájdený."
        },
        "pager": {
          "pageSizeLabelText": "Obsah ${pageStartItemNumber} - ${pageEndItemNumber} z ${itemCount}"
        }
      }
    }
  }
}