{
  "bundleName": "Úpravy",
  "bundleDescription": "Editácia zväzok obsahuje sadu editačných nástrojov, funkcie pre užívateľov.",
  "ui": {
    "messages": {
      "updateInfo": "Aktualizácie začal.",
      "updateSuccess": "Zmeny úspešne použité.",
      "updateFailure": "Došlo k chybe. Zmeny nemožno uložiť.",
      "deleteInfo": "Odstrániť funkcie začal.",
      "deleteSuccess": "Odstránenie úspech.",
      "deleteFailure": "Odstránenie zlyhalo!",
      "createInfo": "Ušetriť začal.",
      "createSuccess": "Geo-objektov uložený.",
      "createFailure": "Nepodarilo sa uložiť geo-objektov.",
      "changesInfo": "Uložiť zmeny?"
    },
    "saveChangesInfoDialog": {
      "okButton": "Áno",
      "cancelButton": "Nie"
    },
    "tools": {
      "editingCreateFeature": "Vytvoriť nový geo-objektov",
      "editingFeature": "Úprava geo-objektov",
      "deleteFeature": "Odstránenie geo-objektov",
      "editingUI": "Voľby úprav"
    },
    "snapping": {
      "windowTitle": "Priťahovanie",
      "alwaysSnap": "Letmý štart je stále aktívny",
      "alwaysSnapTooltip": "Pozrite sa, používať štekať natrvalo. Zrušte začiarknutie, používať štekať iba s klávesnicou.",
      "snappingKey": {
        "label": "Tlačidlo Začiatok:"
      },
      "tolerance": {
        "label": "Tolerancia [px]",
        "tooltip": "Vzdialenosť od kurzora až k bodu je zachytený (v pixeloch) k tomu."
      }
    },
    "attributeEditor": {
      "windowTitle": "Atribúty",
      "applyButton": "Save",
      "cancelButton": "Zrušiť",
      "deleteButton": "Vymazať",
      "notvalid": "Zadané údaje nie je platný!"
    },
    "attachmentEditor": {
      "windowTitle": "Prílohy"
    },
    "dataformControlResolver": {
      "emptyValuesLabelPlaceHolder": "(Žiadna hodnota)",
      "nullValuesLabelPlaceHolder": "(Žiadna hodnota)"
    },
    "drawfeature": {
      "dataview": {
        "title": "Typy objektov",
        "pager": {
          "backButtonTooltip": "Späť",
          "forwardButtonTooltip": "Vpred",
          "firstButtonTooltip": "Prvý",
          "lastButtonTooltip": "Posledná",
          "pageLabelText": "Strana ${currentPage} z ${endPage}",
          "zeroResultsText": "",
          "pageSizeLabelText": "${pageStartItemNumber} - ${pageEndItemNumber} z ${itemCount}"
        },
        "filter": {
          "menuDefaultLabel": "Všetko",
          "textBoxPlaceHolder": "Pozrite sa na ..."
        },
        "ICON": {
          "noDataMessage": "Žiadne údaje.",
          "loadingMessage": "Loading ..."
        },
        "DGRID": {
          "noDataMessage": "Žiadne údaje.",
          "loadingMessage": "Loading ...",
          "error": "Error:"
        }
      }
    },
    "editgeometry": {
      "activation": {
        "warn": "Vybraný geo-objektov nemožno upravovať pomocou aktuálneho nástroja.",
        "info": "Vybraný geo-objektov."
      }
    },
    "applyEditsProcessor": {
      "undoAdd": "Vytvorenie objektu",
      "undoDelete": "Zmazať objekt",
      "undoUpdate": "Zmeniť objekt"
    }
  }
}