{
  "bundleName": "FeatureInfo",
  "bundleDescription": "FeatureInfo zobrazuje informácie o funkciách pre aktívnej vrstvy.",
  "ui": {
    "featureInfo": {
      "noQueryLayersFound": "No vyhľadávania vrstiev k dispozícii!",
      "contentInfoWindowTitle": "Identifikovať",
      "noResultsFound": "Neboli nájdené žiadne výsledky.",
      "loadingInfoText": "Dotazovanie vrstvy ${layerName} (${layerIndex} z ${layersTotal}).",
      "featureInfoTool": "Identifikovať",
      "layer": "Vrstva",
      "feature": "Objekt"
    },
    "wms": {
      "emptyResult": "Nájdené na WMS vrstvy \"${layerTitle}\" Žiadne výsledky."
    }
  }
}