{
  "bundleName": "Geonames - Miesto hľadania",
  "bundleDescription": "Tento balík implementuje geonames.org poštové smerovacie číslo vyhľadávací API. Užívateľ môže vyhľadávať podľa PSČ alebo názov miesta. Vyhľadávanie je možné rozšíriť prostredníctvom uplatňovania iných vyhľadávacích služieb.",
  "stores": {
    "noValue": "Žiadna hodnota",
    "postalcodes": {
      "name": "Geonames (poštové kódy a mestá)",
      "description": "Plugin pre službu Geonames poštových kódov a miest.",
      "placeHolder": "PSČ alebo názov mesta ...",
      "fields": {
        "countryCode": "Kód krajiny",
        "lat": "Zemepisná šírka",
        "lng": "Zemepisná dĺžka",
        "placeName": "Názov miesta",
        "postalCode": "PSČ"
      }
    },
    "wikipedia": {
      "name": "Wikipedia",
      "description": "Plugin pre Wikipedia články s informácií o polohe.",
      "placeHolder": "Zadajte hľadaný výraz ...",
      "fields": {
        "title": "Názov",
        "summary": "Zhrnutie",
        "rank": "Hodnosť",
        "elevation": "Výška",
        "wikipediaUrl": "Wikipedia URL",
        "countryCode": "Kód krajiny",
        "lat": "Zemepisná šírka",
        "lng": "Zemepisná dĺžka",
        "feature": "Rys",
        "thumbnailImg": "Thumbnail image",
        "lang": "Jazyk"
      }
    },
    "poi": {
      "name": "Zaujímavé miesta",
      "description": "Plugin pre Geonames servis pre bod záujmov.",
      "placeHolder": "Bod záujmu ...",
      "fields": {
        "countryName": "Názov krajiny",
        "fclName": "Feature názov triedy",
        "countryCode": "Kód krajiny",
        "lng": "Zemepisná dĺžka",
        "fcodeName": "Feature krycie meno",
        "toponymName": "Názov menený",
        "fcl": "Trieda Feature",
        "name": "Názov",
        "fcode": "Kód Feature",
        "geonameId": "ID",
        "lat": "Zemepisná šírka",
        "population": "Populácie"
      }
    }
  },
  "builder": {
    "menu": {
      "geonames": {
        "title": "Geonames"
      },
      "wikipedia": {
        "title": "Wikipedia"
      },
      "poi": {
        "title": "Zaujímavé miesta"
      },
      "postalcodes": {
        "title": "Poštové smerovacie čísla"
      }
    },
    "common": {
      "enabled": "Skladujte aktívny:",
      "enabledTooltip": "Umožňuje úložisko pre neho vo vyhľadávaní Omni.",
      "defaultLabel": "Zástupný:",
      "defaultLabelTooltip": "Definuje predvolené text vyhľadávanie vstupného poľa (hodnota je nepovinný).",
      "pageSize": "Maximálne výsledky",
      "pageSizeTooltip": "Maximálny počet zásahov vo výsledkoch (rozsah: 0 - 100, 0 je neobmedzená).",
      "typingdelay": "Oneskorenie [ms]",
      "typingdelayTooltip": "Pauza medzi stlačenia klávesov, ako pripomienka predložená (rozmedzie 0-1000 milisekúnd)",
      "languageAware": "Jazykové vedomí výsledky",
      "languageAwareTooltip": "Jazyk používaný v map.apps budú použité na získanie lokalizované výsledky.",
      "url": "URL služby",
      "urlTooltip": "URL REST koncového bodu vyhľadávanie služieb.",
      "username": "Geonames užívateľské meno",
      "usernameTooltip": "Meno osobného GEONAMES účtu."
    },
    "wikipediaWidget": {
      "description": "Konfigurácia téma hľadania Wikipedia."
    },
    "poiWidget": {
      "description": "Konfigurácia pre body záujmu hľadanie obchodu."
    },
    "postalcodesWidget": {
      "description": "Konfigurácia poštového téme code vyhľadávania.",
      "countries": "Krajiny filter",
      "countriesTooltip": "Kód krajiny filtrovať výsledky, napr. \"De\" (hodnota je nepovinný)."
    }
  }
}