{
  "bundleName": "Informácie o umiestnení",
  "bundleDescription": "Zobrazuje informácie o určitom mieste.",
  "ui": {
    "tools": {
      "mainActivationTool": "Informácie o umiestnení",
      "activationToolExtent": "Miesto informácie (výber obdĺžnik)"
    },
    "result": {
      "type": "Typ",
      "adapter": "Služba",
      "title": "Názov",
      "detailsUrl": "Odkaz",
      "thumbnailUrl": "Thumbnail"
    },
    "content": {
      "image": {
        "title": "Obraz",
        "goToImageButton": "Prejdite na webové stránky pre tento obrázok",
        "sendByMailButton": "E-mail tento obrázok",
        "detailViewButtonLabel": "Podrobnosti"
      },
      "wikipedia": {
        "title": "Wikipedia",
        "openLink": "Zobraziť celý článok na Wikipédii"
      }
    },
    "noDataMessage": "Sme nenašli žiadne objekty."
  },
  "requestErrorMessage": "Došlo k chybe. Služba môže byť v súčasnej dobe k dispozícii."
}