{
  "bundleName": "Navigácia s nástrojmi",
  "bundleDescription": "Panel nástrojov navigácie poskytuje klasický navigačné nástroje sú k dispozícii (napríklad zoom v plnej výške).",
  "ui": {
    "zoomInTool": {
      "title": "Zväčšiť",
      "tooltip": "Zväčšiť"
    },
    "zoomOutTool": {
      "title": "Znížiť",
      "tooltip": "Znížiť"
    },
    "panTool": {
      "title": "Sťahovať",
      "tooltip": "Sťahovať"
    },
    "zoomToNextExtent": {
      "title": "Ďalší Rozsah",
      "tooltip": "Prejdite na ďalšie vesmírne časti"
    },
    "zoomToPrevExtent": {
      "title": "Predchádzajúci space sekcie",
      "tooltip": "Prejsť na predchádzajúcu priestoru sekcie"
    },
    "zoomToFullExtent": {
      "title": "V plnom rozsahu",
      "tooltip": "Prepnúť na plné rozšírenie"
    },
    "zoomToInitialExtent": {
      "title": "Počiatočná časť priestoru",
      "tooltip": "Prepnúť na počiatočné expanziu"
    },
    "zoomInClickTool": {
      "title": "Zväčšiť",
      "tooltip": "Zväčšiť"
    },
    "zoomOutClickTool": {
      "title": "Znížiť",
      "tooltip": "Znížiť"
    }
  }
}