{
  "bundleName": "Výsledok Center",
  "bundleDescription": "Komponenta pre zobrazovanie výsledkov vyhľadávania.",
  "ui": {
    "dockTool": {
      "title": "Výsledok Center",
      "tooltip": "Výsledok Center"
    },
    "rectangleSelectBtn": {
      "title": "Vyberte výsledky na mape"
    },
    "selectAllBtn": {
      "title": "Vybrať všetko"
    },
    "deselectBtn": {
      "title": "Zrušiť výber"
    },
    "removeAllBtn": {
      "title": "Nenájdené Center"
    },
    "removeSelectedBtn": {
      "title": "Odstrániť vybrané položky z výsledku centra"
    },
    "searchStoreTool": {
      "title": "Prehliadať dáta"
    },
    "exportTool": {
      "title": "Export"
    },
    "dataView": {
      "filter": {
        "menuDefaultLabel": "Všetko",
        "textBoxPlaceHolder": ""
      },
      "pager": {
        "backButtonTooltip": "Predchádzajúca strana",
        "forwardButtonTooltip": "Ďalšia stránka",
        "firstButtonTooltip": "Prvá strana",
        "lastButtonTooltip": "Posledná strana",
        "pageLabeltext": "Strana:",
        "pageSizeLabelText": "Výsledky ${pageStartItemNumber}-${pageEndItemNumber} z ${itemCount}:",
        "zeroResultsText": "Žiadne zápasy",
        "pageLabelText": "Strana:"
      },
      "DGRID": {
        "noDataMessage": "Žiadne údaje.",
        "loadingMessage": "Načítanie dát ..."
      }
    },
    "newDataAvailable": "K dispozícii sú nové údaje"
  }
}