{
  "bundleName": "Saišķis vadība",
  "bundleDescription": "Nodrošina saskarnes saišķis vadība",
  "commonDelete": {
    "saveQuery": "Vai jūs tiešām vēlaties dzēst '{number}' prece (-s)?",
    "error": "Dzēšana posteņi \"{items}\" nav!",
    "partialSuccess": "Daži objekti nevar izdzēst!",
    "errorFinish": "Neviens elements ir dzēsts!",
    "success": "Dzēst operācija veiksmīgi pabeigta!"
  },
  "bundleListTool": {
    "title": "Paketes",
    "desc": "Latviešu Paketes"
  },
  "removeSelectedBundlesTool": {
    "title": "Izdzēst",
    "desc": "Dzēst Paka"
  },
  "createBundleTool": {
    "title": "Augšupielāde",
    "desc": "Augšupielādēt Paketes"
  },
  "dataViewCommon": {
    "filter": {
      "menuDefaultLabel": "Viss",
      "textBoxPlaceHolder": ""
    },
    "pager": {
      "backButtonTooltip": "Iepriekšējā lapa",
      "forwardButtonTooltip": "Nākamā lapa",
      "firstButtonTooltip": "Pirmā lapa",
      "lastButtonTooltip": "Pēdējā lapa",
      "pageLabeltext": "Lapa:",
      "pageSizeLabelText": "Rezultāti ${pageStartItemNumber}-${pageEndItemNumber} no ${itemCount}",
      "pageLabelText": "Lapa:"
    }
  },
  "bundlesView": {
    "noDataMessage": "Nav pieejami kūļi ...",
    "name": "Nosaukums",
    "version": "Versija",
    "title": "Virsraksts",
    "desc": "Apraksts",
    "modifiedBy": "Modificēja",
    "modifiedAt": "Pārveidots At"
  },
  "bundleDetailsView": {
    "windowTitle": "Bundle \"{id} '",
    "createWindowTitle": "Augšupielādēt Paketes",
    "name": "Nosaukums",
    "version": "Versija",
    "dependencies": "Atkarīgās:",
    "main": "Galvenais failu:",
    "layer": "Slānis failu:",
    "location": "Atrašanās vieta:",
    "title": "Nosaukums:",
    "description": "Apraksts:",
    "createdAt": "Izveidots:",
    "createdBy": "Izveidoja:",
    "modifiedAt": "Pārveidots At",
    "modifiedBy": "Modificēja",
    "id": "ID:",
    "upload": "Augšupielāde",
    "uploaded": "100% - kūļi ir iegūti un importēto",
    "updateError": "Saišķis \"{id} 'nevar saglabāt! {error}",
    "updateSuccess": "Saišķis \"{id} 'succesfull saglabātas!",
    "uploadStart": "Augšupielādēt sākās!",
    "uploadError": "Augšupielādes kļūda:",
    "uploadFinished": "Augšupielāde pabeigta!",
    "createBundleInfo": "<strong>Augšupielādēt jūsu kūļi</strong> <br/><ul><li> Atļauta ir zip vai jar failus </li><li> Fails var saturēt vairākas paketes. </li></ul>",
    "panelDefaultTitle": "<strong>Vispārīga informācija</strong>",
    "panelExtendedTitle": "<strong>Izvērsta informācija</strong>",
    "panelJsonInfoTitle": "<strong>package.json</strong>"
  }
}