{
  "bundleName": "Esri Locator pakalpojums konfigurācija",
  "bundleDescription": "Konfigurācija saišķis ESRI Locator dienestā.",
  "menu": {
    "title": "Esri Locator Service"
  },
  "widget": {
    "description": "Konfigurācija Esri Locator dienesta meklēšanas tēmu.",
    "enabled": "Meklēt tēmu aktīvs",
    "enabledTooltip": "Aktivizē meklēšanas tēmu, lai izmantotu to Omni meklēšanā.",
    "defaultLabel": "Vietturis",
    "defaultLabelTooltip": "Definē noklusējuma teksta meklēšanas ievades lauku (vērtība nav obligāta).",
    "labelAttribute": "Nosaukums atribūts",
    "labelAttributelTooltip": "Definē atribūtu, kas tiek izmantots, lai etiķetē meklēšanas trāpījuma.",
    "pageSize": "Maksimālu rezultātu",
    "pageSizeTooltip": "Maksimālais skaits šajā rezultātu (diapazons: 0-100; 0 ir neierobežots).",
    "typingdelay": "Kavēšanās [ms]",
    "typingdelayTooltip": "Pauze starp nospiesto taustiņu, pirms tiek iesniegts vaicājumu (diapazons 0-1000 milisekundes)",
    "url": "URL Pakalpojuma",
    "urlTooltip": "URL meklēšanas pakalpojumu REST parametru."
  },
  "stores": {
    "locator": {
      "placeHolder": "Novietojiet vārdu ..."
    }
  }
}