{
  "bundleName": "Izdarīt",
  "bundleDescription": "Zīmējums Bundle nodrošina lietotāju zīmēšanas un rediģēšanas rīkus.",
  "menu": {
    "title": "Izdarīt"
  },
  "widget": {
    "description": "Lūdzu, izvēlieties tos, zīmēšanas rīkus, kas būtu pieejama Peldēšana:"
  },
  "tools": {
    "DrawEraseAllTool": {
      "title": "Dzēst viss",
      "tooltip": "Dzēst tool slēdzi (Visi zīmējumi dzēst)"
    },
    "DrawPointTool": {
      "title": "Punkts",
      "tooltip": "punktu rīks slēdzis (pievērš punktu)"
    },
    "DrawMultipointTool": {
      "title": "Punkti",
      "tooltip": "Punkti rīks slēdzis (pievērš vairāki punkti)"
    },
    "DrawLineTool": {
      "title": "Līnija",
      "tooltip": "Rīks slēdzis (pievērš taisnu līniju)"
    },
    "DrawPolylineTool": {
      "title": "Polyline",
      "tooltip": "Polyline rīks slēdzis (pievērš a lauztas līnijas)"
    },
    "DrawFreehandPolylineTool": {
      "title": "Brīvrokas polyline",
      "tooltip": "Brīvrokas polyline rīks slēdzis (pievērš lietotāja noteiktu pēdas)"
    },
    "DrawPolygonTool": {
      "title": "Daudzstūris",
      "tooltip": "Daudzstūris rīks slēdzis (pievērš daudzstūri)"
    },
    "DrawFreehandPolygonTool": {
      "title": "Brīvrokas daudzstūri",
      "tooltip": "Brīvrokas poligons rīks slēdzis (pievērš brīvi definējamu daudzstūri)"
    },
    "DrawExtentTool": {
      "title": "Bezmaksas taisnstūris",
      "tooltip": "Brīvrokas taisnstūris rīks slēdzis (pievērš brīvi definējamu taisnstūri)"
    },
    "DrawCircleTool": {
      "title": "Aplis",
      "tooltip": "Aplis rīks slēdzis (pievērš apli)"
    },
    "DrawEllipseTool": {
      "title": "Elipse",
      "tooltip": "Elipse rīks slēdzis (pievērš elipse)"
    },
    "DrawRectangleTool": {
      "title": "Taisnstūris",
      "tooltip": "Taisnstūris rīks slēdzis (pievērš taisnstūri)"
    },
    "DrawArrowTool": {
      "title": "Bezmaksas bultu",
      "tooltip": "Bultu rīks slēdzis (pievērš bultu jebkurā virzienā)"
    },
    "DrawLeftArrowTool": {
      "title": "Kreisā bultiņa",
      "tooltip": "Bultiņas slēdzis uz kreiso rīku (Zīmēt bultiņas pa kreisi atslēgu)"
    },
    "DrawRightArrowTool": {
      "title": "Labo bultiņu",
      "tooltip": "bultu slēdzi uz labo rīku (Zīmēt bultu pa labi)"
    },
    "DrawUpArrowTool": {
      "title": "Augšupbultiņa",
      "tooltip": "bultiņas slēdzi uz augšu instrumentu (pievērš trauciņos līdz bultiņas)"
    },
    "DrawDownArrowTool": {
      "title": "Leju bulta",
      "tooltip": "Bultiņa slēdzi uz leju instrumentu (pievērš bulta uz leju)"
    },
    "DrawTriangleTool": {
      "title": "Trīsstūris",
      "tooltip": "trīsstūris rīks slēdzis (pievērš trīsstūris)"
    },
    "DrawTextTool": {
      "title": "Teksts",
      "tooltip": "Teksta rīks slēdzis (jebkuru tekstu uz kartes rakstīt)"
    },
    "DrawSymbolTool": {
      "title": "Simbols",
      "tooltip": "Ikona instruments slēdzis (simbols no simbols galerijas zīmējumu)"
    },
    "StylePropertiesTool": {
      "title": "īpašības / Veidnes",
      "tooltip": "īpašības rīks slēdzis (rakstura īpašības un veidnes Rediģēt)"
    },
    "MoveScaleRotateVerticesTool": {
      "title": "Rediģēt grafiskais",
      "tooltip": "Rediģēt rīks slēdzi (skaitlis pārvietot, mainīt izmērus vai pagriezt vai arī rediģēt mezglu)"
    },
    "MoveScaleRotateTool": {
      "title": "Pārvietot",
      "tooltip": "Pārvietot rīks slēdzi (skaitlis pārvietot, mainīt vai pagriezt)"
    },
    "EditVerticesTool": {
      "title": "Rediģēt mezgls",
      "tooltip": "Rediģēt rīks slēdzis (mezgli grafa rediģēt)"
    },
    "DeleteGraphicTool": {
      "title": "Izdzēst",
      "tooltip": "Dzēst rīks slēdzi (Izdzēst grafika)"
    },
    "ExportGraphicsTool": {
      "title": "Eksporta grafikas",
      "tooltip": "Eksporta rīks slēdzis (grafikas eksports)"
    }
  }
}