{
  "bundleName": "ESRI Locator palvelumäärityksiä",
  "bundleDescription": "Kokoonpano nippu Esri Locator Service.",
  "menu": {
    "title": "ESRI Locator Service"
  },
  "widget": {
    "description": "Kokoonpano Esri Locator Service hakuaihe.",
    "enabled": "Etsi aihe aktiivinen",
    "enabledTooltip": "Aktivoi hakuaihe käyttää sitä Omni hakuun.",
    "defaultLabel": "Placeholder",
    "defaultLabelTooltip": "Määrittää oletuksena tekstin haku syöttökenttään (arvo on valinnainen).",
    "labelAttribute": "Otsikko määrite",
    "labelAttributelTooltip": "Määrittää määrite, jota käytetään etiketissä haku osuma.",
    "pageSize": "Suurin tulokset",
    "pageSizeTooltip": "Suurin määrä hittejä tulokset (alue: 0-100; 0 on rajaton).",
    "typingdelay": "Viive [ms]",
    "typingdelayTooltip": "Tauko painallusten väliin ennen kysely on toimitettu (vaihteluväli 0-1000 millisekuntia)",
    "url": "URL palvelun",
    "urlTooltip": "URL hakupalvelu REST päätepiste."
  },
  "stores": {
    "locator": {
      "placeHolder": "Laita nimi ..."
    }
  }
}