{
  "bundleName": "Suurennuslasi",
  "bundleDescription": "Suurennuslasin skaalaa tietty alue kartalla erillisessä ikkunassa. Siten tällä alalla voidaan tarkastaa tarkemmin poistumatta nykyisen näkymä pääkartan.",
  "ui": {
    "tools": {
      "magnifier": {
        "title": "Suurennuslasi",
        "tooltip": "Näytä Suurennuslasi"
      }
    }
  }
}