{
  "bundleName": "Kartta konfigurointiavustaja Niputtaa",
  "bundleDescription": "Kartta nippu hallinnoi pääkartan ja kaikki kartta sisällön tiedot. Asiakas voi abstrakti palveluja käytetään hierarkkinen Kartta mallia niin, että ne voidaan näyttää eri tavoin käyttäjälle.",
  "menu": {
    "mapstate": {
      "title": "Kartta laajuus"
    },
    "mapmodel": {
      "title": "Kartta Sisältö"
    },
    "mrrbuilder": {
      "title": "Palvelujen hallinta"
    },
    "mapoptions": {
      "title": "Karttavalinnat"
    }
  },
  "commonDelete": {
    "saveQuery": "Haluatko todella poistaa \"{number} erä (t)? Huomaa: Järjestelmä voi olla ristiriitainen, jos poistat palvelut viittaamat muut! <b>Tällä hetkellä ei ole johdonmukaista tarkastuksia tehdään!</b>",
    "error": "Poistetaan kohdetta \"{items} epäonnistunut!",
    "partialSuccess": "Joitakin kohteita ei voitu poistaa!",
    "errorFinish": "Ei elementti on poistettu!",
    "success": "Pyyhitty onnistui!"
  },
  "serviceDetails": {
    "windowTitle": "Palvelu {id} '",
    "newServiceId": "Uusi",
    "url": "URL:",
    "urltooltip": "Anna tarkka palvelun päätepisteen url täällä! esim http://services.arcgisonline.com/ArcGIS/rest/services/World_Topo_Map/MapServer",
    "title": "Otsikko:",
    "titletooltip": "Kirjoita palvelun nimi",
    "description": "Kuvaus:",
    "descriptiontooltip": "Kirjoita kuvaus palvelun",
    "type": "Tyyppi:",
    "typetooltip": "Ole hyvä ja valitse kelvollinen palvelun tyyppi",
    "layer": "Kerros:",
    "layertooltip": "Täällä voit kirjoittaa kerros metatietojen palvelun, rakenteeltaan kuten: <pre> [{\n  \"id\": \"0\",\n  \"title\": \"My Layer\"\n}, ...] </pre>",
    "options": "Vaihtoehdot:",
    "optionstooltip": "<p> Täällä voit syöttää erityisiä vaihtoehtoja palvelun rakentamiseen, rakenteeltaan kuten: <pre> {\n  \"optionName\": \"optionValue\",\n  ...\n} </pre></p><p> Esimerkiksi peittävyyttä palvelu voidaan konfiguroida seuraavasti: <pre> {\n  \"opacity\": 0,5\n} </pre></p>",
    "fetchMetadata": "Nouda metatiedot",
    "fetchMetadatatooltip": "Napsauta tätä hakemaan kokoonpanon metatiedot url. Huomaa, että kaikki tuli metatiedot kirjoitetaan yli tiedoista palvelua!",
    "fetchMetadataDesc": "Tämä toimii palvelun tyypit \"AGS_DYNAMIC ',' AGS_FEATURE\" ja \"AGS_TILED\". Kuitenkin muun palvelun tyyppejä voidaan lisätä manuaalisesti tällä lomakkeella.",
    "fetchError": "Yhteys palvelun {url} epäonnistunut! {error}",
    "updateError": "Päivitä palvelun {id} epäonnistunut! {error}",
    "updateSuccess": "Palvelu {id} päivitetty onnistuneesti!"
  },
  "mrrBuilderWidget": {
    "createNewTitle": "Luo uusi solmu",
    "removeServiceTool": "Poista palvelu",
    "addServiceTool": "Lisää uusi palvelu",
    "dataView": {
      "filter": {
        "menuDefaultLabel": "[Kaikki]",
        "textBoxPlaceHolder": ""
      },
      "noDataFound": "Ei palveluja ...",
      "pager": {
        "pageLabelText": "Sivu ${currentPage} on ${endPage}",
        "backButtonTooltip": "Edellinen sivu",
        "forwardButtonTooltip": "Seuraava sivu",
        "firstButtonTooltip": "Ensimmäinen sivu",
        "lastButtonTooltip": "Viimeinen sivu",
        "pageSizeLabelText": "Tulokset ${pageStartItemNumber}-${pageEndItemNumber} on ${itemCount}"
      }
    },
    "categories": {
      "id": "Nimi",
      "title": "Otsikko",
      "serviceUrl": "URL",
      "serviceType": "Tyyppi"
    }
  },
  "mapModelBuilderWidget": {
    "description": "Tässä ikkunassa kortit yhdessä tämän app voidaan määritellä teeman ja tausta kerroksittain. Vasemmalla puolella kaikki käytettävissä olevat palvelut näkyvät. Näitä voidaan vetää ja pudottaa tasangoilla keskellä.",
    "hint": "Uusia palveluja voidaan lisätä käyttämällä \"Palvelujen hallinta -valikosta.",
    "categoryDescription": "Kuvaus:",
    "categoryDescriptionTooltip": "Palvelun kuvaus",
    "categoryTitle": "Otsikko:",
    "categoryTitleTooltip": "Otsikko palvelun",
    "imageUrl": "URL Map Flow kansikuva:",
    "imageUrlTooltip": "URL Map Flow Kaanepilt (koko: 267x159 px, formaatit: jpg, png, gif)",
    "defaultEnabled": "Luokka käytössä käynnistyksen:",
    "defaultEnabledTooltip": "Tarkista asettaa palvelun on oltava käytössä käynnistyksen sovelluksen.",
    "detailsPaneTitle": "Muuta asetuksia palvelun <b>{category.title} \"</b>",
    "detailsPaneService": "Perustuu palvelu <b>{service} \"</b>",
    "transparencySlider": "Avoimuus:",
    "mapFlowPaneTitle": "<b>Map Flow-asetukset</b> <br /> Jos käytät Kartta Flow, voit määrittää ominaisuudet (kuvaus ja kuva) seuraavassa jaksossa.",
    "detailsHint": "Valitse solmu sarja ...",
    "servicesHint": "Vedä palvelu täällä ...",
    "servicesTitle": "Palvelut",
    "detailsTitle": "Tarkemmat tiedot",
    "operationalLayer": "Operatiiviset kerros",
    "baseLayer": "Pohjakerros",
    "chooseLayers": "Valitse, mitkä kerrokset olisi sisällytettävä palveluun ja jos ne pitäisi näkyä aluksi.",
    "layerHead": "<b>Kerros</b>",
    "layerVisibleHead": "<b>Alkuperäinen näkyvissä</b>",
    "layerVisibleTooltip": "Tarkista asettaa alkuperäiseen näkyvyystilaa kerros <b>\"{title} '.</b>",
    "layerIncludeHead": "<b>Sisältää</b>",
    "layerIncludeTooltip": "Tarkista sisällyttää kerros <b>\"{title} '.</b>",
    "editable": "Muokattavat",
    "editableTooltip": "Tarkista sallia editointi tämän palvelun"
  },
  "mapStateWidget": {
    "description": "Kartan laajuus määritellään näkyvän kartan. Valitse menetelmä asettaa alkuperäisen kartan määrin.",
    "checkBoxApplyMainMapState": "Säädä kartta määrin panningilla pääkartan",
    "setExtentManually": "Manuaalisesti kirjoita arvot kartalla määrin",
    "spatialReference": "Tila- viitejärjestelmä:",
    "errorMessage": "Tarkista koordinaatit!"
  },
  "mapOptionsWidget": {
    "description": "Kun seuraavat asetukset eri kartan asetukset voidaan määritellä.",
    "slider": {
      "label": "Näytä suurennusliukusäädin",
      "tooltip": "Näytä suurennusliukusäädin kartalla"
    },
    "sliderStyle": {
      "label": "Tyyli suurennusliukusäädin",
      "tooltip": "Käytä pientä tai oletus suurennusliukusäädin",
      "type": {
        "small": "pieni",
        "large": "suuri"
      }
    },
    "nav": {
      "label": "Näytä navigointi nuolet",
      "tooltip": "Määrittää, jos navigointinuolet näkyvät kulmat kartan."
    },
    "logo": {
      "label": "Näytä \"powered by\" logo",
      "tooltip": "Määrittää, jos \"powered-by\" logo näkyy kartalla."
    },
    "doubleClickZoom": {
      "label": "Salli zoomaus tuplaklikkaa",
      "tooltip": "Määrittää, jos zoomaus on mahdollista tuplaklikkaa."
    },
    "clickRecenter": {
      "label": "Keskus painamalla [Shift] + Klikkaa",
      "tooltip": "Määrittää, jos keskus kartan saa painamalla [Shift] ja hiiren napsautuksella."
    },
    "keyboardNavigation": {
      "label": "Salli näppäimistöllä",
      "tooltip": "Määrittää, jos näppäimistöllä on sallittua."
    },
    "scrollWheelZoom": {
      "label": "Salli zoomattavan kiekkopainikkeella",
      "tooltip": "Määrittää, jos zoomattavan kiekkopainikkeella sallitaan."
    },
    "sliderPosition": {
      "label": "Kanta zoomauksen liukusäätimen",
      "tooltip": "Asema zoomauksen liukusäädintä (\"vasemmassa yläkulmassa\", \"ylhäällä oikealla\", \"alhaalta oikealle\" tai \"alhaalta vasemmalle\")",
      "position": {
        "topLeft": "vasemmassa yläkulmassa",
        "topRight": "ylhäällä oikealla",
        "bottomLeft": "vasemmalla alhaalla",
        "bottomRight": "Alhaalla oikealla"
      }
    },
    "displayGraphicsOnPan": {
      "label": "Näytä grafiikka panoroinnin",
      "tooltip": "Kun toiminto on käytössä, grafiikat näytetään, kun siirrät karttaa. Tämän vaihtoehdon poistaminen käytöstä voi parantaa suorituskykyä, kun Internet Explorer."
    },
    "navigationMode": {
      "label": "Navigointi tilassa",
      "tooltip": "Osoittaa, onko kartta käyttää CSS3 muunnokset panoroidessakin ja zoomaus (jos tukee selain).",
      "csstransform": "css-muunnokset",
      "classic": "klassinen"
    },
    "fadeOnZoom": {
      "label": "Häivyttää on zoomaus",
      "tooltip": "Kun toiminto on käytössä, tuettu kerrokset ovat päällekkäin zoomauksen aikana. Tällä hetkellä tuetaan vain kaakeloitu kerros ja navigointi tilassa on asetettava \"css-muunnoksen mukainen."
    },
    "showAttribution": {
      "label": "Näytä tekijänoikeustiedot",
      "tooltip": "Jos käytössä, tekijänoikeustiedot näkyy näytössä kerrokset kartalla."
    },
    "sliderOrientation": {
      "label": "Suunta zoom liukusäädintä",
      "tooltip": "Määrittää linjaus zoomauksen liukusäädintä (\"vertikaalinen\" tai \"horisontaalinen\").",
      "show": "Näytä",
      "hide": "piilottaa",
      "orientation": {
        "horizontal": "vaakasuora",
        "vertical": "pystysuora"
      }
    },
    "sliderLabels": {
      "label": "Näytä suurennusliukusäädin tarrat",
      "tooltip": "Määrittelee jos nimet näkyvät vieressä zoomauksen liukusäädintä. (Toimii vain \"suuret\" liukusäädintä.)",
      "labels": {
        "country": "Maa",
        "region": "Alue",
        "town": "Kaupunki"
      }
    }
  }
}