{
  "bundleName": "Reititys",
  "bundleDescription": "Paketti tarjoaa Ajo widget ArcGIS API JavaScript.",
  "tool": {
    "title": "Reititys",
    "tooltip": "Näytä reititys widget"
  },
  "printTemplate": {
    "printbutton": "Painatus",
    "closebutton": "Lähellä",
    "titleText": "Oma reitti:",
    "notesPlaceholder": "Anna toteaa täällä",
    "routingSummaryETE": "Arvioitu ajoaika:",
    "routingSummaryDistance": "Etäisyys:",
    "footerText": "Kulkuyhteydet ovat suuntaa-antavia ja voivat <a href='http://www.esri.com/legal/software-license' target='_blank'>Esrin käyttöehdot</a> . Dynaaminen keli voi olla, että syy tarkkuus poiketa suuntiin ja on otettava huomioon, samoin merkkejä ja oikeudelliset rajoitukset. Kaikki riskit käytön."
  },
  "units": {
    "hour": "tunti",
    "hours": "tuntia",
    "minute": "minuutti",
    "minutes": "minuuttia",
    "esriMillimeters": "mm",
    "esriCentimeters": "cm",
    "esriDecimeters": "dm",
    "esriMeters": "m",
    "esriKilometers": "km",
    "esriFeet": "ft",
    "esriInches": "sisään",
    "esriMiles": "mi",
    "esriNauticalMiles": "nm",
    "esriUnknownUnits": "tuntematon"
  }
}