{
  "bundleName": "Live-konfigurointivalikossa",
  "bundleDescription": "Menu live kokoonpano sovelluksen.",
  "ui": {
    "title": "Live-kokoonpano",
    "entry": "Merkintä",
    "entries": "Merkinnät",
    "noEntries": "Tällä hetkellä ei ole kohteita tähän luokkaan",
    "chooseCategory": "Valitse vaihtoehto",
    "buttons": {
      "back": "Takaisin",
      "apply": "Päivitä esikatselu",
      "save": "Tallenna App"
    },
    "dataFormBuilderWidget": {
      "defaultValidationErrorMessage": "Tarkista tulo (s)!"
    },
    "saveStart": "Säästäminen alkoi!",
    "saveError": "Säästä epäonnistui! {message}",
    "saveSuccess": "Onnistui!",
    "unknownError": "Tuntematon virhe!",
    "notAppliedConfigChanges": "Ei konfiguraation muutoksia havaittu! Pitäisikö niitä soveltaa?",
    "loadConfigBundles": "<p> Alustetaan kokoonpano nippua ({pos} / {count}). <br/> Ole kärsivällinen. </p>",
    "configureBtn": "Live-kokoonpano",
    "bundleStart": "Päällä",
    "bundleStartMessage": "Luo Niputtaa \"{name} ({symname})\"",
    "bundleStartMessageSuccess": "Aloita nippu \"{name} ({symname})\" onnistuneesti!",
    "bundleStartMessageFailure": "Aloita nippu \"{name} ({symname}) epäonnistunut! {error}",
    "bundleStop": "Pois",
    "bundleStopMessage": "Lopeta Bundle \"{name} ({symname})\"",
    "bundleStopMessageSuccess": "Lopeta nippu \"{name} ({symname})\" onnistuneesti!",
    "bundleStopMessageFailure": "Lopeta nippu \"{name} ({symname}) epäonnistunut! {error}",
    "bundleInfo": {
      "components": "Komponentit",
      "bundleIdentifier": "Tunniste",
      "bundleName": "Nimi",
      "bundleDescription": "Kuvaus",
      "bundleVersion": "Versio",
      "bundleLocation": "Url",
      "bundleCopyRight": "Tekijänoikeus",
      "bundleState": "Valtio",
      "bundleVendor": "Valmistaja",
      "bundleCategory": "Kategoriat",
      "bundleContactAddress": "Yhteysviranomainen",
      "bundleDocUrl": "Dokumentointi",
      "bundleLicense": "Lisenssi",
      "bundleLicenseUrl": "lisenssi Url"
    },
    "componentInfo": {
      "component": "Komponentti",
      "componentIdentifier": "Tunniste",
      "componentName": "Nimi",
      "componentState": "Valtio",
      "componentInstances": "Instanssit",
      "componentLog": "Kirjaudu",
      "jsonError": "Virheellinen JSON-muodossa: {error}",
      "commonDescription": "Voit muuttaa kokoonpanoa komponentin muokkaamalla kokoonpano JSON täällä. <b>Olkaa varovaisia!</b>",
      "factoryCreateHint": "Tämä komponentti on \"Component Factory\"! Määritellään uusi kokoonpano luo uutta komponenttia!",
      "factoryDeleteHint": "Tämä komponentti on \"Component Factoryn erä! Clearing tekstikenttään poistaa osan!",
      "notConfigurableHint": "Tämä komponentti ei voi määrittää."
    }
  },
  "menu": {
    "main": {
      "title": "Live-kokoonpano"
    },
    "content": {
      "title": "Pitoisuus",
      "description": "Määritä sisältö: Palvelut, Kartta Malli, kartta valtion, ..."
    },
    "widgets": {
      "title": "Widgetit",
      "description": "Valitse widget"
    },
    "search": {
      "title": "Search & Selection",
      "description": "Valitse haku ja valinta vaihtoehto"
    },
    "tools": {
      "title": "Työkalut",
      "description": "Määrittää työkaluja, joita voidaan käyttää tämän sovelluksen"
    },
    "design": {
      "title": "Layout & Design",
      "description": "Määrittää visuaalinen ulkoasu ja suunnittelu app"
    },
    "bundles": {
      "title": "Kokoonpanon lisäasetukset (nippujen)"
    }
  }
}