{
  "bundleName": "ArcGIS for Server Search",
  "bundleDescription": "Il bundle offre un modo per utilizzare i servizi ArcGIS Server livello come origine dati Web",
  "defaults": {
    "name": "Caratteristica",
    "description": "Sfoglia plugin per oggetti di un layer ArcGIS Server",
    "placeHolder": "Nome della caratteristica ..."
  }
}