{
  "bundleName": "ArcGIS for Server Search & Selection; Configurazione",
  "bundleDescription": "Il bundle di configurazione per i ArcGIS Server per Search & Selection.",
  "menu": {
    "title": "ArcGIS Server per Search & Selection"
  },
  "widget": {
    "saveDeleteQuery": "Sei sicuro di voler cancellare '{number}' item (s)?",
    "hint": "I nuovi servizi possono essere aggiunti nel menu 'Servizi di gestione'.",
    "storeWindow": {
      "newStoreTitle": "Crea nuovo argomento di ricerca",
      "editStoreTitle": "Modifica ricerca topic",
      "defaultLabel": "Immettere un termine di ricerca ..."
    },
    "storeWizard": {
      "loadingServiceMetadata": "Caricamento dei metadati del servizio ...",
      "loadingLayerMetadata": "Caricamento livello di metadati ...",
      "noQueryService": "Il servizio selezionato non può essere utilizzato in quanto non consente query!",
      "noQueryLayer": "Il livello selezionato non può essere usato in quanto non consente query!",
      "noFields": "Il livello selezionato non può essere usato in quanto non contiene campi!",
      "serviceError": "Errore di connessione al servizio (messaggio di errore: ${msg})!",
      "layerError": "Informazioni interrogazione Errore strato (messaggio di errore: ${msg})!",
      "noErrorSpecified": "Nessun messaggio di errore dettagliato disponibile!",
      "selectServiceTooltip": "Selezionare un servizio",
      "servicePaneTitle": "Seleziona un servizio da utilizzare per questo argomento di ricerca",
      "serviceTitle": "Servizio",
      "selectLayerTooltip": "Selezionate un livello",
      "layerPaneTitle": "Scegli un livello da utilizzare per questo argomento di ricerca",
      "layerTitle": "Strato",
      "storePaneTitle": "Si prega di definire alcune impostazioni di base per questo tema di ricerca",
      "searchPaneTitle": "Si prega di definire le impostazioni omnisearch per questo negozio",
      "storeTitle": "Titolo",
      "storeTitleTooltip": "Titolo del tema di ricerca",
      "storeDescription": "Descrizione",
      "storeDescriptionTooltip": "Descrizione del tema di ricerca",
      "storeSearchAttr": "Attributo di ricerca",
      "storeSearchAttrTooltip": "Questo attributo viene utilizzato per la ricerca",
      "storeLabelAttr": "Attributo nome",
      "storeLabelAttrTooltip": "Questo attributo è usato per descrivere",
      "defaultLabel": "Segnaposto",
      "defaultLabelTooltip": "Definisce il testo predefinito del campo di input di ricerca (valore è facoltativo).",
      "pageSize": "Risultati Massimo",
      "pageSizeTooltip": "Numero massimo di colpi nei risultati (range: 0-100; 0 è illimitato).",
      "typingdelay": "Ritardo [ms]",
      "typingdelayTooltip": "Pausa tra le pressioni dei tasti prima che la query viene inviata (0-1000 millisecondi)",
      "suggestContains": "Contiene Ricerca",
      "suggestContainsTooltip": "Se selezionata, la ricerca è 'contiene' viene eseguito, altrimenti un 'inizia con' ricerca",
      "selectionPaneTitle": "Si prega di definire le impostazioni per la selezione",
      "useInSearch": "Utilizzare in cerca omni",
      "useInSearchTooltip": "Definisce se il deposito sarà utilizzato per la selezione.",
      "useInSelection": "Utilizzare per la selezione",
      "useInSelectionTooltip": "Controllare negozio deve essere usato nella selezione",
      "selectionType": "Tipo di utensile",
      "selectionTypeTooltip": "Scegliere lo strumento di selezione",
      "selectinToolExtent": "Estensione",
      "selectinToolPoint": "Punto",
      "selectinToolCircle": "Cerchio",
      "selectinToolPolygon": "Poligono",
      "selectinToolFreehandPolygon": "A mano libera Poligono",
      "selectionToolIconClass": "Classe CSS per l'interruttore",
      "selectionToolIconClassTooltip": "Definisce la classe CSS per gli interruttori utensili",
      "selectionToolTolerance": "Clicca tolleranza",
      "selectionToolToleranceTooltip": "Selezionare clicca tolleranza (intervallo:. 0 - 100px sarà applicata tolleranza solo per lo strumento point.)."
    },
    "grid": {
      "removeStoreTool": "Rimuovere gli argomenti di ricerca",
      "addStoreTool": "Aggiungi nuovo Cerca argomento",
      "title": "Titolo",
      "type": "Tipo",
      "url": "URL",
      "typeResolve": {
        "AGS_TILED": "Piastrella",
        "AGS_DYNAMIC": "Dinamico",
        "AGS_FEATURE": "Caratteristica",
        "UNKNOWN": "Sconosciuto"
      },
      "dataView": {
        "noDataFound": "Nessun argomento di ricerca trovato ...",
        "pager": {
          "pageSizeLabelText": "Argomenti di ricerca ${pageStartItemNumber} - ${pageEndItemNumber} di ${itemCount}",
          "pageLabelText": "Pagina ${currentPage} di ${endPage}",
          "backButtonTooltip": "Pagina precedente",
          "forwardButtonTooltip": "Pagina successiva",
          "firstButtonTooltip": "Prima pagina",
          "lastButtonTooltip": "Ultima pagina"
        },
        "filter": {
          "menuDefaultLabel": "Tutto",
          "textBoxPlaceHolder": ""
        }
      }
    }
  }
}