{
  "bundleName": "Consolle",
  "bundleDescription": "La console consente di gestire e monitorare il bundle installato. Indica anche i servizi, componenti e messaggi di log.",
  "ui": {
    "windowTitle": "Consolle",
    "bundleTab": "Bundles",
    "bundlesStoreFields": {
      "id": "ID",
      "name": "Nome",
      "description": "Descrizione",
      "state": "Stato",
      "autostartPolicy": "Politica Avvio automatico",
      "symbolicName": "Nome simbolico",
      "version": "Versione",
      "startLevel": "Inizio Livello",
      "vendor": "Provider",
      "location": "Posizione"
    },
    "servicesTab": "Servizi",
    "servicesStoreFields": {
      "id": "ID",
      "provides": "Interfacce",
      "bundle": "Fascio",
      "component": "Componente",
      "properties": "Proprietà"
    },
    "componentsTab": "Componenti",
    "componentsStoreFields": {
      "id": "ID",
      "name": "Nome",
      "state": "Stato",
      "properties": "Proprietà",
      "instances": "Istanze",
      "log": "Log",
      "bundleName": "Fascio"
    },
    "messagesTab": "Messaggi",
    "messagesStoreFields": {
      "level": "Livello",
      "time": "Tempo",
      "message": "Breve descrizione",
      "announcement": "Messaggio"
    },
    "tools": {
      "bundles": {
        "start": {
          "title": "Inizio Bundles",
          "tooltip": "Inizia Bundles selezionati"
        },
        "stop": {
          "title": "Arresto Bundles",
          "tooltip": "Smettere Bundles selezionati"
        }
      },
      "components": {
        "configure": {
          "title": "Configurare i componenti",
          "tooltip": "Configura componente selezionato"
        }
      }
    },
    "dataView": {
      "pager": {
        "backButtonTooltip": "Indietro",
        "forwardButtonTooltip": "Avanti",
        "firstButtonTooltip": "Prima pagina",
        "lastButtonTooltip": "Ultima pagina",
        "pageLabelText": "Pagina ${currentPage} di ${endPage}",
        "zeroResultsText": "",
        "pageSizeLabelText": "${pageStartItemNumber} - ${pageEndItemNumber} di ${itemCount}"
      },
      "filter": {
        "menuDefaultLabel": "Tutto",
        "textBoxPlaceHolder": "Cercare ..."
      },
      "DGRID": {
        "noDataMessage": "Nessun dato.",
        "loadingMessage": "Caricamento dei dati ..."
      }
    },
    "dataFormNotInstalled": "Il bundle DataForm non è installato. Per abilitare la funzionalità di configurazione del componente aggiungere il pacchetto DataForm al file app.json."
  }
}