{
  "bundleName": "Geonames - Configurazione",
  "bundleDescription": "Il fascio configurazione del fascio Geonames.",
  "menu": {
    "geonames": {
      "title": "Geonames",
      "description": "Scegli un negozio Geonames"
    },
    "wikipedia": {
      "title": "Wikipedia"
    },
    "poi": {
      "title": "Punti di interesse"
    },
    "postalcodes": {
      "title": "NPA"
    }
  },
  "common": {
    "enabled": "Cerca topic attivi",
    "enabledTooltip": "Consente l'argomento di ricerca da utilizzare nella ricerca di Omni.",
    "defaultLabel": "Segnaposto",
    "defaultLabelTooltip": "Definisce il testo predefinito del campo di input di ricerca (valore è facoltativo).",
    "pageSize": "Risultati Massimo",
    "pageSizeTooltip": "Numero massimo di colpi nei risultati (gamma: 0-100; 0 è illimitato).",
    "typingdelay": "Ritardo [ms]",
    "typingdelayTooltip": "Pausa tra le pressioni dei tasti prima che la query viene inviata (0-1000 millisecondi)",
    "languageAware": "Lingua risultati aware",
    "languageAwareTooltip": "Il linguaggio usato in map.apps sarà utilizzato per recuperare i risultati localizzati.",
    "url": "URL del servizio",
    "urlTooltip": "URL del servizio di ricerca REST endpoint.",
    "username": "Geonames nome utente",
    "usernameTooltip": "Nome del conto Geonames personale."
  },
  "wikipediaWidget": {
    "description": "Configurazione della ricerca per argomento Wikipedia."
  },
  "poiWidget": {
    "description": "Configurazione per Punto di Interesse ricerca negozio."
  },
  "postalcodesWidget": {
    "description": "Configurazione della ricerca di codice postale argomento.",
    "countries": "Filtro Paese",
    "countriesTooltip": "Codice del paese per filtrare i risultati, per esempio. \"DE\" (valore è facoltativo)."
  },
  "stores": {
    "postalcodes": {
      "placeHolder": "Inserisci il codice postale o il nome posto ..."
    },
    "wikipedia": {
      "placeHolder": "Immettere un termine di ricerca ..."
    },
    "poi": {
      "placeHolder": "Punto di interesse ..."
    }
  }
}