{
  "bundleName": "Esri CH Location Finder",
  "bundleDescription": "Una posizione può essere cercata inserendo criteri di ricerca in un campo di testo. L'applicazione aiuta l'utente a trovare la posizione desiderata suggerendo automaticamente risultati utili durante la digitazione.",
  "typeResolver": {
    "Gemeinde": "Comunità",
    "TopoName": "Nome topografico",
    "Ort": "Luogo",
    "Straße": "Strada",
    "Kreis": "Contea",
    "Regierungsbezirk": "Quartiere",
    "Address": "Indirizzo"
  },
  "stores": {
    "locationFinder": {
      "name": "Ricerca nel sito",
      "description": "Plugin per il servizio di ricerca posizione ESRI CH.",
      "placeHolder": "Ubicazione, indirizzo, POI ..."
    },
    "fields": {
      "type": "Tipo",
      "ort": "Luogo",
      "plz": "Codice Postale",
      "ote": "Quartiere",
      "str": "Strada",
      "hnr": "Numero civico",
      "name": "Nome",
      "id": "ID",
      "lan": "Stato",
      "rbz": "Quartiere",
      "krs": "Contea",
      "gde": "Comunità"
    }
  }
}