{
  "bundleName": "Panoramica Mappa Configurazione",
  "bundleDescription": "Il bundle di configurazione per la mappa panoramica.",
  "menu": {
    "title": "Carta geografica"
  },
  "widget": {
    "description": "Seleziona un servizio per la mappa panoramica. Si può anche definire un livello se più di uno è disponibile.",
    "hint": "I nuovi servizi possono essere aggiunti nel menu 'Servizi di gestione'.",
    "service": "Servizio Map",
    "layers": "Strato",
    "transparency": "Trasparenza del rettangolo",
    "color": "Colore del rettangolo",
    "allLayers": "Tutto disponibile",
    "expandFactor": "Espansione / fattore di zoom",
    "errorMessage": "Seleziona almeno uno strato!"
  }
}