{
  "bundleName": "La gestione dei parametri",
  "bundleDescription": "La gestione dei parametri è responsabile quando si lancia l'applicazione per il trasferimento dei parametri dall'URL ai componenti corrispondenti.",
  "menu": {
    "title": "Strumento Link"
  },
  "widget": {
    "description": "Configurazione strumento Link.",
    "showLink": {
      "title": "Guarda i Link",
      "tooltip": "Visualizza una casella di testo che contiene il collegamento parametrizzato per la visualizzazione corrente della mappa."
    },
    "showHTMLSnippet": {
      "title": "Mostra codice che può essere incorporato in pagina HTML.",
      "tooltip": "Mostra codice che può essere incorporato in pagina HTML."
    },
    "showMailToButton": {
      "title": "Vedi E-Mail pulsante",
      "tooltip": "Mostra un pulsante per scrivere una e-mail contenente il link per la visualizzazione corrente della mappa."
    },
    "showRefreshButton": {
      "title": "Mostra pulsante Aggiorna",
      "tooltip": "Mostra un pulsante per aggiornare i collegamenti nella finestra di dialogo."
    },
    "showQRCode": {
      "title": "Mostra QR code",
      "tooltip": "Mostra una immagine del codice QR."
    }
  }
}