{
  "bundleName": "Street View di configurazione",
  "bundleDescription": "Pacchetto di configurazione per Streetview bundle.",
  "menu": {
    "title": "Google Street View"
  },
  "widget": {
    "description": "Configurazione per lo strumento di Google Street View.",
    "hint": "Assicurati che si sta utilizzando Google Street View in base ai termini e condizioni di Google.",
    "disableDoubleClickZoom": "Zoom on double-click",
    "panControlEnabled": "Abilita controllo di navigazione",
    "scrollWheelZoomingEnabled": "Abilita zoom scroll-wheel",
    "scrollWheelTurningEnabled": "Abilita svolta scroll-wheel",
    "zoomControlEnabled": "Abilita controllo zoom"
  }
}