{
  "bundleName": "Finestra Gestione",
  "bundleDescription": "--Funzionalità di base-- Il window manager è responsabile della gestione di tutte le finestre di dialogo.",
  "ui": {
    "defaultWindowTitle": "Finestra",
    "closeBtn": {
      "title": "Vicino"
    },
    "minimizeBtn": {
      "title": "Ridurre al minimo"
    },
    "maximizeBtn": {
      "title": "Massimizzare"
    },
    "restoreBtn": {
      "title": "Ripristinare"
    },
    "opacityBtn": {
      "title": "Cambia la trasparenza"
    },
    "collapseBtn": {
      "title": "Hide content"
    },
    "loading": {
      "title": "Attendere prego!",
      "message": "Caricamento In Corso ..."
    },
    "okcancel": {
      "title": "Domanda",
      "okButton": "Ok",
      "cancelButton": "Cancellare"
    }
  }
}