{
  "bundleName": "Könyvjelző Configuration Wizard Bundle",
  "bundleDescription": "Konfigurációs varázsló köteg könyvjelzők widget-",
  "menu": {
    "title": "Térbeli könyvjelzők"
  },
  "widget": {
    "description": "Konfigurációs könyvjelzők",
    "editable": "Hagyjuk egyéni könyvjelzők",
    "localStorageKey": "Neve helyi tároló",
    "predefinedBookmarks": "Előre definiált könyvjelzők",
    "predefinedBookmarksHint": "Lehetőség van prefine a könyvjelzők közé. Ezek a könyvjelzők lesz elérhető minden felhasználó számára alapértelmezés szerint. Mozgassa a térképet a kívánt mértékben és mentsd el."
  }
}