{
  "bundleName": "Konzol",
  "bundleDescription": "A konzol segít irányítása és ellenőrzése a telepített csomagot. Azt is jelzi, szolgáltatások, alkatrészek és üzeneteket.",
  "ui": {
    "windowTitle": "Konzol",
    "bundleTab": "Kötegek",
    "bundlesStoreFields": {
      "id": "ID",
      "name": "Név",
      "description": "Leírás",
      "state": "Állapot",
      "autostartPolicy": "Automatikus indítás Policy",
      "symbolicName": "Szimbolikus név",
      "version": "Változat",
      "startLevel": "Kezdő szint",
      "vendor": "Ellátó",
      "location": "Elhelyezkedés"
    },
    "servicesTab": "Szolgáltatások",
    "servicesStoreFields": {
      "id": "ID",
      "provides": "Interfészek",
      "bundle": "Batyu",
      "component": "Összetevő",
      "properties": "Tulajdonságok"
    },
    "componentsTab": "Alkatrészek",
    "componentsStoreFields": {
      "id": "ID",
      "name": "Név",
      "state": "Állapot",
      "properties": "Tulajdonságok",
      "instances": "Példányok",
      "log": "Bejelentkezés",
      "bundleName": "Batyu"
    },
    "messagesTab": "Üzenetek",
    "messagesStoreFields": {
      "level": "Szint",
      "time": "Idő",
      "message": "Rövid leírás",
      "announcement": "Üzenet"
    },
    "tools": {
      "bundles": {
        "start": {
          "title": "Start csomag",
          "tooltip": "Kezdje Válogatott csomag"
        },
        "stop": {
          "title": "Megállás csomag",
          "tooltip": "Állj Válogatott csomag"
        }
      },
      "components": {
        "configure": {
          "title": "Konfigurálása alkatrészek",
          "tooltip": "Konfigurálása kiválasztott összetevő"
        }
      }
    },
    "dataView": {
      "pager": {
        "backButtonTooltip": "Vissza",
        "forwardButtonTooltip": "Előre",
        "firstButtonTooltip": "Első oldal",
        "lastButtonTooltip": "Utolsó oldal",
        "pageLabelText": "Oldal ${currentPage} a ${endPage}",
        "zeroResultsText": "",
        "pageSizeLabelText": "${pageStartItemNumber} - ${pageEndItemNumber} a ${itemCount}"
      },
      "filter": {
        "menuDefaultLabel": "Minden",
        "textBoxPlaceHolder": "Keresse meg a ..."
      },
      "DGRID": {
        "noDataMessage": "Nincs adat.",
        "loadingMessage": "Adatok betöltése ..."
      }
    },
    "dataFormNotInstalled": "A dataform csomag nincs telepítve. Ahhoz, hogy az alkatrész konfiguráció funkció hozzá a dataform bundle a app.json fájlt."
  }
}