{
  "bundleName": "Szerkesztés",
  "bundleDescription": "A szerkesztő csomag egy sor olyan funkcióval szerkesztő eszközök a felhasználó számára.",
  "ui": {
    "messages": {
      "updateInfo": "Frissítés indult.",
      "updateSuccess": "Változások sikeresen alkalmazták.",
      "updateFailure": "Hiba történt. Változások mentése nem sikerült.",
      "deleteInfo": "Törlés funkció indult.",
      "deleteSuccess": "Törlése sikert.",
      "deleteFailure": "Törlése nem sikerült!",
      "createInfo": "Megment kezdett.",
      "createSuccess": "Geo-objektumok mentett.",
      "createFailure": "Nem lehet menteni a geo-objektumok.",
      "changesInfo": "Menteni a változásokat?"
    },
    "saveChangesInfoDialog": {
      "okButton": "Igen",
      "cancelButton": "Nincs"
    },
    "tools": {
      "editingCreateFeature": "Új létrehozása geo-objektumok",
      "editingFeature": "Szerkesztés geo-objektumok",
      "deleteFeature": "Tiszta geo-objektumok",
      "editingUI": "Szerkesztési lehetőségek"
    },
    "snapping": {
      "windowTitle": "Harapós",
      "alwaysSnap": "A repülő start mindig aktív",
      "alwaysSnapTooltip": "Ellenőrizze, hogy használni harapós véglegesen. Szüntesse meg, hogy használja harapós csak billentyűzettel.",
      "snappingKey": {
        "label": "Kezdje gombra:"
      },
      "tolerance": {
        "label": "Tolerancia [px]",
        "tooltip": "Távolság a kurzort egy pontot zsákmányolt (pixel) hozzá."
      }
    },
    "attributeEditor": {
      "windowTitle": "Attribútumok",
      "applyButton": "Save",
      "cancelButton": "Mégsem",
      "deleteButton": "Töröl",
      "notvalid": "A megadott adatokat nem érvényes!"
    },
    "attachmentEditor": {
      "windowTitle": "Mellékletek"
    },
    "dataformControlResolver": {
      "emptyValuesLabelPlaceHolder": "(Nincs érték)",
      "nullValuesLabelPlaceHolder": "(Nincs érték)"
    },
    "drawfeature": {
      "dataview": {
        "title": "Objektum típusok",
        "pager": {
          "backButtonTooltip": "Vissza",
          "forwardButtonTooltip": "Előre",
          "firstButtonTooltip": "Első",
          "lastButtonTooltip": "Utolsó",
          "pageLabelText": "Oldal ${currentPage} a ${endPage}",
          "zeroResultsText": "",
          "pageSizeLabelText": "${pageStartItemNumber} - ${pageEndItemNumber} a ${itemCount}"
        },
        "filter": {
          "menuDefaultLabel": "Minden",
          "textBoxPlaceHolder": "Keresse meg a ..."
        },
        "ICON": {
          "noDataMessage": "Nincs adat.",
          "loadingMessage": "Loading ..."
        },
        "DGRID": {
          "noDataMessage": "Nincs adat.",
          "loadingMessage": "Loading ...",
          "error": "Hiba:"
        }
      }
    },
    "editgeometry": {
      "activation": {
        "warn": "A kiválasztott geo-objektumok nem szerkeszthetők a jelenlegi eszköz.",
        "info": "Geo-objektumok választott."
      }
    },
    "applyEditsProcessor": {
      "undoAdd": "Az objektum létrehozása",
      "undoDelete": "Tárgy törlése",
      "undoUpdate": "Változást objektum"
    }
  }
}