{
  "bundleName": "Follow Me",
  "bundleDescription": "A Follow Me funkció egy hatékony eszköz a dolgozó map.apps. A felhasználók megoszthatják egymással térképen másokkal, vagy csatlakozik egy meglévő bemutatót ülésén.",
  "tool": {
    "title": "Follow Me",
    "tooltip": "Follow Me"
  },
  "ui": {
    "createSessionTitle": "Hozzon létre ülésen",
    "joinSessionTitle": "Csatlakozz a munkamenet",
    "createSessionHint": "Kérjük adja meg nevét, majd kattintson a \"Start ülésen\".",
    "inviteSessionHint": "Hívja meg vendégként részt venni az ülésen azzal, hogy a munkamenet-azonosító:",
    "joinSessionHint": "Hogy részt vegyen egy munkamenet adja meg nevét és a munkamenet-azonosító és kattintson a \"Csatlakozzon ülésen\".",
    "name": "Az Ön neve",
    "sessionId": "Ülés ID",
    "startSession": "Kezdje ülésen",
    "stopSession": "Megállás ülésen",
    "joinSession": "Csatlakozz a munkamenet",
    "leaveSession": "Hagyja ülésen",
    "inviteSession": "Meghívás küldése",
    "organizer": "Szervező",
    "presenter": "Bemutató",
    "owner": "Nekem",
    "user": "Használó",
    "session": "Ülés",
    "markLocation": "Ossza meg a helyét",
    "markLocationTooltip": "Megosztani egy helyen Follow Me",
    "pleaseWaitForConnection": "Kérem, várjon, összekötő ...",
    "userList": {
      "attendees": "Résztvevők",
      "numberOfAttendeesSingular": "1 résztvevő van itt:",
      "numberOfAttendeesPlural": "${numberOfAttendees} résztvevők online:"
    },
    "sessionInfo": {
      "sessionActive": "${id}",
      "sessionCreatedAt": "Létrehozott ${timestamp}"
    },
    "invitation": {
      "subject": "Meghívást kaptál egy Follow Me ülésen",
      "body": "Hogy csatlakozzon a munkamenet használja az URL ${url} és a munkamenet-azonosító ${id}"
    },
    "notifications": {
      "newUser": {
        "shrt": "${type} ${user} csatlakozott",
        "lng": "${type} ${user} csatlakozott a Follow Me ülésen."
      },
      "userLeft": {
        "shrt": "${user} elhagyta a munkamenet",
        "lng": "${user} elhagyta a Follow Me ülésén."
      },
      "sessionClosed": {
        "shrt": "Session zárva volt",
        "lng": "A Follow Me ülésen zárva volt a rendező."
      },
      "parserError": {
        "shrt": "Hiba feldolgozása közben a kiszolgáló válaszából"
      },
      "serverError": {
        "shrt": "Hiba a szerver történt"
      },
      "topicNotExistent": {
        "shrt": "A session ID nem létezik"
      },
      "newMarker": {
        "shrt": "${user} megosztott egy új helyre"
      },
      "unkownError": {
        "shrt": "Ismeretlen hiba történt"
      }
    }
  }
}