{
  "bundleName": "Értesítések",
  "bundleDescription": "Minden állapotát, a haladás és hibaüzenet jelenik meg a felhasználónak egy pop-up üzenetet, ha egyértelmű, hogy mi történik az alkalmazás.",
  "ui": {
    "title": "Notifier",
    "tooltips": {
      "close": "Bezár Üzenet",
      "glue": "Csatolja az üzenetet"
    }
  }
}