{
  "bundleName": "Áttekintő térkép konfiguráció",
  "bundleDescription": "A konfigurációs csomag az áttekintő térkép.",
  "menu": {
    "title": "Áttekintő térkép"
  },
  "widget": {
    "description": "Kérjük, válasszon egy szolgáltatást az áttekintő térkép. Ön is definiálunk egy réteget, ha egynél több áll rendelkezésre.",
    "hint": "Új szolgáltatások lehet adni a menüben \"Services Management\".",
    "service": "Térképszolgáltatás",
    "layers": "Réteg",
    "transparency": "Átláthatóság a téglalap",
    "color": "Színes téglalap",
    "allLayers": "Minden elérhető",
    "expandFactor": "Kiterjesztés / zoom tényező",
    "errorMessage": "Kérjük, válasszon ki legalább egy réteget!"
  }
}