{
  "bundleName": "Rajzol",
  "bundleDescription": "Rajz Bundle biztosít a felhasználó rajz és szerkesztő eszközök.",
  "menu": {
    "title": "Rajzol"
  },
  "widget": {
    "description": "Kérjük, válassza ki azokat, rajzeszközök, hogy rendelkezésre kell állnia Úszás:"
  },
  "tools": {
    "DrawEraseAllTool": {
      "title": "Delete minden",
      "tooltip": "Szerszám törlés gombot (All rajzok törlése)"
    },
    "DrawPointTool": {
      "title": "Pont",
      "tooltip": "Pont eszköz kapcsoló (rajzol pont)"
    },
    "DrawMultipointTool": {
      "title": "Pont",
      "tooltip": "Pont eszköz kapcsoló (Döntetlen több ponton)"
    },
    "DrawLineTool": {
      "title": "Vonal",
      "tooltip": "Vonal eszköz kapcsoló (egy egyenes vonalat rajzol)"
    },
    "DrawPolylineTool": {
      "title": "Töröttvonal",
      "tooltip": "A Vonallánc eszköz kapcsoló (Döntetlen a vonallánc)"
    },
    "DrawFreehandPolylineTool": {
      "title": "Szabadkézi vonallánc",
      "tooltip": "Szabadkézi vonallánc eszköz kapcsolót (Döntetlen a felhasználó által meghatározott trace)"
    },
    "DrawPolygonTool": {
      "title": "Poligon",
      "tooltip": "Sokszög eszköz kapcsoló (Döntetlen sokszög)"
    },
    "DrawFreehandPolygonTool": {
      "title": "Szabadkézi Sokszög",
      "tooltip": "Szabadkézi sokszög eszköz kapcsolót (Döntetlen a szabadon definiálható poligon)"
    },
    "DrawExtentTool": {
      "title": "Ingyenes téglalap",
      "tooltip": "Szabadkézi téglalap eszköz kapcsolót (Döntetlen a szabadon definiálható téglalap)"
    },
    "DrawCircleTool": {
      "title": "Kör",
      "tooltip": "Kör eszköz kapcsoló (egy kört rajzol)"
    },
    "DrawEllipseTool": {
      "title": "Ellipszis",
      "tooltip": "Ellipszis eszköz kapcsoló (Döntetlen ellipszis)"
    },
    "DrawRectangleTool": {
      "title": "Téglalap",
      "tooltip": "Téglalap eszköz kapcsoló (Egy négyszöget rajzol)"
    },
    "DrawArrowTool": {
      "title": "Ingyenes nyíl",
      "tooltip": "Nyíl eszköz kapcsoló (Döntetlen egy nyíl bármely irányba)"
    },
    "DrawLeftArrowTool": {
      "title": "Bal nyíl",
      "tooltip": "Nyíl kapcsolót balra eszközt (Draw egy nyíl a bal gomb)"
    },
    "DrawRightArrowTool": {
      "title": "Jobb nyíl",
      "tooltip": "nyíllal kapcsolót a megfelelő eszközt (Draw mutató nyíllal jobbra)"
    },
    "DrawUpArrowTool": {
      "title": "Fel nyíl",
      "tooltip": "nyíl kapcsolót eszköz (rajzol ételek fel nyíl)"
    },
    "DrawDownArrowTool": {
      "title": "Le nyíl",
      "tooltip": "nyíl kapcsolóval eszköz (Húzzunk egy nyíl mutat lefelé)"
    },
    "DrawTriangleTool": {
      "title": "Háromszög",
      "tooltip": "háromszög eszköz kapcsoló (Döntetlen a háromszög)"
    },
    "DrawTextTool": {
      "title": "Szöveg",
      "tooltip": "Szöveg eszköz kapcsoló (bármilyen szöveget a kártyán write)"
    },
    "DrawSymbolTool": {
      "title": "Szimbólum",
      "tooltip": "Ikon Eszköz kapcsoló (A szimbólum a szimbólum galéria rajz)"
    },
    "StylePropertiesTool": {
      "title": "Tulajdonságok / Sablonok",
      "tooltip": "Tulajdonságai eszköz kapcsoló (karaktertulajdonságok és sablonok Szerkesztés)"
    },
    "MoveScaleRotateVerticesTool": {
      "title": "Szerkesztés grafikai",
      "tooltip": "Szerkesztés eszköz kapcsoló (a szám mozog, átméretezni vagy elforgatni vagy pedig szerkesztheti a node)"
    },
    "MoveScaleRotateTool": {
      "title": "Mozgás",
      "tooltip": "Mozgás eszköz kapcsoló (a szám mozog, átméretezni vagy elforgatni)"
    },
    "EditVerticesTool": {
      "title": "Csomópont szerkesztése",
      "tooltip": "Szerkesztés eszköz kapcsoló (csomópontok egy gráf szerkesztés)"
    },
    "DeleteGraphicTool": {
      "title": "Töröl",
      "tooltip": "Szerszám törlés kapcsolót (törlés grafikus)"
    },
    "ExportGraphicsTool": {
      "title": "Kiviteli grafikák",
      "tooltip": "Kiviteli eszköz kapcsoló (grafikus kiviteli)"
    }
  }
}