{
  "bundleName": "témák-konfiguráció",
  "bundleDescription": "Konfigurációs csomagot a témák köré.",
  "menu": {
    "title": "Dizájn"
  },
  "widget": {
    "description": "Válogatás a dizájn a app. A dizájn határozza meg a megjelenését az app; Színek, ikonok, betűtípusok, stb",
    "selectedTheme": {
      "title": "Válogatott dizájn:",
      "tooltip": "Válassza ki a dizájn amelyet fel kell használni a app"
    }
  }
}